%!PS-Adobe-3.0 EPSF-3.0
%%Title: /home/quent/Documents/repos/latex/master-thesis/figures/activation_functions.eps
%%Creator: matplotlib version 3.0.3, http://matplotlib.org/
%%CreationDate: Tue May 14 16:06:18 2019
%%Orientation: portrait
%%BoundingBox: -54 144 666 648
%%EndComments
%%BeginProlog
/mpldict 9 dict def
mpldict begin
/m { moveto } bind def
/l { lineto } bind def
/r { rlineto } bind def
/c { curveto } bind def
/cl { closepath } bind def
/box {
m
1 index 0 r
0 exch r
neg 0 r
cl
} bind def
/clipbox {
box
clip
newpath
} bind def
%!PS-Adobe-3.0 Resource-Font
%%Title: DejaVu Sans
%%Copyright: Copyright (c) 2003 by Bitstream, Inc. All Rights Reserved. Copyright (c) 2006 by Tavmjong Bah. All Rights Reserved. DejaVu changes are in public domain 
%%Creator: Converted from TrueType to type 3 by PPR
25 dict begin
/_d{bind def}bind def
/_m{moveto}_d
/_l{lineto}_d
/_cl{closepath eofill}_d
/_c{curveto}_d
/_sc{7 -1 roll{setcachedevice}{pop pop pop pop pop pop}ifelse}_d
/_e{exec}_d
/FontName /DejaVuSans def
/PaintType 0 def
/FontMatrix[.001 0 0 .001 0 0]def
/FontBBox[-1021 -463 1793 1232]def
/FontType 3 def
/Encoding [ /space /parenleft /parenright /plus /comma /period /zero /one /two /three /five /equal /L /R /T /a /c /e /g /h /i /k /l /m /n /o /s /t /u /x /y /braceleft /braceright /minus ] def
/FontInfo 10 dict dup begin
/FamilyName (DejaVu Sans) def
/FullName (DejaVu Sans) def
/Notice (Copyright (c) 2003 by Bitstream, Inc. All Rights Reserved. Copyright (c) 2006 by Tavmjong Bah. All Rights Reserved. DejaVu changes are in public domain ) def
/Weight (Book) def
/Version (Version 2.35) def
/ItalicAngle 0.0 def
/isFixedPitch false def
/UnderlinePosition -130 def
/UnderlineThickness 90 def
end readonly def
/CharStrings 35 dict dup begin
/.notdef 0 def
/space{318 0 0 0 0 0 _sc
}_d
/parenleft{390 0 86 -131 310 759 _sc
310 759 _m
266 683 234 609 213 536 _c
191 463 181 389 181 314 _c
181 238 191 164 213 91 _c
234 17 266 -56 310 -131 _c
232 -131 _l
183 -54 146 20 122 94 _c
98 168 86 241 86 314 _c
86 386 98 459 122 533 _c
146 607 182 682 232 759 _c
310 759 _l
_cl}_d
/parenright{390 0 80 -131 304 759 _sc
80 759 _m
158 759 _l
206 682 243 607 267 533 _c
291 459 304 386 304 314 _c
304 241 291 168 267 94 _c
243 20 206 -54 158 -131 _c
80 -131 _l
123 -56 155 17 177 91 _c
198 164 209 238 209 314 _c
209 389 198 463 177 536 _c
155 609 123 683 80 759 _c
_cl}_d
/plus{838 0 106 0 732 627 _sc
460 627 _m
460 355 _l
732 355 _l
732 272 _l
460 272 _l
460 0 _l
378 0 _l
378 272 _l
106 272 _l
106 355 _l
378 355 _l
378 627 _l
460 627 _l
_cl}_d
/comma{318 0 77 -115 220 124 _sc
117 124 _m
220 124 _l
220 40 _l
140 -115 _l
77 -115 _l
117 40 _l
117 124 _l
_cl}_d
/period{318 0 107 0 210 124 _sc
107 124 _m
210 124 _l
210 0 _l
107 0 _l
107 124 _l
_cl}_d
/zero{636 0 66 -13 570 742 _sc
318 664 _m
267 664 229 639 203 589 _c
177 539 165 464 165 364 _c
165 264 177 189 203 139 _c
229 89 267 64 318 64 _c
369 64 407 89 433 139 _c
458 189 471 264 471 364 _c
471 464 458 539 433 589 _c
407 639 369 664 318 664 _c
318 742 _m
399 742 461 709 505 645 _c
548 580 570 486 570 364 _c
570 241 548 147 505 83 _c
461 19 399 -13 318 -13 _c
236 -13 173 19 130 83 _c
87 147 66 241 66 364 _c
66 486 87 580 130 645 _c
173 709 236 742 318 742 _c
_cl}_d
/one{636 0 110 0 544 729 _sc
124 83 _m
285 83 _l
285 639 _l
110 604 _l
110 694 _l
284 729 _l
383 729 _l
383 83 _l
544 83 _l
544 0 _l
124 0 _l
124 83 _l
_cl}_d
/two{{636 0 73 0 536 742 _sc
192 83 _m
536 83 _l
536 0 _l
73 0 _l
73 83 _l
110 121 161 173 226 239 _c
290 304 331 346 348 365 _c
380 400 402 430 414 455 _c
426 479 433 504 433 528 _c
433 566 419 598 392 622 _c
365 646 330 659 286 659 _c
255 659 222 653 188 643 _c
154 632 117 616 78 594 _c
78 694 _l
118 710 155 722 189 730 _c
223 738 255 742 284 742 _c
}_e{359 742 419 723 464 685 _c
509 647 532 597 532 534 _c
532 504 526 475 515 449 _c
504 422 484 390 454 354 _c
446 344 420 317 376 272 _c
332 227 271 164 192 83 _c
_cl}_e}_d
/three{{636 0 76 -13 556 742 _sc
406 393 _m
453 383 490 362 516 330 _c
542 298 556 258 556 212 _c
556 140 531 84 482 45 _c
432 6 362 -13 271 -13 _c
240 -13 208 -10 176 -4 _c
144 1 110 10 76 22 _c
76 117 _l
103 101 133 89 166 81 _c
198 73 232 69 268 69 _c
330 69 377 81 409 105 _c
441 129 458 165 458 212 _c
458 254 443 288 413 312 _c
383 336 341 349 287 349 _c
}_e{202 349 _l
202 430 _l
291 430 _l
339 430 376 439 402 459 _c
428 478 441 506 441 543 _c
441 580 427 609 401 629 _c
374 649 336 659 287 659 _c
260 659 231 656 200 650 _c
169 644 135 635 98 623 _c
98 711 _l
135 721 170 729 203 734 _c
235 739 266 742 296 742 _c
370 742 429 725 473 691 _c
517 657 539 611 539 553 _c
539 513 527 479 504 451 _c
481 423 448 403 406 393 _c
_cl}_e}_d
/five{{636 0 77 -13 549 729 _sc
108 729 _m
495 729 _l
495 646 _l
198 646 _l
198 467 _l
212 472 227 476 241 478 _c
255 480 270 482 284 482 _c
365 482 429 459 477 415 _c
525 370 549 310 549 234 _c
549 155 524 94 475 51 _c
426 8 357 -13 269 -13 _c
238 -13 207 -10 175 -6 _c
143 -1 111 6 77 17 _c
77 116 _l
106 100 136 88 168 80 _c
199 72 232 69 267 69 _c
}_e{323 69 368 83 401 113 _c
433 143 450 183 450 234 _c
450 284 433 324 401 354 _c
368 384 323 399 267 399 _c
241 399 214 396 188 390 _c
162 384 135 375 108 363 _c
108 729 _l
_cl}_e}_d
/equal{838 0 106 172 732 454 _sc
106 454 _m
732 454 _l
732 372 _l
106 372 _l
106 454 _l
106 255 _m
732 255 _l
732 172 _l
106 172 _l
106 255 _l
_cl}_d
/L{557 0 98 0 552 729 _sc
98 729 _m
197 729 _l
197 83 _l
552 83 _l
552 0 _l
98 0 _l
98 729 _l
_cl}_d
/R{{695 0 98 0 666 729 _sc
444 342 _m
465 334 486 319 506 296 _c
526 272 546 240 566 199 _c
666 0 _l
560 0 _l
467 187 _l
443 235 419 268 397 284 _c
374 300 343 308 304 308 _c
197 308 _l
197 0 _l
98 0 _l
98 729 _l
321 729 _l
404 729 466 711 507 677 _c
548 642 569 589 569 519 _c
569 473 558 434 537 404 _c
515 374 484 353 444 342 _c
197 648 _m
197 389 _l
321 389 _l
}_e{368 389 404 400 428 422 _c
452 444 465 476 465 519 _c
465 561 452 593 428 615 _c
404 637 368 648 321 648 _c
197 648 _l
_cl}_e}_d
/T{611 0 -2 0 614 729 _sc
-2 729 _m
614 729 _l
614 646 _l
355 646 _l
355 0 _l
256 0 _l
256 646 _l
-2 646 _l
-2 729 _l
_cl}_d
/a{{613 0 60 -13 522 560 _sc
343 275 _m
270 275 220 266 192 250 _c
164 233 150 205 150 165 _c
150 133 160 107 181 89 _c
202 70 231 61 267 61 _c
317 61 357 78 387 114 _c
417 149 432 196 432 255 _c
432 275 _l
343 275 _l
522 312 _m
522 0 _l
432 0 _l
432 83 _l
411 49 385 25 355 10 _c
325 -5 287 -13 243 -13 _c
187 -13 142 2 109 33 _c
76 64 60 106 60 159 _c
}_e{60 220 80 266 122 298 _c
163 329 224 345 306 345 _c
432 345 _l
432 354 _l
432 395 418 427 391 450 _c
364 472 326 484 277 484 _c
245 484 215 480 185 472 _c
155 464 127 453 100 439 _c
100 522 _l
132 534 164 544 195 550 _c
226 556 256 560 286 560 _c
365 560 424 539 463 498 _c
502 457 522 395 522 312 _c
_cl}_e}_d
/c{{550 0 55 -13 488 560 _sc
488 526 _m
488 442 _l
462 456 437 466 411 473 _c
385 480 360 484 334 484 _c
276 484 230 465 198 428 _c
166 391 150 339 150 273 _c
150 206 166 154 198 117 _c
230 80 276 62 334 62 _c
360 62 385 65 411 72 _c
437 79 462 90 488 104 _c
488 21 _l
462 9 436 0 410 -5 _c
383 -10 354 -13 324 -13 _c
242 -13 176 12 128 64 _c
}_e{79 115 55 185 55 273 _c
55 362 79 432 128 483 _c
177 534 244 560 330 560 _c
358 560 385 557 411 551 _c
437 545 463 537 488 526 _c
_cl}_e}_d
/e{{615 0 55 -13 562 560 _sc
562 296 _m
562 252 _l
149 252 _l
153 190 171 142 205 110 _c
238 78 284 62 344 62 _c
378 62 412 66 444 74 _c
476 82 509 95 541 113 _c
541 28 _l
509 14 476 3 442 -3 _c
408 -9 373 -13 339 -13 _c
251 -13 182 12 131 62 _c
80 112 55 181 55 268 _c
55 357 79 428 127 481 _c
175 533 241 560 323 560 _c
397 560 455 536 498 489 _c
}_e{540 441 562 377 562 296 _c
472 322 _m
471 371 457 410 431 440 _c
404 469 368 484 324 484 _c
274 484 234 469 204 441 _c
174 413 156 373 152 322 _c
472 322 _l
_cl}_e}_d
/g{{635 0 55 -207 544 560 _sc
454 280 _m
454 344 440 395 414 431 _c
387 467 349 485 301 485 _c
253 485 215 467 188 431 _c
161 395 148 344 148 280 _c
148 215 161 165 188 129 _c
215 93 253 75 301 75 _c
349 75 387 93 414 129 _c
440 165 454 215 454 280 _c
544 68 _m
544 -24 523 -93 482 -139 _c
440 -184 377 -207 292 -207 _c
260 -207 231 -204 203 -200 _c
175 -195 147 -188 121 -178 _c
}_e{121 -91 _l
147 -105 173 -115 199 -122 _c
225 -129 251 -133 278 -133 _c
336 -133 380 -117 410 -87 _c
439 -56 454 -10 454 52 _c
454 96 _l
435 64 411 40 382 24 _c
353 8 319 0 279 0 _c
211 0 157 25 116 76 _c
75 127 55 195 55 280 _c
55 364 75 432 116 483 _c
157 534 211 560 279 560 _c
319 560 353 552 382 536 _c
411 520 435 496 454 464 _c
454 547 _l
544 547 _l
}_e{544 68 _l
_cl}_e}_d
/h{634 0 91 0 549 760 _sc
549 330 _m
549 0 _l
459 0 _l
459 327 _l
459 379 448 417 428 443 _c
408 469 378 482 338 482 _c
289 482 251 466 223 435 _c
195 404 181 362 181 309 _c
181 0 _l
91 0 _l
91 760 _l
181 760 _l
181 462 _l
202 494 227 519 257 535 _c
286 551 320 560 358 560 _c
420 560 468 540 500 501 _c
532 462 549 405 549 330 _c
_cl}_d
/i{278 0 94 0 184 760 _sc
94 547 _m
184 547 _l
184 0 _l
94 0 _l
94 547 _l
94 760 _m
184 760 _l
184 646 _l
94 646 _l
94 760 _l
_cl}_d
/k{579 0 91 0 576 760 _sc
91 760 _m
181 760 _l
181 311 _l
449 547 _l
564 547 _l
274 291 _l
576 0 _l
459 0 _l
181 267 _l
181 0 _l
91 0 _l
91 760 _l
_cl}_d
/l{278 0 94 0 184 760 _sc
94 760 _m
184 760 _l
184 0 _l
94 0 _l
94 760 _l
_cl}_d
/m{{974 0 91 0 889 560 _sc
520 442 _m
542 482 569 511 600 531 _c
631 550 668 560 711 560 _c
767 560 811 540 842 500 _c
873 460 889 403 889 330 _c
889 0 _l
799 0 _l
799 327 _l
799 379 789 418 771 444 _c
752 469 724 482 686 482 _c
639 482 602 466 575 435 _c
548 404 535 362 535 309 _c
535 0 _l
445 0 _l
445 327 _l
445 379 435 418 417 444 _c
398 469 369 482 331 482 _c
}_e{285 482 248 466 221 435 _c
194 404 181 362 181 309 _c
181 0 _l
91 0 _l
91 547 _l
181 547 _l
181 462 _l
201 495 226 520 255 536 _c
283 552 317 560 357 560 _c
397 560 430 550 458 530 _c
486 510 506 480 520 442 _c
_cl}_e}_d
/n{634 0 91 0 549 560 _sc
549 330 _m
549 0 _l
459 0 _l
459 327 _l
459 379 448 417 428 443 _c
408 469 378 482 338 482 _c
289 482 251 466 223 435 _c
195 404 181 362 181 309 _c
181 0 _l
91 0 _l
91 547 _l
181 547 _l
181 462 _l
202 494 227 519 257 535 _c
286 551 320 560 358 560 _c
420 560 468 540 500 501 _c
532 462 549 405 549 330 _c
_cl}_d
/o{612 0 55 -13 557 560 _sc
306 484 _m
258 484 220 465 192 427 _c
164 389 150 338 150 273 _c
150 207 163 156 191 118 _c
219 80 257 62 306 62 _c
354 62 392 80 420 118 _c
448 156 462 207 462 273 _c
462 337 448 389 420 427 _c
392 465 354 484 306 484 _c
306 560 _m
384 560 445 534 490 484 _c
534 433 557 363 557 273 _c
557 183 534 113 490 63 _c
445 12 384 -13 306 -13 _c
227 -13 165 12 121 63 _c
77 113 55 183 55 273 _c
55 363 77 433 121 484 _c
165 534 227 560 306 560 _c
_cl}_d
/s{{521 0 54 -13 472 560 _sc
443 531 _m
443 446 _l
417 458 391 468 364 475 _c
336 481 308 485 279 485 _c
234 485 200 478 178 464 _c
156 450 145 430 145 403 _c
145 382 153 366 169 354 _c
185 342 217 330 265 320 _c
296 313 _l
360 299 405 279 432 255 _c
458 230 472 195 472 151 _c
472 100 452 60 412 31 _c
372 1 316 -13 246 -13 _c
216 -13 186 -10 154 -5 _c
}_e{122 0 89 8 54 20 _c
54 113 _l
87 95 120 82 152 74 _c
184 65 216 61 248 61 _c
290 61 323 68 346 82 _c
368 96 380 117 380 144 _c
380 168 371 187 355 200 _c
339 213 303 226 247 238 _c
216 245 _l
160 257 119 275 95 299 _c
70 323 58 356 58 399 _c
58 450 76 490 112 518 _c
148 546 200 560 268 560 _c
301 560 332 557 362 552 _c
391 547 418 540 443 531 _c
}_e{_cl}_e}_d
/t{392 0 27 0 368 702 _sc
183 702 _m
183 547 _l
368 547 _l
368 477 _l
183 477 _l
183 180 _l
183 135 189 106 201 94 _c
213 81 238 75 276 75 _c
368 75 _l
368 0 _l
276 0 _l
206 0 158 13 132 39 _c
106 65 93 112 93 180 _c
93 477 _l
27 477 _l
27 547 _l
93 547 _l
93 702 _l
183 702 _l
_cl}_d
/u{634 0 85 -13 543 560 _sc
85 216 _m
85 547 _l
175 547 _l
175 219 _l
175 167 185 129 205 103 _c
225 77 255 64 296 64 _c
344 64 383 79 411 110 _c
439 141 453 183 453 237 _c
453 547 _l
543 547 _l
543 0 _l
453 0 _l
453 84 _l
431 50 405 26 377 10 _c
348 -5 315 -13 277 -13 _c
214 -13 166 6 134 45 _c
101 83 85 140 85 216 _c
311 560 _m
311 560 _l
_cl}_d
/x{592 0 29 0 559 547 _sc
549 547 _m
351 281 _l
559 0 _l
453 0 _l
294 215 _l
135 0 _l
29 0 _l
241 286 _l
47 547 _l
153 547 _l
298 352 _l
443 547 _l
549 547 _l
_cl}_d
/y{592 0 30 -207 562 547 _sc
322 -50 _m
296 -114 271 -157 247 -177 _c
223 -197 191 -207 151 -207 _c
79 -207 _l
79 -132 _l
132 -132 _l
156 -132 175 -126 189 -114 _c
203 -102 218 -75 235 -31 _c
251 9 _l
30 547 _l
125 547 _l
296 119 _l
467 547 _l
562 547 _l
322 -50 _l
_cl}_d
/braceleft{{636 0 125 -162 511 760 _sc
511 -92 _m
511 -162 _l
481 -162 _l
399 -162 345 -150 318 -126 _c
290 -102 277 -54 277 17 _c
277 134 _l
277 183 268 217 250 236 _c
232 254 201 264 155 264 _c
125 264 _l
125 334 _l
155 334 _l
201 334 233 343 251 362 _c
268 380 277 414 277 463 _c
277 580 _l
277 652 290 700 318 724 _c
345 748 399 760 481 760 _c
511 760 _l
511 690 _l
478 690 _l
}_e{432 690 402 682 388 668 _c
374 654 367 624 367 578 _c
367 457 _l
367 405 359 368 345 345 _c
330 322 305 307 269 299 _c
305 290 330 274 345 251 _c
359 227 367 190 367 140 _c
367 19 _l
367 -26 374 -56 388 -70 _c
402 -84 432 -92 478 -92 _c
511 -92 _l
_cl}_e}_d
/braceright{{636 0 125 -162 511 760 _sc
125 -92 _m
159 -92 _l
205 -92 234 -85 248 -71 _c
262 -57 269 -27 269 19 _c
269 140 _l
269 190 276 227 291 251 _c
305 274 331 290 367 299 _c
331 307 305 322 291 345 _c
276 368 269 405 269 457 _c
269 578 _l
269 624 262 654 248 668 _c
234 682 205 690 159 690 _c
125 690 _l
125 760 _l
156 760 _l
236 760 290 748 318 724 _c
345 700 359 652 359 580 _c
}_e{359 463 _l
359 414 367 380 385 362 _c
403 343 435 334 481 334 _c
511 334 _l
511 264 _l
481 264 _l
435 264 403 254 385 236 _c
367 217 359 183 359 134 _c
359 17 _l
359 -54 345 -102 318 -126 _c
290 -150 236 -162 156 -162 _c
125 -162 _l
125 -92 _l
_cl}_e}_d
/minus{838 0 106 272 732 355 _sc
106 355 _m
732 355 _l
732 272 _l
106 272 _l
106 355 _l
_cl}_d
end readonly def

/BuildGlyph
 {exch begin
 CharStrings exch
 2 copy known not{pop /.notdef}if
 true 3 1 roll get exec
 end}_d

/BuildChar {
 1 index /Encoding get exch get
 1 index /BuildGlyph get exec
}_d

FontName currentdict end definefont pop
%!PS-Adobe-3.0 Resource-Font
%%Title: DejaVu Sans Oblique
%%Copyright: Copyright (c) 2003 by Bitstream, Inc. All Rights Reserved. Copyright (c) 2006 by Tavmjong Bah. All Rights Reserved. DejaVu changes are in public domain 
%%Creator: Converted from TrueType to type 3 by PPR
25 dict begin
/_d{bind def}bind def
/_m{moveto}_d
/_l{lineto}_d
/_cl{closepath eofill}_d
/_c{curveto}_d
/_sc{7 -1 roll{setcachedevice}{pop pop pop pop pop pop}ifelse}_d
/_e{exec}_d
/FontName /DejaVuSans-Oblique def
/PaintType 0 def
/FontMatrix[.001 0 0 .001 0 0]def
/FontBBox[-1016 -350 1659 1068]def
/FontType 3 def
/Encoding [ /e /x ] def
/FontInfo 10 dict dup begin
/FamilyName (DejaVu Sans) def
/FullName (DejaVu Sans Oblique) def
/Notice (Copyright (c) 2003 by Bitstream, Inc. All Rights Reserved. Copyright (c) 2006 by Tavmjong Bah. All Rights Reserved. DejaVu changes are in public domain ) def
/Weight (Oblique) def
/Version (Version 2.35) def
/ItalicAngle -11.0 def
/isFixedPitch false def
/UnderlinePosition -130 def
/UnderlineThickness 90 def
end readonly def
/CharStrings 3 dict dup begin
/.notdef 0 def
/e{{615 0 46 -13 571 560 _sc
481 322 _m
481 327 482 332 483 338 _c
483 344 484 349 484 355 _c
484 395 472 426 449 449 _c
425 472 394 484 354 484 _c
309 484 270 469 236 441 _c
202 413 176 373 158 322 _c
481 322 _l
559 252 _m
141 252 _l
139 239 137 229 137 222 _c
136 215 136 209 136 204 _c
136 158 150 123 178 99 _c
206 74 245 62 296 62 _c
334 62 371 66 406 75 _c
}_e{441 83 474 96 504 114 _c
487 25 _l
454 11 420 2 386 -4 _c
352 -10 317 -13 282 -13 _c
206 -13 147 5 107 41 _c
66 77 46 128 46 195 _c
46 251 56 304 76 353 _c
96 402 126 446 166 485 _c
191 509 221 527 256 540 _c
291 553 328 560 368 560 _c
430 560 479 541 516 504 _c
552 467 571 417 571 355 _c
571 340 570 324 568 307 _c
566 289 563 271 559 252 _c
_cl}_e}_d
/x{592 0 -25 0 600 547 _sc
600 547 _m
349 279 _l
503 0 _l
400 0 _l
284 217 _l
83 0 _l
-25 0 _l
243 288 _l
100 547 _l
203 547 _l
308 349 _l
491 547 _l
600 547 _l
_cl}_d
end readonly def

/BuildGlyph
 {exch begin
 CharStrings exch
 2 copy known not{pop /.notdef}if
 true 3 1 roll get exec
 end}_d

/BuildChar {
 1 index /Encoding get exch get
 1 index /BuildGlyph get exec
}_d

FontName currentdict end definefont pop
end
%%EndProlog
mpldict begin
-54 144 translate
720 504 0 0 clipbox
gsave
0 0 m
720 0 l
720 504 l
0 504 l
cl
1.000 setgray
fill
grestore
gsave
90 63 m
648 63 l
648 443.52 l
90 443.52 l
cl
1.000 setgray
fill
grestore
0.800 setlinewidth
1 setlinejoin
1 setlinecap
[] 0 setdash
0.800 setgray
gsave
558 380.5 90 63 clipbox
115.363636 63 m
115.363636 443.52 l
stroke
grestore
0.150 setgray
/DejaVuSans findfont
10.000 scalefont
setfont
gsave
107.996449 48.406250 translate
0.000000 rotate
0.000000 0.000000 m /minus glyphshow
8.378906 0.000000 m /three glyphshow
grestore
0.800 setgray
gsave
558 380.5 90 63 clipbox
199.909091 63 m
199.909091 443.52 l
stroke
grestore
0.150 setgray
gsave
192.541903 48.406250 translate
0.000000 rotate
0.000000 0.000000 m /minus glyphshow
8.378906 0.000000 m /two glyphshow
grestore
0.800 setgray
gsave
558 380.5 90 63 clipbox
284.454545 63 m
284.454545 443.52 l
stroke
grestore
0.150 setgray
gsave
277.087358 48.406250 translate
0.000000 rotate
0.000000 0.000000 m /minus glyphshow
8.378906 0.000000 m /one glyphshow
grestore
0.800 setgray
gsave
558 380.5 90 63 clipbox
369 63 m
369 443.52 l
stroke
grestore
0.150 setgray
gsave
365.820312 48.406250 translate
0.000000 rotate
0.000000 0.000000 m /zero glyphshow
grestore
0.800 setgray
gsave
558 380.5 90 63 clipbox
453.545455 63 m
453.545455 443.52 l
stroke
grestore
0.150 setgray
gsave
450.365767 48.406250 translate
0.000000 rotate
0.000000 0.000000 m /one glyphshow
grestore
0.800 setgray
gsave
558 380.5 90 63 clipbox
538.090909 63 m
538.090909 443.52 l
stroke
grestore
0.150 setgray
gsave
534.911222 48.406250 translate
0.000000 rotate
0.000000 0.000000 m /two glyphshow
grestore
0.800 setgray
gsave
558 380.5 90 63 clipbox
622.636364 63 m
622.636364 443.52 l
stroke
grestore
0.150 setgray
gsave
619.456676 48.406250 translate
0.000000 rotate
0.000000 0.000000 m /three glyphshow
grestore
0.800 setgray
gsave
558 380.5 90 63 clipbox
90 79.86816 m
648 79.86816 l
stroke
grestore
0.150 setgray
gsave
58.718750 76.071285 translate
0.000000 rotate
0.000000 0.000000 m /minus glyphshow
8.378906 0.000000 m /one glyphshow
14.741211 0.000000 m /period glyphshow
17.919922 0.000000 m /zero glyphshow
grestore
0.800 setgray
gsave
558 380.5 90 63 clipbox
90 123.162595 m
648 123.162595 l
stroke
grestore
0.150 setgray
gsave
58.718750 119.365720 translate
0.000000 rotate
0.000000 0.000000 m /minus glyphshow
8.378906 0.000000 m /zero glyphshow
14.741211 0.000000 m /period glyphshow
17.919922 0.000000 m /five glyphshow
grestore
0.800 setgray
gsave
558 380.5 90 63 clipbox
90 166.457029 m
648 166.457029 l
stroke
grestore
0.150 setgray
gsave
67.093750 162.660154 translate
0.000000 rotate
0.000000 0.000000 m /zero glyphshow
6.362305 0.000000 m /period glyphshow
9.541016 0.000000 m /zero glyphshow
grestore
0.800 setgray
gsave
558 380.5 90 63 clipbox
90 209.751464 m
648 209.751464 l
stroke
grestore
0.150 setgray
gsave
67.093750 205.954589 translate
0.000000 rotate
0.000000 0.000000 m /zero glyphshow
6.362305 0.000000 m /period glyphshow
9.541016 0.000000 m /five glyphshow
grestore
0.800 setgray
gsave
558 380.5 90 63 clipbox
90 253.045898 m
648 253.045898 l
stroke
grestore
0.150 setgray
gsave
67.093750 249.249023 translate
0.000000 rotate
0.000000 0.000000 m /one glyphshow
6.362305 0.000000 m /period glyphshow
9.541016 0.000000 m /zero glyphshow
grestore
0.800 setgray
gsave
558 380.5 90 63 clipbox
90 296.340333 m
648 296.340333 l
stroke
grestore
0.150 setgray
gsave
67.093750 292.543458 translate
0.000000 rotate
0.000000 0.000000 m /one glyphshow
6.362305 0.000000 m /period glyphshow
9.541016 0.000000 m /five glyphshow
grestore
0.800 setgray
gsave
558 380.5 90 63 clipbox
90 339.634767 m
648 339.634767 l
stroke
grestore
0.150 setgray
gsave
67.093750 335.837892 translate
0.000000 rotate
0.000000 0.000000 m /two glyphshow
6.362305 0.000000 m /period glyphshow
9.541016 0.000000 m /zero glyphshow
grestore
0.800 setgray
gsave
558 380.5 90 63 clipbox
90 382.929202 m
648 382.929202 l
stroke
grestore
0.150 setgray
gsave
67.093750 379.132327 translate
0.000000 rotate
0.000000 0.000000 m /two glyphshow
6.362305 0.000000 m /period glyphshow
9.541016 0.000000 m /five glyphshow
grestore
0.800 setgray
gsave
558 380.5 90 63 clipbox
90 426.223636 m
648 426.223636 l
stroke
grestore
0.150 setgray
gsave
67.093750 422.426761 translate
0.000000 rotate
0.000000 0.000000 m /three glyphshow
6.362305 0.000000 m /period glyphshow
9.541016 0.000000 m /zero glyphshow
grestore
1.500 setlinewidth
0.122 0.467 0.706 setrgbcolor
gsave
558 380.5 90 63 clipbox
115.363636 170.563582 m
120.487603 170.80727 l
125.61157 171.064611 l
130.735537 171.336272 l
135.859504 171.622941 l
140.983471 171.925325 l
146.107438 172.244151 l
151.231405 172.580162 l
156.355372 172.93412 l
161.479339 173.306796 l
166.603306 173.698977 l
171.727273 174.111457 l
176.85124 174.545036 l
181.975207 175.000517 l
187.099174 175.4787 l
192.22314 175.980381 l
197.347107 176.506346 l
202.471074 177.057363 l
207.595041 177.634182 l
212.719008 178.237522 l
217.842975 178.868071 l
222.966942 179.526473 l
228.090909 180.213325 l
233.214876 180.92917 l
238.338843 181.674481 l
243.46281 182.449665 l
248.586777 183.255042 l
253.710744 184.090847 l
258.834711 184.957214 l
263.958678 185.854174 l
269.082645 186.78164 l
274.206612 187.739406 l
279.330579 188.727137 l
284.454545 189.744363 l
289.578512 190.790474 l
294.702479 191.864717 l
299.826446 192.96619 l
304.950413 194.093843 l
310.07438 195.24648 l
315.198347 196.422753 l
320.322314 197.621174 l
325.446281 198.840112 l
330.570248 200.077806 l
335.694215 201.33237 l
340.818182 202.601803 l
345.942149 203.884001 l
351.066116 205.17677 l
356.190083 206.477843 l
361.31405 207.784889 l
366.438017 209.095538 l
371.561983 210.40739 l
376.68595 211.718038 l
381.809917 213.025085 l
386.933884 214.326157 l
392.057851 215.618927 l
397.181818 216.901125 l
402.305785 218.170557 l
407.429752 219.425121 l
412.553719 220.662816 l
417.677686 221.881754 l
422.801653 223.080175 l
427.92562 224.256448 l
433.049587 225.409084 l
438.173554 226.536738 l
443.297521 227.638211 l
448.421488 228.712454 l
453.545455 229.758565 l
458.669421 230.775791 l
463.793388 231.763522 l
468.917355 232.721288 l
474.041322 233.648754 l
479.165289 234.545713 l
484.289256 235.412081 l
489.413223 236.247886 l
494.53719 237.053263 l
499.661157 237.828446 l
504.785124 238.573758 l
509.909091 239.289602 l
515.033058 239.976455 l
520.157025 240.634857 l
525.280992 241.265406 l
530.404959 241.868746 l
535.528926 242.445564 l
540.652893 242.996582 l
545.77686 243.522547 l
550.900826 244.024228 l
556.024793 244.502411 l
561.14876 244.957891 l
566.272727 245.39147 l
571.396694 245.80395 l
576.520661 246.196131 l
581.644628 246.568808 l
586.768595 246.922765 l
591.892562 247.258777 l
597.016529 247.577603 l
602.140496 247.879987 l
607.264463 248.166656 l
612.38843 248.438317 l
617.512397 248.695658 l
622.636364 248.939346 l
stroke
grestore
1.000 0.498 0.055 setrgbcolor
gsave
558 380.5 90 63 clipbox
115.363636 80.296364 m
120.487603 80.35139 l
125.61157 80.413465 l
130.735537 80.483485 l
135.859504 80.562461 l
140.983471 80.651527 l
146.107438 80.75196 l
151.231405 80.865194 l
156.355372 80.992842 l
161.479339 81.136712 l
166.603306 81.298832 l
171.727273 81.481477 l
176.85124 81.687192 l
181.975207 81.918825 l
187.099174 82.179556 l
192.22314 82.472932 l
197.347107 82.802906 l
202.471074 83.173871 l
207.595041 83.590702 l
212.719008 84.058797 l
217.842975 84.584115 l
222.966942 85.173217 l
228.090909 85.833301 l
233.214876 86.572238 l
238.338843 87.398588 l
243.46281 88.321622 l
248.586777 89.35132 l
253.710744 90.498348 l
258.834711 91.774024 l
263.958678 93.19024 l
269.082645 94.759362 l
274.206612 96.494079 l
279.330579 98.407209 l
284.454545 100.511453 l
289.578512 102.819088 l
294.702479 105.341604 l
299.826446 108.089286 l
304.950413 111.070735 l
310.07438 114.292362 l
315.198347 117.757847 l
320.322314 121.467608 l
325.446281 125.418297 l
330.570248 129.602365 l
335.694215 134.007732 l
340.818182 138.617605 l
345.942149 143.410472 l
351.066116 148.360306 l
356.190083 153.436985 l
361.31405 158.606928 l
366.438017 163.833927 l
371.561983 169.080132 l
376.68595 174.307131 l
381.809917 179.477074 l
386.933884 184.553753 l
392.057851 189.503587 l
397.181818 194.296454 l
402.305785 198.906326 l
407.429752 203.311694 l
412.553719 207.495762 l
417.677686 211.446451 l
422.801653 215.156212 l
427.92562 218.621697 l
433.049587 221.843323 l
438.173554 224.824773 l
443.297521 227.572454 l
448.421488 230.094971 l
453.545455 232.402606 l
458.669421 234.50685 l
463.793388 236.41998 l
468.917355 238.154697 l
474.041322 239.723819 l
479.165289 241.140035 l
484.289256 242.415711 l
489.413223 243.562739 l
494.53719 244.592436 l
499.661157 245.515471 l
504.785124 246.341821 l
509.909091 247.080757 l
515.033058 247.740842 l
520.157025 248.329944 l
525.280992 248.855262 l
530.404959 249.323356 l
535.528926 249.740188 l
540.652893 250.111153 l
545.77686 250.441127 l
550.900826 250.734503 l
556.024793 250.995234 l
561.14876 251.226866 l
566.272727 251.432582 l
571.396694 251.615227 l
576.520661 251.777347 l
581.644628 251.921217 l
586.768595 252.048865 l
591.892562 252.162099 l
597.016529 252.262532 l
602.140496 252.351598 l
607.264463 252.430573 l
612.38843 252.500594 l
617.512397 252.562669 l
622.636364 252.617695 l
stroke
grestore
0.173 0.627 0.173 setrgbcolor
gsave
558 380.5 90 63 clipbox
115.363636 166.457029 m
120.487603 166.457029 l
125.61157 166.457029 l
130.735537 166.457029 l
135.859504 166.457029 l
140.983471 166.457029 l
146.107438 166.457029 l
151.231405 166.457029 l
156.355372 166.457029 l
161.479339 166.457029 l
166.603306 166.457029 l
171.727273 166.457029 l
176.85124 166.457029 l
181.975207 166.457029 l
187.099174 166.457029 l
192.22314 166.457029 l
197.347107 166.457029 l
202.471074 166.457029 l
207.595041 166.457029 l
212.719008 166.457029 l
217.842975 166.457029 l
222.966942 166.457029 l
228.090909 166.457029 l
233.214876 166.457029 l
238.338843 166.457029 l
243.46281 166.457029 l
248.586777 166.457029 l
253.710744 166.457029 l
258.834711 166.457029 l
263.958678 166.457029 l
269.082645 166.457029 l
274.206612 166.457029 l
279.330579 166.457029 l
284.454545 166.457029 l
289.578512 166.457029 l
294.702479 166.457029 l
299.826446 166.457029 l
304.950413 166.457029 l
310.07438 166.457029 l
315.198347 166.457029 l
320.322314 166.457029 l
325.446281 166.457029 l
330.570248 166.457029 l
335.694215 166.457029 l
340.818182 166.457029 l
345.942149 166.457029 l
351.066116 166.457029 l
356.190083 166.457029 l
361.31405 166.457029 l
366.438017 166.457029 l
371.561983 169.080934 l
376.68595 174.328745 l
381.809917 179.576555 l
386.933884 184.824365 l
392.057851 190.072175 l
397.181818 195.319986 l
402.305785 200.567796 l
407.429752 205.815606 l
412.553719 211.063416 l
417.677686 216.311227 l
422.801653 221.559037 l
427.92562 226.806847 l
433.049587 232.054657 l
438.173554 237.302468 l
443.297521 242.550278 l
448.421488 247.798088 l
453.545455 253.045898 l
458.669421 258.293709 l
463.793388 263.541519 l
468.917355 268.789329 l
474.041322 274.037139 l
479.165289 279.28495 l
484.289256 284.53276 l
489.413223 289.78057 l
494.53719 295.02838 l
499.661157 300.276191 l
504.785124 305.524001 l
509.909091 310.771811 l
515.033058 316.019621 l
520.157025 321.267432 l
525.280992 326.515242 l
530.404959 331.763052 l
535.528926 337.010862 l
540.652893 342.258672 l
545.77686 347.506483 l
550.900826 352.754293 l
556.024793 358.002103 l
561.14876 363.249913 l
566.272727 368.497724 l
571.396694 373.745534 l
576.520661 378.993344 l
581.644628 384.241154 l
586.768595 389.488965 l
591.892562 394.736775 l
597.016529 399.984585 l
602.140496 405.232395 l
607.264463 410.480206 l
612.38843 415.728016 l
617.512397 420.975826 l
622.636364 426.223636 l
stroke
grestore
0.839 0.153 0.157 setrgbcolor
gsave
558 380.5 90 63 clipbox
115.363636 114.503708 m
120.487603 115.55327 l
125.61157 116.602832 l
130.735537 117.652394 l
135.859504 118.701956 l
140.983471 119.751518 l
146.107438 120.80108 l
151.231405 121.850642 l
156.355372 122.900204 l
161.479339 123.949766 l
166.603306 124.999328 l
171.727273 126.04889 l
176.85124 127.098453 l
181.975207 128.148015 l
187.099174 129.197577 l
192.22314 130.247139 l
197.347107 131.296701 l
202.471074 132.346263 l
207.595041 133.395825 l
212.719008 134.445387 l
217.842975 135.494949 l
222.966942 136.544511 l
228.090909 137.594073 l
233.214876 138.643635 l
238.338843 139.693197 l
243.46281 140.742759 l
248.586777 141.792321 l
253.710744 142.841883 l
258.834711 143.891445 l
263.958678 144.941007 l
269.082645 145.990569 l
274.206612 147.040131 l
279.330579 148.089694 l
284.454545 149.139256 l
289.578512 150.188818 l
294.702479 151.23838 l
299.826446 152.287942 l
304.950413 153.337504 l
310.07438 154.387066 l
315.198347 155.436628 l
320.322314 156.48619 l
325.446281 157.535752 l
330.570248 158.585314 l
335.694215 159.634876 l
340.818182 160.684438 l
345.942149 161.734 l
351.066116 162.783562 l
356.190083 163.833124 l
361.31405 164.882686 l
366.438017 165.932248 l
371.561983 169.080934 l
376.68595 174.328745 l
381.809917 179.576555 l
386.933884 184.824365 l
392.057851 190.072175 l
397.181818 195.319986 l
402.305785 200.567796 l
407.429752 205.815606 l
412.553719 211.063416 l
417.677686 216.311227 l
422.801653 221.559037 l
427.92562 226.806847 l
433.049587 232.054657 l
438.173554 237.302468 l
443.297521 242.550278 l
448.421488 247.798088 l
453.545455 253.045898 l
458.669421 258.293709 l
463.793388 263.541519 l
468.917355 268.789329 l
474.041322 274.037139 l
479.165289 279.28495 l
484.289256 284.53276 l
489.413223 289.78057 l
494.53719 295.02838 l
499.661157 300.276191 l
504.785124 305.524001 l
509.909091 310.771811 l
515.033058 316.019621 l
520.157025 321.267432 l
525.280992 326.515242 l
530.404959 331.763052 l
535.528926 337.010862 l
540.652893 342.258672 l
545.77686 347.506483 l
550.900826 352.754293 l
556.024793 358.002103 l
561.14876 363.249913 l
566.272727 368.497724 l
571.396694 373.745534 l
576.520661 378.993344 l
581.644628 384.241154 l
586.768595 389.488965 l
591.892562 394.736775 l
597.016529 399.984585 l
602.140496 405.232395 l
607.264463 410.480206 l
612.38843 415.728016 l
617.512397 420.975826 l
622.636364 426.223636 l
stroke
grestore
0.800 setlinewidth
0 setlinejoin
2 setlinecap
[] 0 setdash
0.800 setgray
gsave
90 63 m
90 443.52 l
stroke
grestore
gsave
648 63 m
648 443.52 l
stroke
grestore
gsave
90 63 m
648 63 l
stroke
grestore
gsave
90 443.52 m
648 443.52 l
stroke
grestore
1.000 setlinewidth
0 setlinecap
gsave
100.5 269.52 m
378.5 269.52 l
380.5 269.52 381.5 270.52 381.5 272.52 c
381.5 433.02 l
381.5 435.02 380.5 436.02 378.5 436.02 c
100.5 436.02 l
98.5 436.02 97.5 435.02 97.5 433.02 c
97.5 272.52 l
97.5 270.52 98.5 269.52 100.5 269.52 c
cl
gsave
1.000 setgray
fill
grestore
stroke
grestore
1.500 setlinewidth
1 setlinejoin
1 setlinecap
[] 0 setdash
0.122 0.467 0.706 setrgbcolor
gsave
103.5 420.27 m
133.5 420.27 l
stroke
grestore
0.150 setgray
gsave
148.500000 415.020000 translate
0.000000 rotate
/DejaVuSans findfont
15.0 scalefont
setfont
0.000000 0.773438 moveto
/L glyphshow

8.356934 0.773438 moveto
/o glyphshow

17.534180 0.773438 moveto
/g glyphshow

27.055664 0.773438 moveto
/i glyphshow

31.223145 0.773438 moveto
/s glyphshow

39.038086 0.773438 moveto
/t glyphshow

44.919434 0.773438 moveto
/i glyphshow

49.086914 0.773438 moveto
/c glyphshow

57.333984 0.773438 moveto
/parenleft glyphshow

63.186035 0.773438 moveto
/x glyphshow

72.062988 0.773438 moveto
/parenright glyphshow

77.915039 0.773438 moveto
/space glyphshow

82.683105 0.773438 moveto
/equal glyphshow

95.251465 0.773438 moveto
/space glyphshow

/DejaVuSans findfont
10.5 scalefont
setfont
115.019531 7.343750 moveto
/one glyphshow

100.019531 3.593750 37.313705 0.937500 rectfill
100.019531 -5.382812 moveto
/one glyphshow

108.745605 -5.382812 moveto
/plus glyphshow

/DejaVuSans-Oblique findfont
10.5 scalefont
setfont
119.589111 -5.382812 moveto
/e glyphshow

/DejaVuSans findfont
7.35 scalefont
setfont
126.537924 -1.363281 moveto
/minus glyphshow

/DejaVuSans-Oblique findfont
7.35 scalefont
setfont
132.696420 -1.363281 moveto
/x glyphshow


grestore
1.000 0.498 0.055 setrgbcolor
gsave
103.5 370.77 m
133.5 370.77 l
stroke
grestore
0.150 setgray
gsave
148.500000 365.520000 translate
0.000000 rotate
/DejaVuSans findfont
15.0 scalefont
setfont
0.000000 0.798125 moveto
/T glyphshow

9.162598 0.798125 moveto
/a glyphshow

18.354492 0.798125 moveto
/n glyphshow

27.861328 0.798125 moveto
/h glyphshow

37.368164 0.798125 moveto
/parenleft glyphshow

43.220215 0.798125 moveto
/x glyphshow

52.097168 0.798125 moveto
/parenright glyphshow

57.949219 0.798125 moveto
/space glyphshow

62.717285 0.798125 moveto
/equal glyphshow

75.285645 0.798125 moveto
/space glyphshow

/DejaVuSans-Oblique findfont
10.5 scalefont
setfont
80.053711 7.521563 moveto
/e glyphshow

/DejaVuSans findfont
7.35 scalefont
setfont
87.002523 11.541094 moveto
/two glyphshow

/DejaVuSans-Oblique findfont
7.35 scalefont
setfont
91.678817 11.541094 moveto
/x glyphshow

/DejaVuSans findfont
10.5 scalefont
setfont
98.361288 7.521563 moveto
/minus glyphshow

109.204794 7.521563 moveto
/one glyphshow

80.053711 3.618438 35.831503 0.937500 rectfill
/DejaVuSans-Oblique findfont
10.5 scalefont
setfont
80.053711 -6.797500 moveto
/e glyphshow

/DejaVuSans findfont
7.35 scalefont
setfont
87.002523 -2.777969 moveto
/two glyphshow

/DejaVuSans-Oblique findfont
7.35 scalefont
setfont
91.678817 -2.777969 moveto
/x glyphshow

/DejaVuSans findfont
10.5 scalefont
setfont
98.361288 -6.797500 moveto
/plus glyphshow

109.204794 -6.797500 moveto
/one glyphshow


grestore
0.173 0.627 0.173 setrgbcolor
gsave
103.5 325.395 m
133.5 325.395 l
stroke
grestore
0.150 setgray
gsave
148.500000 320.145000 translate
0.000000 rotate
/DejaVuSans findfont
15.0 scalefont
setfont
0.000000 0.609375 moveto
/R glyphshow

10.422363 0.609375 moveto
/e glyphshow

19.650879 0.609375 moveto
/l glyphshow

23.818359 0.609375 moveto
/u glyphshow

33.325195 0.609375 moveto
/parenleft glyphshow

39.177246 0.609375 moveto
/x glyphshow

48.054199 0.609375 moveto
/parenright glyphshow

53.906250 0.609375 moveto
/space glyphshow

58.674316 0.609375 moveto
/equal glyphshow

71.242676 0.609375 moveto
/space glyphshow

76.010742 0.609375 moveto
/m glyphshow

90.622559 0.609375 moveto
/a glyphshow

99.814453 0.609375 moveto
/x glyphshow

108.691406 0.609375 moveto
/braceleft glyphshow

118.234863 0.609375 moveto
/zero glyphshow

127.778320 0.609375 moveto
/comma glyphshow

/DejaVuSans-Oblique findfont
15.0 scalefont
setfont
135.468750 0.609375 moveto
/x glyphshow

/DejaVuSans findfont
15.0 scalefont
setfont
144.345703 0.609375 moveto
/braceright glyphshow


grestore
0.839 0.153 0.157 setrgbcolor
gsave
103.5 284.77 m
133.5 284.77 l
stroke
grestore
0.150 setgray
gsave
148.500000 279.520000 translate
0.000000 rotate
/DejaVuSans findfont
15.0 scalefont
setfont
0.000000 0.609375 moveto
/L glyphshow

8.356934 0.609375 moveto
/e glyphshow

17.585449 0.609375 moveto
/a glyphshow

26.777344 0.609375 moveto
/k glyphshow

35.463867 0.609375 moveto
/y glyphshow

44.340820 0.609375 moveto
/space glyphshow

49.108887 0.609375 moveto
/R glyphshow

59.531250 0.609375 moveto
/e glyphshow

68.759766 0.609375 moveto
/l glyphshow

72.927246 0.609375 moveto
/u glyphshow

82.434082 0.609375 moveto
/parenleft glyphshow

88.286133 0.609375 moveto
/x glyphshow

97.163086 0.609375 moveto
/parenright glyphshow

103.015137 0.609375 moveto
/space glyphshow

107.783203 0.609375 moveto
/equal glyphshow

120.351562 0.609375 moveto
/space glyphshow

125.119629 0.609375 moveto
/m glyphshow

139.731445 0.609375 moveto
/a glyphshow

148.923340 0.609375 moveto
/x glyphshow

157.800293 0.609375 moveto
/braceleft glyphshow

167.343750 0.609375 moveto
/zero glyphshow

176.887207 0.609375 moveto
/period glyphshow

181.655273 0.609375 moveto
/two glyphshow

/DejaVuSans-Oblique findfont
15.0 scalefont
setfont
191.198730 0.609375 moveto
/x glyphshow

/DejaVuSans findfont
15.0 scalefont
setfont
200.075684 0.609375 moveto
/comma glyphshow

/DejaVuSans-Oblique findfont
15.0 scalefont
setfont
207.766113 0.609375 moveto
/x glyphshow

/DejaVuSans findfont
15.0 scalefont
setfont
216.643066 0.609375 moveto
/braceright glyphshow


grestore

end
showpage
