%!PS-Adobe-3.0 EPSF-3.0
%%Title: /home/quent/Documents/repos/latex/master-thesis/figures/f1score_comparison.eps
%%Creator: matplotlib version 3.0.2, http://matplotlib.org/
%%CreationDate: Tue Aug  6 16:13:02 2019
%%Orientation: portrait
%%BoundingBox: -54 180 666 612
%%EndComments
%%BeginProlog
/mpldict 8 dict def
mpldict begin
/m { moveto } bind def
/l { lineto } bind def
/r { rlineto } bind def
/c { curveto } bind def
/cl { closepath } bind def
/box {
m
1 index 0 r
0 exch r
neg 0 r
cl
} bind def
/clipbox {
box
clip
newpath
} bind def
%!PS-Adobe-3.0 Resource-Font
%%Title: DejaVu Sans
%%Copyright: Copyright (c) 2003 by Bitstream, Inc. All Rights Reserved. Copyright (c) 2006 by Tavmjong Bah. All Rights Reserved. DejaVu changes are in public domain 
%%Creator: Converted from TrueType to type 3 by PPR
25 dict begin
/_d{bind def}bind def
/_m{moveto}_d
/_l{lineto}_d
/_cl{closepath eofill}_d
/_c{curveto}_d
/_sc{7 -1 roll{setcachedevice}{pop pop pop pop pop pop}ifelse}_d
/_e{exec}_d
/FontName /DejaVuSans def
/PaintType 0 def
/FontMatrix[.001 0 0 .001 0 0]def
/FontBBox[-1021 -463 1793 1232]def
/FontType 3 def
/Encoding [ /space /parenleft /parenright /hyphen /period /zero /one /two /three /four /five /six /seven /eight /underscore /a /b /c /d /e /f /i /k /l /m /o /p /r /s /t /x ] def
/FontInfo 10 dict dup begin
/FamilyName (DejaVu Sans) def
/FullName (DejaVu Sans) def
/Notice (Copyright (c) 2003 by Bitstream, Inc. All Rights Reserved. Copyright (c) 2006 by Tavmjong Bah. All Rights Reserved. DejaVu changes are in public domain ) def
/Weight (Book) def
/Version (Version 2.35) def
/ItalicAngle 0.0 def
/isFixedPitch false def
/UnderlinePosition -130 def
/UnderlineThickness 90 def
end readonly def
/CharStrings 32 dict dup begin
/.notdef 0 def
/space{318 0 0 0 0 0 _sc
}_d
/parenleft{390 0 86 -131 310 759 _sc
310 759 _m
266 683 234 609 213 536 _c
191 463 181 389 181 314 _c
181 238 191 164 213 91 _c
234 17 266 -56 310 -131 _c
232 -131 _l
183 -54 146 20 122 94 _c
98 168 86 241 86 314 _c
86 386 98 459 122 533 _c
146 607 182 682 232 759 _c
310 759 _l
_cl}_d
/parenright{390 0 80 -131 304 759 _sc
80 759 _m
158 759 _l
206 682 243 607 267 533 _c
291 459 304 386 304 314 _c
304 241 291 168 267 94 _c
243 20 206 -54 158 -131 _c
80 -131 _l
123 -56 155 17 177 91 _c
198 164 209 238 209 314 _c
209 389 198 463 177 536 _c
155 609 123 683 80 759 _c
_cl}_d
/hyphen{361 0 49 234 312 314 _sc
49 314 _m
312 314 _l
312 234 _l
49 234 _l
49 314 _l
_cl}_d
/period{318 0 107 0 210 124 _sc
107 124 _m
210 124 _l
210 0 _l
107 0 _l
107 124 _l
_cl}_d
/zero{636 0 66 -13 570 742 _sc
318 664 _m
267 664 229 639 203 589 _c
177 539 165 464 165 364 _c
165 264 177 189 203 139 _c
229 89 267 64 318 64 _c
369 64 407 89 433 139 _c
458 189 471 264 471 364 _c
471 464 458 539 433 589 _c
407 639 369 664 318 664 _c
318 742 _m
399 742 461 709 505 645 _c
548 580 570 486 570 364 _c
570 241 548 147 505 83 _c
461 19 399 -13 318 -13 _c
236 -13 173 19 130 83 _c
87 147 66 241 66 364 _c
66 486 87 580 130 645 _c
173 709 236 742 318 742 _c
_cl}_d
/one{636 0 110 0 544 729 _sc
124 83 _m
285 83 _l
285 639 _l
110 604 _l
110 694 _l
284 729 _l
383 729 _l
383 83 _l
544 83 _l
544 0 _l
124 0 _l
124 83 _l
_cl}_d
/two{{636 0 73 0 536 742 _sc
192 83 _m
536 83 _l
536 0 _l
73 0 _l
73 83 _l
110 121 161 173 226 239 _c
290 304 331 346 348 365 _c
380 400 402 430 414 455 _c
426 479 433 504 433 528 _c
433 566 419 598 392 622 _c
365 646 330 659 286 659 _c
255 659 222 653 188 643 _c
154 632 117 616 78 594 _c
78 694 _l
118 710 155 722 189 730 _c
223 738 255 742 284 742 _c
}_e{359 742 419 723 464 685 _c
509 647 532 597 532 534 _c
532 504 526 475 515 449 _c
504 422 484 390 454 354 _c
446 344 420 317 376 272 _c
332 227 271 164 192 83 _c
_cl}_e}_d
/three{{636 0 76 -13 556 742 _sc
406 393 _m
453 383 490 362 516 330 _c
542 298 556 258 556 212 _c
556 140 531 84 482 45 _c
432 6 362 -13 271 -13 _c
240 -13 208 -10 176 -4 _c
144 1 110 10 76 22 _c
76 117 _l
103 101 133 89 166 81 _c
198 73 232 69 268 69 _c
330 69 377 81 409 105 _c
441 129 458 165 458 212 _c
458 254 443 288 413 312 _c
383 336 341 349 287 349 _c
}_e{202 349 _l
202 430 _l
291 430 _l
339 430 376 439 402 459 _c
428 478 441 506 441 543 _c
441 580 427 609 401 629 _c
374 649 336 659 287 659 _c
260 659 231 656 200 650 _c
169 644 135 635 98 623 _c
98 711 _l
135 721 170 729 203 734 _c
235 739 266 742 296 742 _c
370 742 429 725 473 691 _c
517 657 539 611 539 553 _c
539 513 527 479 504 451 _c
481 423 448 403 406 393 _c
_cl}_e}_d
/four{636 0 49 0 580 729 _sc
378 643 _m
129 254 _l
378 254 _l
378 643 _l
352 729 _m
476 729 _l
476 254 _l
580 254 _l
580 172 _l
476 172 _l
476 0 _l
378 0 _l
378 172 _l
49 172 _l
49 267 _l
352 729 _l
_cl}_d
/five{{636 0 77 -13 549 729 _sc
108 729 _m
495 729 _l
495 646 _l
198 646 _l
198 467 _l
212 472 227 476 241 478 _c
255 480 270 482 284 482 _c
365 482 429 459 477 415 _c
525 370 549 310 549 234 _c
549 155 524 94 475 51 _c
426 8 357 -13 269 -13 _c
238 -13 207 -10 175 -6 _c
143 -1 111 6 77 17 _c
77 116 _l
106 100 136 88 168 80 _c
199 72 232 69 267 69 _c
}_e{323 69 368 83 401 113 _c
433 143 450 183 450 234 _c
450 284 433 324 401 354 _c
368 384 323 399 267 399 _c
241 399 214 396 188 390 _c
162 384 135 375 108 363 _c
108 729 _l
_cl}_e}_d
/six{{636 0 70 -13 573 742 _sc
330 404 _m
286 404 251 388 225 358 _c
199 328 186 286 186 234 _c
186 181 199 139 225 109 _c
251 79 286 64 330 64 _c
374 64 409 79 435 109 _c
461 139 474 181 474 234 _c
474 286 461 328 435 358 _c
409 388 374 404 330 404 _c
526 713 _m
526 623 _l
501 635 476 644 451 650 _c
425 656 400 659 376 659 _c
310 659 260 637 226 593 _c
}_e{192 549 172 482 168 394 _c
187 422 211 444 240 459 _c
269 474 301 482 336 482 _c
409 482 467 459 509 415 _c
551 371 573 310 573 234 _c
573 159 550 99 506 54 _c
462 9 403 -13 330 -13 _c
246 -13 181 19 137 83 _c
92 147 70 241 70 364 _c
70 479 97 571 152 639 _c
206 707 280 742 372 742 _c
396 742 421 739 447 735 _c
472 730 498 723 526 713 _c
_cl}_e}_d
/seven{636 0 82 0 551 729 _sc
82 729 _m
551 729 _l
551 687 _l
286 0 _l
183 0 _l
432 646 _l
82 646 _l
82 729 _l
_cl}_d
/eight{{636 0 68 -13 568 742 _sc
318 346 _m
271 346 234 333 207 308 _c
180 283 167 249 167 205 _c
167 161 180 126 207 101 _c
234 76 271 64 318 64 _c
364 64 401 76 428 102 _c
455 127 469 161 469 205 _c
469 249 455 283 429 308 _c
402 333 365 346 318 346 _c
219 388 _m
177 398 144 418 120 447 _c
96 476 85 511 85 553 _c
85 611 105 657 147 691 _c
188 725 245 742 318 742 _c
}_e{390 742 447 725 489 691 _c
530 657 551 611 551 553 _c
551 511 539 476 515 447 _c
491 418 459 398 417 388 _c
464 377 501 355 528 323 _c
554 291 568 251 568 205 _c
568 134 546 80 503 43 _c
459 5 398 -13 318 -13 _c
237 -13 175 5 132 43 _c
89 80 68 134 68 205 _c
68 251 81 291 108 323 _c
134 355 171 377 219 388 _c
183 544 _m
183 506 194 476 218 455 _c
}_e{242 434 275 424 318 424 _c
360 424 393 434 417 455 _c
441 476 453 506 453 544 _c
453 582 441 611 417 632 _c
393 653 360 664 318 664 _c
275 664 242 653 218 632 _c
194 611 183 582 183 544 _c
_cl}_e}_d
/underscore{500 0 -9 -235 510 -165 _sc
510 -165 _m
510 -235 _l
-9 -235 _l
-9 -165 _l
510 -165 _l
_cl}_d
/a{{613 0 60 -13 522 560 _sc
343 275 _m
270 275 220 266 192 250 _c
164 233 150 205 150 165 _c
150 133 160 107 181 89 _c
202 70 231 61 267 61 _c
317 61 357 78 387 114 _c
417 149 432 196 432 255 _c
432 275 _l
343 275 _l
522 312 _m
522 0 _l
432 0 _l
432 83 _l
411 49 385 25 355 10 _c
325 -5 287 -13 243 -13 _c
187 -13 142 2 109 33 _c
76 64 60 106 60 159 _c
}_e{60 220 80 266 122 298 _c
163 329 224 345 306 345 _c
432 345 _l
432 354 _l
432 395 418 427 391 450 _c
364 472 326 484 277 484 _c
245 484 215 480 185 472 _c
155 464 127 453 100 439 _c
100 522 _l
132 534 164 544 195 550 _c
226 556 256 560 286 560 _c
365 560 424 539 463 498 _c
502 457 522 395 522 312 _c
_cl}_e}_d
/b{{635 0 91 -13 580 760 _sc
487 273 _m
487 339 473 390 446 428 _c
418 466 381 485 334 485 _c
286 485 249 466 222 428 _c
194 390 181 339 181 273 _c
181 207 194 155 222 117 _c
249 79 286 61 334 61 _c
381 61 418 79 446 117 _c
473 155 487 207 487 273 _c
181 464 _m
199 496 223 520 252 536 _c
281 552 316 560 356 560 _c
422 560 476 533 518 481 _c
559 428 580 359 580 273 _c
}_e{580 187 559 117 518 65 _c
476 13 422 -13 356 -13 _c
316 -13 281 -5 252 10 _c
223 25 199 49 181 82 _c
181 0 _l
91 0 _l
91 760 _l
181 760 _l
181 464 _l
_cl}_e}_d
/c{{550 0 55 -13 488 560 _sc
488 526 _m
488 442 _l
462 456 437 466 411 473 _c
385 480 360 484 334 484 _c
276 484 230 465 198 428 _c
166 391 150 339 150 273 _c
150 206 166 154 198 117 _c
230 80 276 62 334 62 _c
360 62 385 65 411 72 _c
437 79 462 90 488 104 _c
488 21 _l
462 9 436 0 410 -5 _c
383 -10 354 -13 324 -13 _c
242 -13 176 12 128 64 _c
}_e{79 115 55 185 55 273 _c
55 362 79 432 128 483 _c
177 534 244 560 330 560 _c
358 560 385 557 411 551 _c
437 545 463 537 488 526 _c
_cl}_e}_d
/d{{635 0 55 -13 544 760 _sc
454 464 _m
454 760 _l
544 760 _l
544 0 _l
454 0 _l
454 82 _l
435 49 411 25 382 10 _c
353 -5 319 -13 279 -13 _c
213 -13 159 13 117 65 _c
75 117 55 187 55 273 _c
55 359 75 428 117 481 _c
159 533 213 560 279 560 _c
319 560 353 552 382 536 _c
411 520 435 496 454 464 _c
148 273 _m
148 207 161 155 188 117 _c
215 79 253 61 301 61 _c
}_e{348 61 385 79 413 117 _c
440 155 454 207 454 273 _c
454 339 440 390 413 428 _c
385 466 348 485 301 485 _c
253 485 215 466 188 428 _c
161 390 148 339 148 273 _c
_cl}_e}_d
/e{{615 0 55 -13 562 560 _sc
562 296 _m
562 252 _l
149 252 _l
153 190 171 142 205 110 _c
238 78 284 62 344 62 _c
378 62 412 66 444 74 _c
476 82 509 95 541 113 _c
541 28 _l
509 14 476 3 442 -3 _c
408 -9 373 -13 339 -13 _c
251 -13 182 12 131 62 _c
80 112 55 181 55 268 _c
55 357 79 428 127 481 _c
175 533 241 560 323 560 _c
397 560 455 536 498 489 _c
}_e{540 441 562 377 562 296 _c
472 322 _m
471 371 457 410 431 440 _c
404 469 368 484 324 484 _c
274 484 234 469 204 441 _c
174 413 156 373 152 322 _c
472 322 _l
_cl}_e}_d
/f{352 0 23 0 371 760 _sc
371 760 _m
371 685 _l
285 685 _l
253 685 230 678 218 665 _c
205 652 199 629 199 595 _c
199 547 _l
347 547 _l
347 477 _l
199 477 _l
199 0 _l
109 0 _l
109 477 _l
23 477 _l
23 547 _l
109 547 _l
109 585 _l
109 645 123 690 151 718 _c
179 746 224 760 286 760 _c
371 760 _l
_cl}_d
/i{278 0 94 0 184 760 _sc
94 547 _m
184 547 _l
184 0 _l
94 0 _l
94 547 _l
94 760 _m
184 760 _l
184 646 _l
94 646 _l
94 760 _l
_cl}_d
/k{579 0 91 0 576 760 _sc
91 760 _m
181 760 _l
181 311 _l
449 547 _l
564 547 _l
274 291 _l
576 0 _l
459 0 _l
181 267 _l
181 0 _l
91 0 _l
91 760 _l
_cl}_d
/l{278 0 94 0 184 760 _sc
94 760 _m
184 760 _l
184 0 _l
94 0 _l
94 760 _l
_cl}_d
/m{{974 0 91 0 889 560 _sc
520 442 _m
542 482 569 511 600 531 _c
631 550 668 560 711 560 _c
767 560 811 540 842 500 _c
873 460 889 403 889 330 _c
889 0 _l
799 0 _l
799 327 _l
799 379 789 418 771 444 _c
752 469 724 482 686 482 _c
639 482 602 466 575 435 _c
548 404 535 362 535 309 _c
535 0 _l
445 0 _l
445 327 _l
445 379 435 418 417 444 _c
398 469 369 482 331 482 _c
}_e{285 482 248 466 221 435 _c
194 404 181 362 181 309 _c
181 0 _l
91 0 _l
91 547 _l
181 547 _l
181 462 _l
201 495 226 520 255 536 _c
283 552 317 560 357 560 _c
397 560 430 550 458 530 _c
486 510 506 480 520 442 _c
_cl}_e}_d
/o{612 0 55 -13 557 560 _sc
306 484 _m
258 484 220 465 192 427 _c
164 389 150 338 150 273 _c
150 207 163 156 191 118 _c
219 80 257 62 306 62 _c
354 62 392 80 420 118 _c
448 156 462 207 462 273 _c
462 337 448 389 420 427 _c
392 465 354 484 306 484 _c
306 560 _m
384 560 445 534 490 484 _c
534 433 557 363 557 273 _c
557 183 534 113 490 63 _c
445 12 384 -13 306 -13 _c
227 -13 165 12 121 63 _c
77 113 55 183 55 273 _c
55 363 77 433 121 484 _c
165 534 227 560 306 560 _c
_cl}_d
/p{{635 0 91 -207 580 560 _sc
181 82 _m
181 -207 _l
91 -207 _l
91 547 _l
181 547 _l
181 464 _l
199 496 223 520 252 536 _c
281 552 316 560 356 560 _c
422 560 476 533 518 481 _c
559 428 580 359 580 273 _c
580 187 559 117 518 65 _c
476 13 422 -13 356 -13 _c
316 -13 281 -5 252 10 _c
223 25 199 49 181 82 _c
487 273 _m
487 339 473 390 446 428 _c
418 466 381 485 334 485 _c
}_e{286 485 249 466 222 428 _c
194 390 181 339 181 273 _c
181 207 194 155 222 117 _c
249 79 286 61 334 61 _c
381 61 418 79 446 117 _c
473 155 487 207 487 273 _c
_cl}_e}_d
/r{411 0 91 0 411 560 _sc
411 463 _m
401 469 390 473 378 476 _c
366 478 353 480 339 480 _c
288 480 249 463 222 430 _c
194 397 181 350 181 288 _c
181 0 _l
91 0 _l
91 547 _l
181 547 _l
181 462 _l
199 495 224 520 254 536 _c
284 552 321 560 365 560 _c
371 560 378 559 386 559 _c
393 558 401 557 411 555 _c
411 463 _l
_cl}_d
/s{{521 0 54 -13 472 560 _sc
443 531 _m
443 446 _l
417 458 391 468 364 475 _c
336 481 308 485 279 485 _c
234 485 200 478 178 464 _c
156 450 145 430 145 403 _c
145 382 153 366 169 354 _c
185 342 217 330 265 320 _c
296 313 _l
360 299 405 279 432 255 _c
458 230 472 195 472 151 _c
472 100 452 60 412 31 _c
372 1 316 -13 246 -13 _c
216 -13 186 -10 154 -5 _c
}_e{122 0 89 8 54 20 _c
54 113 _l
87 95 120 82 152 74 _c
184 65 216 61 248 61 _c
290 61 323 68 346 82 _c
368 96 380 117 380 144 _c
380 168 371 187 355 200 _c
339 213 303 226 247 238 _c
216 245 _l
160 257 119 275 95 299 _c
70 323 58 356 58 399 _c
58 450 76 490 112 518 _c
148 546 200 560 268 560 _c
301 560 332 557 362 552 _c
391 547 418 540 443 531 _c
}_e{_cl}_e}_d
/t{392 0 27 0 368 702 _sc
183 702 _m
183 547 _l
368 547 _l
368 477 _l
183 477 _l
183 180 _l
183 135 189 106 201 94 _c
213 81 238 75 276 75 _c
368 75 _l
368 0 _l
276 0 _l
206 0 158 13 132 39 _c
106 65 93 112 93 180 _c
93 477 _l
27 477 _l
27 547 _l
93 547 _l
93 702 _l
183 702 _l
_cl}_d
/x{592 0 29 0 559 547 _sc
549 547 _m
351 281 _l
559 0 _l
453 0 _l
294 215 _l
135 0 _l
29 0 _l
241 286 _l
47 547 _l
153 547 _l
298 352 _l
443 547 _l
549 547 _l
_cl}_d
end readonly def

/BuildGlyph
 {exch begin
 CharStrings exch
 2 copy known not{pop /.notdef}if
 true 3 1 roll get exec
 end}_d

/BuildChar {
 1 index /Encoding get exch get
 1 index /BuildGlyph get exec
}_d

FontName currentdict end definefont pop
end
%%EndProlog
mpldict begin
-54 180 translate
720 432 0 0 clipbox
gsave
0 0 m
720 0 l
720 432 l
0 432 l
cl
1.000 setgray
fill
grestore
gsave
68.78 58.28 m
699.22 58.28 l
699.22 411.22 l
68.78 411.22 l
cl
1.000 setgray
fill
grestore
0.150 setgray
/DejaVuSans findfont
16.000 scalefont
setfont
gsave
142.491250 39.123750 translate
0.000000 rotate
0.000000 0.000000 m /one glyphshow
grestore
gsave
295.007500 39.123750 translate
0.000000 rotate
0.000000 0.000000 m /one glyphshow
10.179688 0.000000 m /zero glyphshow
grestore
gsave
447.523750 39.123750 translate
0.000000 rotate
0.000000 0.000000 m /one glyphshow
10.179688 0.000000 m /zero glyphshow
20.359375 0.000000 m /zero glyphshow
grestore
gsave
600.040000 39.123750 translate
0.000000 rotate
0.000000 0.000000 m /one glyphshow
10.179688 0.000000 m /zero glyphshow
20.359375 0.000000 m /zero glyphshow
30.539062 0.000000 m /zero glyphshow
grestore
gsave
272.851562 19.639375 translate
0.000000 rotate
0.000000 0.000000 m /l glyphshow
4.445312 0.000000 m /a glyphshow
14.250000 0.000000 m /b glyphshow
24.406250 0.000000 m /e glyphshow
34.250000 0.000000 m /l glyphshow
38.695312 0.000000 m /l glyphshow
43.140625 0.000000 m /e glyphshow
52.984375 0.000000 m /d glyphshow
63.140625 0.000000 m /space glyphshow
68.226562 0.000000 m /e glyphshow
78.070312 0.000000 m /x glyphshow
87.539062 0.000000 m /a glyphshow
97.343750 0.000000 m /m glyphshow
112.929688 0.000000 m /p glyphshow
123.085938 0.000000 m /l glyphshow
127.531250 0.000000 m /e glyphshow
137.375000 0.000000 m /s glyphshow
145.710938 0.000000 m /space glyphshow
150.796875 0.000000 m /p glyphshow
160.953125 0.000000 m /e glyphshow
170.796875 0.000000 m /r glyphshow
177.375000 0.000000 m /space glyphshow
182.460938 0.000000 m /c glyphshow
191.257812 0.000000 m /l glyphshow
195.703125 0.000000 m /a glyphshow
205.507812 0.000000 m /s glyphshow
213.843750 0.000000 m /s glyphshow
grestore
0.800 setlinewidth
1 setlinejoin
1 setlinecap
[] 0 setdash
0.800 setgray
gsave
630.4 352.9 68.78 58.28 clipbox
68.78 58.28 m
699.22 58.28 l
stroke
grestore
0.150 setgray
gsave
36.311250 52.201875 translate
0.000000 rotate
0.000000 0.000000 m /zero glyphshow
10.179688 0.000000 m /period glyphshow
15.265625 0.000000 m /zero glyphshow
grestore
0.800 setgray
gsave
630.4 352.9 68.78 58.28 clipbox
68.78 98.298372 m
699.22 98.298372 l
stroke
grestore
0.150 setgray
gsave
36.311250 92.220247 translate
0.000000 rotate
0.000000 0.000000 m /zero glyphshow
10.179688 0.000000 m /period glyphshow
15.265625 0.000000 m /one glyphshow
grestore
0.800 setgray
gsave
630.4 352.9 68.78 58.28 clipbox
68.78 138.316744 m
699.22 138.316744 l
stroke
grestore
0.150 setgray
gsave
36.311250 132.238619 translate
0.000000 rotate
0.000000 0.000000 m /zero glyphshow
10.179688 0.000000 m /period glyphshow
15.265625 0.000000 m /two glyphshow
grestore
0.800 setgray
gsave
630.4 352.9 68.78 58.28 clipbox
68.78 178.335115 m
699.22 178.335115 l
stroke
grestore
0.150 setgray
gsave
36.311250 172.256990 translate
0.000000 rotate
0.000000 0.000000 m /zero glyphshow
10.179688 0.000000 m /period glyphshow
15.265625 0.000000 m /three glyphshow
grestore
0.800 setgray
gsave
630.4 352.9 68.78 58.28 clipbox
68.78 218.353487 m
699.22 218.353487 l
stroke
grestore
0.150 setgray
gsave
36.311250 212.275362 translate
0.000000 rotate
0.000000 0.000000 m /zero glyphshow
10.179688 0.000000 m /period glyphshow
15.265625 0.000000 m /four glyphshow
grestore
0.800 setgray
gsave
630.4 352.9 68.78 58.28 clipbox
68.78 258.371859 m
699.22 258.371859 l
stroke
grestore
0.150 setgray
gsave
36.311250 252.293734 translate
0.000000 rotate
0.000000 0.000000 m /zero glyphshow
10.179688 0.000000 m /period glyphshow
15.265625 0.000000 m /five glyphshow
grestore
0.800 setgray
gsave
630.4 352.9 68.78 58.28 clipbox
68.78 298.390231 m
699.22 298.390231 l
stroke
grestore
0.150 setgray
gsave
36.311250 292.312106 translate
0.000000 rotate
0.000000 0.000000 m /zero glyphshow
10.179688 0.000000 m /period glyphshow
15.265625 0.000000 m /six glyphshow
grestore
0.800 setgray
gsave
630.4 352.9 68.78 58.28 clipbox
68.78 338.408602 m
699.22 338.408602 l
stroke
grestore
0.150 setgray
gsave
36.311250 332.330477 translate
0.000000 rotate
0.000000 0.000000 m /zero glyphshow
10.179688 0.000000 m /period glyphshow
15.265625 0.000000 m /seven glyphshow
grestore
0.800 setgray
gsave
630.4 352.9 68.78 58.28 clipbox
68.78 378.426974 m
699.22 378.426974 l
stroke
grestore
0.150 setgray
gsave
36.311250 372.348849 translate
0.000000 rotate
0.000000 0.000000 m /zero glyphshow
10.179688 0.000000 m /period glyphshow
15.265625 0.000000 m /eight glyphshow
grestore
gsave
28.983125 163.312500 translate
90.000000 rotate
0.000000 0.000000 m /f glyphshow
5.632812 0.000000 m /one glyphshow
15.812500 0.000000 m /hyphen glyphshow
21.585938 0.000000 m /s glyphshow
29.921875 0.000000 m /c glyphshow
38.718750 0.000000 m /o glyphshow
48.507812 0.000000 m /r glyphshow
55.085938 0.000000 m /e glyphshow
64.929688 0.000000 m /space glyphshow
70.015625 0.000000 m /parenleft glyphshow
76.257812 0.000000 m /t glyphshow
82.531250 0.000000 m /e glyphshow
92.375000 0.000000 m /s glyphshow
100.710938 0.000000 m /t glyphshow
106.984375 0.000000 m /space glyphshow
112.070312 0.000000 m /s glyphshow
120.406250 0.000000 m /e glyphshow
130.250000 0.000000 m /t glyphshow
136.523438 0.000000 m /parenright glyphshow
grestore
1.000 setlinewidth
0 setlinejoin
0 setlinecap
[] 0 setdash
1.000 setgray
gsave
630.4 352.9 68.78 58.28 clipbox
84.541 58.28 m
109.7586 58.28 l
109.7586 109.356747 l
84.541 109.356747 l
cl
gsave
0.864 0.901 0.935 setrgbcolor
fill
grestore
stroke
grestore
gsave
630.4 352.9 68.78 58.28 clipbox
242.151 58.28 m
267.3686 58.28 l
267.3686 274.520345 l
242.151 274.520345 l
cl
gsave
0.864 0.901 0.935 setrgbcolor
fill
grestore
stroke
grestore
gsave
630.4 352.9 68.78 58.28 clipbox
399.761 58.28 m
424.9786 58.28 l
424.9786 370.909362 l
399.761 370.909362 l
cl
gsave
0.864 0.901 0.935 setrgbcolor
fill
grestore
stroke
grestore
gsave
630.4 352.9 68.78 58.28 clipbox
557.371 58.28 m
582.5886 58.28 l
582.5886 393.882014 l
557.371 393.882014 l
cl
gsave
0.864 0.901 0.935 setrgbcolor
fill
grestore
stroke
grestore
gsave
630.4 352.9 68.78 58.28 clipbox
109.7586 58.28 m
134.9762 58.28 l
134.9762 155.43259 l
109.7586 155.43259 l
cl
gsave
0.718 0.803 0.855 setrgbcolor
fill
grestore
stroke
grestore
gsave
630.4 352.9 68.78 58.28 clipbox
267.3686 58.28 m
292.5862 58.28 l
292.5862 306.489294 l
267.3686 306.489294 l
cl
gsave
0.718 0.803 0.855 setrgbcolor
fill
grestore
stroke
grestore
gsave
630.4 352.9 68.78 58.28 clipbox
424.9786 58.28 m
450.1962 58.28 l
450.1962 369.477448 l
424.9786 369.477448 l
cl
gsave
0.718 0.803 0.855 setrgbcolor
fill
grestore
stroke
grestore
gsave
630.4 352.9 68.78 58.28 clipbox
582.5886 58.28 m
607.8062 58.28 l
607.8062 393.14989 l
582.5886 393.14989 l
cl
gsave
0.718 0.803 0.855 setrgbcolor
fill
grestore
stroke
grestore
gsave
630.4 352.9 68.78 58.28 clipbox
134.9762 58.28 m
160.1938 58.28 l
160.1938 163.601081 l
134.9762 163.601081 l
cl
gsave
0.501 0.659 0.754 setrgbcolor
fill
grestore
stroke
grestore
gsave
630.4 352.9 68.78 58.28 clipbox
292.5862 58.28 m
317.8038 58.28 l
317.8038 303.276581 l
292.5862 303.276581 l
cl
gsave
0.501 0.659 0.754 setrgbcolor
fill
grestore
stroke
grestore
gsave
630.4 352.9 68.78 58.28 clipbox
450.1962 58.28 m
475.4138 58.28 l
475.4138 370.220207 l
450.1962 370.220207 l
cl
gsave
0.501 0.659 0.754 setrgbcolor
fill
grestore
stroke
grestore
gsave
630.4 352.9 68.78 58.28 clipbox
607.8062 58.28 m
633.0238 58.28 l
633.0238 392.907612 l
607.8062 392.907612 l
cl
gsave
0.501 0.659 0.754 setrgbcolor
fill
grestore
stroke
grestore
gsave
630.4 352.9 68.78 58.28 clipbox
160.1938 58.28 m
185.4114 58.28 l
185.4114 170.682782 l
160.1938 170.682782 l
cl
gsave
0.323 0.512 0.647 setrgbcolor
fill
grestore
stroke
grestore
gsave
630.4 352.9 68.78 58.28 clipbox
317.8038 58.28 m
343.0214 58.28 l
343.0214 277.914759 l
317.8038 277.914759 l
cl
gsave
0.323 0.512 0.647 setrgbcolor
fill
grestore
stroke
grestore
gsave
630.4 352.9 68.78 58.28 clipbox
475.4138 58.28 m
500.6314 58.28 l
500.6314 368.595469 l
475.4138 368.595469 l
cl
gsave
0.323 0.512 0.647 setrgbcolor
fill
grestore
stroke
grestore
gsave
630.4 352.9 68.78 58.28 clipbox
633.0238 58.28 m
658.2414 58.28 l
658.2414 392.960737 l
633.0238 392.960737 l
cl
gsave
0.323 0.512 0.647 setrgbcolor
fill
grestore
stroke
grestore
gsave
630.4 352.9 68.78 58.28 clipbox
185.4114 58.28 m
210.629 58.28 l
210.629 108.841641 l
185.4114 108.841641 l
cl
gsave
0.179 0.356 0.527 setrgbcolor
fill
grestore
stroke
grestore
gsave
630.4 352.9 68.78 58.28 clipbox
343.0214 58.28 m
368.239 58.28 l
368.239 272.185357 l
343.0214 272.185357 l
cl
gsave
0.179 0.356 0.527 setrgbcolor
fill
grestore
stroke
grestore
gsave
630.4 352.9 68.78 58.28 clipbox
500.6314 58.28 m
525.849 58.28 l
525.849 372.352878 l
500.6314 372.352878 l
cl
gsave
0.179 0.356 0.527 setrgbcolor
fill
grestore
stroke
grestore
gsave
630.4 352.9 68.78 58.28 clipbox
658.2414 58.28 m
683.459 58.28 l
683.459 392.049169 l
658.2414 392.049169 l
cl
gsave
0.179 0.356 0.527 setrgbcolor
fill
grestore
stroke
grestore
1.200 setlinewidth
1 setlinejoin
1 setlinecap
[] 0 setdash
0.239 0.259 0.294 setrgbcolor
gsave
630.4 352.9 68.78 58.28 clipbox
97.1498 85.351204 m
97.1498 128.582356 l
stroke
grestore
gsave
630.4 352.9 68.78 58.28 clipbox
93.20955 85.351204 m
101.09005 85.351204 l
stroke
grestore
gsave
630.4 352.9 68.78 58.28 clipbox
93.20955 128.582356 m
101.09005 128.582356 l
stroke
grestore
gsave
630.4 352.9 68.78 58.28 clipbox
254.7598 267.393958 m
254.7598 282.455303 l
stroke
grestore
gsave
630.4 352.9 68.78 58.28 clipbox
250.81955 267.393958 m
258.70005 267.393958 l
stroke
grestore
gsave
630.4 352.9 68.78 58.28 clipbox
250.81955 282.455303 m
258.70005 282.455303 l
stroke
grestore
gsave
630.4 352.9 68.78 58.28 clipbox
412.3698 369.478982 m
412.3698 372.167997 l
stroke
grestore
gsave
630.4 352.9 68.78 58.28 clipbox
408.42955 369.478982 m
416.31005 369.478982 l
stroke
grestore
gsave
630.4 352.9 68.78 58.28 clipbox
408.42955 372.167997 m
416.31005 372.167997 l
stroke
grestore
gsave
630.4 352.9 68.78 58.28 clipbox
569.9798 393.772712 m
569.9798 394.05054 l
stroke
grestore
gsave
630.4 352.9 68.78 58.28 clipbox
566.03955 393.772712 m
573.92005 393.772712 l
stroke
grestore
gsave
630.4 352.9 68.78 58.28 clipbox
566.03955 394.05054 m
573.92005 394.05054 l
stroke
grestore
gsave
630.4 352.9 68.78 58.28 clipbox
122.3674 141.006208 m
122.3674 169.286145 l
stroke
grestore
gsave
630.4 352.9 68.78 58.28 clipbox
118.42715 141.006208 m
126.30765 141.006208 l
stroke
grestore
gsave
630.4 352.9 68.78 58.28 clipbox
118.42715 169.286145 m
126.30765 169.286145 l
stroke
grestore
gsave
630.4 352.9 68.78 58.28 clipbox
279.9774 304.035399 m
279.9774 310.350996 l
stroke
grestore
gsave
630.4 352.9 68.78 58.28 clipbox
276.03715 304.035399 m
283.91765 304.035399 l
stroke
grestore
gsave
630.4 352.9 68.78 58.28 clipbox
276.03715 310.350996 m
283.91765 310.350996 l
stroke
grestore
gsave
630.4 352.9 68.78 58.28 clipbox
437.5874 367.75827 m
437.5874 370.880997 l
stroke
grestore
gsave
630.4 352.9 68.78 58.28 clipbox
433.64715 367.75827 m
441.52765 367.75827 l
stroke
grestore
gsave
630.4 352.9 68.78 58.28 clipbox
433.64715 370.880997 m
441.52765 370.880997 l
stroke
grestore
gsave
630.4 352.9 68.78 58.28 clipbox
595.1974 392.835836 m
595.1974 393.508688 l
stroke
grestore
gsave
630.4 352.9 68.78 58.28 clipbox
591.25715 392.835836 m
599.13765 392.835836 l
stroke
grestore
gsave
630.4 352.9 68.78 58.28 clipbox
591.25715 393.508688 m
599.13765 393.508688 l
stroke
grestore
gsave
630.4 352.9 68.78 58.28 clipbox
147.585 156.036061 m
147.585 171.397015 l
stroke
grestore
gsave
630.4 352.9 68.78 58.28 clipbox
143.64475 156.036061 m
151.52525 156.036061 l
stroke
grestore
gsave
630.4 352.9 68.78 58.28 clipbox
143.64475 171.397015 m
151.52525 171.397015 l
stroke
grestore
gsave
630.4 352.9 68.78 58.28 clipbox
305.195 302.416413 m
305.195 303.854267 l
stroke
grestore
gsave
630.4 352.9 68.78 58.28 clipbox
301.25475 302.416413 m
309.13525 302.416413 l
stroke
grestore
gsave
630.4 352.9 68.78 58.28 clipbox
301.25475 303.854267 m
309.13525 303.854267 l
stroke
grestore
gsave
630.4 352.9 68.78 58.28 clipbox
462.805 368.864002 m
462.805 371.576411 l
stroke
grestore
gsave
630.4 352.9 68.78 58.28 clipbox
458.86475 368.864002 m
466.74525 368.864002 l
stroke
grestore
gsave
630.4 352.9 68.78 58.28 clipbox
458.86475 371.576411 m
466.74525 371.576411 l
stroke
grestore
gsave
630.4 352.9 68.78 58.28 clipbox
620.415 392.791517 m
620.415 392.979499 l
stroke
grestore
gsave
630.4 352.9 68.78 58.28 clipbox
616.47475 392.791517 m
624.35525 392.791517 l
stroke
grestore
gsave
630.4 352.9 68.78 58.28 clipbox
616.47475 392.979499 m
624.35525 392.979499 l
stroke
grestore
gsave
630.4 352.9 68.78 58.28 clipbox
172.8026 155.659662 m
172.8026 185.705901 l
stroke
grestore
gsave
630.4 352.9 68.78 58.28 clipbox
168.86235 155.659662 m
176.74285 155.659662 l
stroke
grestore
gsave
630.4 352.9 68.78 58.28 clipbox
168.86235 185.705901 m
176.74285 185.705901 l
stroke
grestore
gsave
630.4 352.9 68.78 58.28 clipbox
330.4126 273.754442 m
330.4126 281.290072 l
stroke
grestore
gsave
630.4 352.9 68.78 58.28 clipbox
326.47235 273.754442 m
334.35285 273.754442 l
stroke
grestore
gsave
630.4 352.9 68.78 58.28 clipbox
326.47235 281.290072 m
334.35285 281.290072 l
stroke
grestore
gsave
630.4 352.9 68.78 58.28 clipbox
488.0226 366.814399 m
488.0226 372.099899 l
stroke
grestore
gsave
630.4 352.9 68.78 58.28 clipbox
484.08235 366.814399 m
491.96285 366.814399 l
stroke
grestore
gsave
630.4 352.9 68.78 58.28 clipbox
484.08235 372.099899 m
491.96285 372.099899 l
stroke
grestore
gsave
630.4 352.9 68.78 58.28 clipbox
645.6326 392.419599 m
645.6326 393.250896 l
stroke
grestore
gsave
630.4 352.9 68.78 58.28 clipbox
641.69235 392.419599 m
649.57285 392.419599 l
stroke
grestore
gsave
630.4 352.9 68.78 58.28 clipbox
641.69235 393.250896 m
649.57285 393.250896 l
stroke
grestore
gsave
630.4 352.9 68.78 58.28 clipbox
198.0202 86.698406 m
198.0202 123.497238 l
stroke
grestore
gsave
630.4 352.9 68.78 58.28 clipbox
194.07995 86.698406 m
201.96045 86.698406 l
stroke
grestore
gsave
630.4 352.9 68.78 58.28 clipbox
194.07995 123.497238 m
201.96045 123.497238 l
stroke
grestore
gsave
630.4 352.9 68.78 58.28 clipbox
355.6302 261.598177 m
355.6302 278.524238 l
stroke
grestore
gsave
630.4 352.9 68.78 58.28 clipbox
351.68995 261.598177 m
359.57045 261.598177 l
stroke
grestore
gsave
630.4 352.9 68.78 58.28 clipbox
351.68995 278.524238 m
359.57045 278.524238 l
stroke
grestore
gsave
630.4 352.9 68.78 58.28 clipbox
513.2402 370.633608 m
513.2402 373.339355 l
stroke
grestore
gsave
630.4 352.9 68.78 58.28 clipbox
509.29995 370.633608 m
517.18045 370.633608 l
stroke
grestore
gsave
630.4 352.9 68.78 58.28 clipbox
509.29995 373.339355 m
517.18045 373.339355 l
stroke
grestore
gsave
630.4 352.9 68.78 58.28 clipbox
670.8502 390.801262 m
670.8502 394.413333 l
stroke
grestore
gsave
630.4 352.9 68.78 58.28 clipbox
666.90995 390.801262 m
674.79045 390.801262 l
stroke
grestore
gsave
630.4 352.9 68.78 58.28 clipbox
666.90995 394.413333 m
674.79045 394.413333 l
stroke
grestore
0.800 setlinewidth
0 setlinejoin
2 setlinecap
[] 0 setdash
0.800 setgray
gsave
68.78 58.28 m
68.78 411.22 l
stroke
grestore
gsave
699.22 58.28 m
699.22 411.22 l
stroke
grestore
gsave
68.78 58.28 m
699.22 58.28 l
stroke
grestore
gsave
68.78 411.22 m
699.22 411.22 l
stroke
grestore
1.000 setlinewidth
0 setlinecap
gsave
79.98 257.060625 m
224.33625 257.060625 l
226.469583 257.060625 227.53625 258.127292 227.53625 260.260625 c
227.53625 400.02 l
227.53625 402.153333 226.469583 403.22 224.33625 403.22 c
79.98 403.22 l
77.846667 403.22 76.78 402.153333 76.78 400.02 c
76.78 260.260625 l
76.78 258.127292 77.846667 257.060625 79.98 257.060625 c
cl
gsave
1.000 setgray
fill
grestore
stroke
grestore
0.150 setgray
gsave
127.236250 384.663750 translate
0.000000 rotate
0.000000 0.000000 m /m glyphshow
15.585938 0.000000 m /o glyphshow
25.375000 0.000000 m /d glyphshow
35.531250 0.000000 m /e glyphshow
45.375000 0.000000 m /l glyphshow
grestore
1.000 setgray
gsave
83.18 361.179375 m
115.18 361.179375 l
115.18 372.379375 l
83.18 372.379375 l
cl
gsave
0.864 0.901 0.935 setrgbcolor
fill
grestore
stroke
grestore
0.150 setgray
gsave
127.980000 361.179375 translate
0.000000 rotate
0.000000 0.000000 m /c glyphshow
8.796875 0.000000 m /a glyphshow
18.601562 0.000000 m /e glyphshow
grestore
1.000 setgray
gsave
83.18 337.695 m
115.18 337.695 l
115.18 348.895 l
83.18 348.895 l
cl
gsave
0.718 0.803 0.855 setrgbcolor
fill
grestore
stroke
grestore
0.150 setgray
gsave
127.980000 337.695000 translate
0.000000 rotate
0.000000 0.000000 m /k glyphshow
9.265625 0.000000 m /a glyphshow
19.070312 0.000000 m /t glyphshow
25.343750 0.000000 m /e glyphshow
grestore
1.000 setgray
gsave
83.18 314.210625 m
115.18 314.210625 l
115.18 325.410625 l
83.18 325.410625 l
cl
gsave
0.501 0.659 0.754 setrgbcolor
fill
grestore
stroke
grestore
0.150 setgray
gsave
127.980000 314.210625 translate
0.000000 rotate
0.000000 0.000000 m /k glyphshow
9.265625 0.000000 m /s glyphshow
17.601562 0.000000 m /p glyphshow
27.757812 0.000000 m /a glyphshow
37.562500 0.000000 m /r glyphshow
44.140625 0.000000 m /s glyphshow
52.476562 0.000000 m /e glyphshow
grestore
1.000 setgray
gsave
83.18 290.72625 m
115.18 290.72625 l
115.18 301.92625 l
83.18 301.92625 l
cl
gsave
0.323 0.512 0.647 setrgbcolor
fill
grestore
stroke
grestore
0.150 setgray
gsave
127.980000 290.726250 translate
0.000000 rotate
0.000000 0.000000 m /s glyphshow
8.335938 0.000000 m /s glyphshow
16.671875 0.000000 m /a glyphshow
26.476562 0.000000 m /e glyphshow
grestore
1.000 setgray
gsave
83.18 267.241875 m
115.18 267.241875 l
115.18 278.441875 l
83.18 278.441875 l
cl
gsave
0.179 0.356 0.527 setrgbcolor
fill
grestore
stroke
grestore
0.150 setgray
gsave
127.980000 267.241875 translate
0.000000 rotate
0.000000 0.000000 m /f glyphshow
5.632812 0.000000 m /c glyphshow
14.429688 0.000000 m /underscore glyphshow
22.429688 0.000000 m /c glyphshow
31.226562 0.000000 m /l glyphshow
35.671875 0.000000 m /a glyphshow
45.476562 0.000000 m /s glyphshow
53.812500 0.000000 m /s glyphshow
62.148438 0.000000 m /i glyphshow
66.593750 0.000000 m /f glyphshow
72.226562 0.000000 m /i glyphshow
76.671875 0.000000 m /e glyphshow
86.515625 0.000000 m /r glyphshow
grestore

end
showpage
