%!PS-Adobe-3.0 EPSF-3.0
%%Title: notebooks/kcomp_activation.eps
%%Creator: matplotlib version 3.0.2, http://matplotlib.org/
%%CreationDate: Thu Apr 25 12:22:42 2019
%%Orientation: portrait
%%BoundingBox: 75 223 536 568
%%EndComments
%%BeginProlog
/mpldict 8 dict def
mpldict begin
/m { moveto } bind def
/l { lineto } bind def
/r { rlineto } bind def
/c { curveto } bind def
/cl { closepath } bind def
/box {
m
1 index 0 r
0 exch r
neg 0 r
cl
} bind def
/clipbox {
box
clip
newpath
} bind def
%!PS-Adobe-3.0 Resource-Font
%%Title: DejaVu Sans
%%Copyright: Copyright (c) 2003 by Bitstream, Inc. All Rights Reserved. Copyright (c) 2006 by Tavmjong Bah. All Rights Reserved. DejaVu changes are in public domain 
%%Creator: Converted from TrueType to type 3 by PPR
25 dict begin
/_d{bind def}bind def
/_m{moveto}_d
/_l{lineto}_d
/_cl{closepath eofill}_d
/_c{curveto}_d
/_sc{7 -1 roll{setcachedevice}{pop pop pop pop pop pop}ifelse}_d
/_e{exec}_d
/FontName /DejaVuSans def
/PaintType 0 def
/FontMatrix[.001 0 0 .001 0 0]def
/FontBBox[-1021 -463 1793 1232]def
/FontType 3 def
/Encoding [ /period /zero /one /two /four /five /six /eight /minus ] def
/FontInfo 10 dict dup begin
/FamilyName (DejaVu Sans) def
/FullName (DejaVu Sans) def
/Notice (Copyright (c) 2003 by Bitstream, Inc. All Rights Reserved. Copyright (c) 2006 by Tavmjong Bah. All Rights Reserved. DejaVu changes are in public domain ) def
/Weight (Book) def
/Version (Version 2.35) def
/ItalicAngle 0.0 def
/isFixedPitch false def
/UnderlinePosition -130 def
/UnderlineThickness 90 def
end readonly def
/CharStrings 10 dict dup begin
/.notdef 0 def
/period{318 0 107 0 210 124 _sc
107 124 _m
210 124 _l
210 0 _l
107 0 _l
107 124 _l
_cl}_d
/zero{636 0 66 -13 570 742 _sc
318 664 _m
267 664 229 639 203 589 _c
177 539 165 464 165 364 _c
165 264 177 189 203 139 _c
229 89 267 64 318 64 _c
369 64 407 89 433 139 _c
458 189 471 264 471 364 _c
471 464 458 539 433 589 _c
407 639 369 664 318 664 _c
318 742 _m
399 742 461 709 505 645 _c
548 580 570 486 570 364 _c
570 241 548 147 505 83 _c
461 19 399 -13 318 -13 _c
236 -13 173 19 130 83 _c
87 147 66 241 66 364 _c
66 486 87 580 130 645 _c
173 709 236 742 318 742 _c
_cl}_d
/one{636 0 110 0 544 729 _sc
124 83 _m
285 83 _l
285 639 _l
110 604 _l
110 694 _l
284 729 _l
383 729 _l
383 83 _l
544 83 _l
544 0 _l
124 0 _l
124 83 _l
_cl}_d
/two{{636 0 73 0 536 742 _sc
192 83 _m
536 83 _l
536 0 _l
73 0 _l
73 83 _l
110 121 161 173 226 239 _c
290 304 331 346 348 365 _c
380 400 402 430 414 455 _c
426 479 433 504 433 528 _c
433 566 419 598 392 622 _c
365 646 330 659 286 659 _c
255 659 222 653 188 643 _c
154 632 117 616 78 594 _c
78 694 _l
118 710 155 722 189 730 _c
223 738 255 742 284 742 _c
}_e{359 742 419 723 464 685 _c
509 647 532 597 532 534 _c
532 504 526 475 515 449 _c
504 422 484 390 454 354 _c
446 344 420 317 376 272 _c
332 227 271 164 192 83 _c
_cl}_e}_d
/four{636 0 49 0 580 729 _sc
378 643 _m
129 254 _l
378 254 _l
378 643 _l
352 729 _m
476 729 _l
476 254 _l
580 254 _l
580 172 _l
476 172 _l
476 0 _l
378 0 _l
378 172 _l
49 172 _l
49 267 _l
352 729 _l
_cl}_d
/five{{636 0 77 -13 549 729 _sc
108 729 _m
495 729 _l
495 646 _l
198 646 _l
198 467 _l
212 472 227 476 241 478 _c
255 480 270 482 284 482 _c
365 482 429 459 477 415 _c
525 370 549 310 549 234 _c
549 155 524 94 475 51 _c
426 8 357 -13 269 -13 _c
238 -13 207 -10 175 -6 _c
143 -1 111 6 77 17 _c
77 116 _l
106 100 136 88 168 80 _c
199 72 232 69 267 69 _c
}_e{323 69 368 83 401 113 _c
433 143 450 183 450 234 _c
450 284 433 324 401 354 _c
368 384 323 399 267 399 _c
241 399 214 396 188 390 _c
162 384 135 375 108 363 _c
108 729 _l
_cl}_e}_d
/six{{636 0 70 -13 573 742 _sc
330 404 _m
286 404 251 388 225 358 _c
199 328 186 286 186 234 _c
186 181 199 139 225 109 _c
251 79 286 64 330 64 _c
374 64 409 79 435 109 _c
461 139 474 181 474 234 _c
474 286 461 328 435 358 _c
409 388 374 404 330 404 _c
526 713 _m
526 623 _l
501 635 476 644 451 650 _c
425 656 400 659 376 659 _c
310 659 260 637 226 593 _c
}_e{192 549 172 482 168 394 _c
187 422 211 444 240 459 _c
269 474 301 482 336 482 _c
409 482 467 459 509 415 _c
551 371 573 310 573 234 _c
573 159 550 99 506 54 _c
462 9 403 -13 330 -13 _c
246 -13 181 19 137 83 _c
92 147 70 241 70 364 _c
70 479 97 571 152 639 _c
206 707 280 742 372 742 _c
396 742 421 739 447 735 _c
472 730 498 723 526 713 _c
_cl}_e}_d
/eight{{636 0 68 -13 568 742 _sc
318 346 _m
271 346 234 333 207 308 _c
180 283 167 249 167 205 _c
167 161 180 126 207 101 _c
234 76 271 64 318 64 _c
364 64 401 76 428 102 _c
455 127 469 161 469 205 _c
469 249 455 283 429 308 _c
402 333 365 346 318 346 _c
219 388 _m
177 398 144 418 120 447 _c
96 476 85 511 85 553 _c
85 611 105 657 147 691 _c
188 725 245 742 318 742 _c
}_e{390 742 447 725 489 691 _c
530 657 551 611 551 553 _c
551 511 539 476 515 447 _c
491 418 459 398 417 388 _c
464 377 501 355 528 323 _c
554 291 568 251 568 205 _c
568 134 546 80 503 43 _c
459 5 398 -13 318 -13 _c
237 -13 175 5 132 43 _c
89 80 68 134 68 205 _c
68 251 81 291 108 323 _c
134 355 171 377 219 388 _c
183 544 _m
183 506 194 476 218 455 _c
}_e{242 434 275 424 318 424 _c
360 424 393 434 417 455 _c
441 476 453 506 453 544 _c
453 582 441 611 417 632 _c
393 653 360 664 318 664 _c
275 664 242 653 218 632 _c
194 611 183 582 183 544 _c
_cl}_e}_d
/minus{838 0 106 272 732 355 _sc
106 355 _m
732 355 _l
732 272 _l
106 272 _l
106 355 _l
_cl}_d
end readonly def

/BuildGlyph
 {exch begin
 CharStrings exch
 2 copy known not{pop /.notdef}if
 true 3 1 roll get exec
 end}_d

/BuildChar {
 1 index /Encoding get exch get
 1 index /BuildGlyph get exec
}_d

FontName currentdict end definefont pop
end
%%EndProlog
mpldict begin
75.6 223.2 translate
460.8 345.6 0 0 clipbox
gsave
0 0 m
460.8 0 l
460.8 345.6 l
0 345.6 l
cl
1.000 setgray
fill
grestore
gsave
57.6 183.168 m
414.72 183.168 l
414.72 304.128 l
57.6 304.128 l
cl
1.000 setgray
fill
grestore
0.150 setgray
/DejaVuSans findfont
10.000 scalefont
setfont
gsave
71.669173 168.574250 translate
0.000000 rotate
0.000000 0.000000 m /zero glyphshow
grestore
gsave
119.296144 168.574250 translate
0.000000 rotate
0.000000 0.000000 m /two glyphshow
6.362305 0.000000 m /zero glyphshow
grestore
gsave
170.102802 168.574250 translate
0.000000 rotate
0.000000 0.000000 m /four glyphshow
6.362305 0.000000 m /zero glyphshow
grestore
gsave
220.909460 168.574250 translate
0.000000 rotate
0.000000 0.000000 m /six glyphshow
6.362305 0.000000 m /zero glyphshow
grestore
gsave
271.716118 168.574250 translate
0.000000 rotate
0.000000 0.000000 m /eight glyphshow
6.362305 0.000000 m /zero glyphshow
grestore
gsave
319.343089 168.574250 translate
0.000000 rotate
0.000000 0.000000 m /one glyphshow
6.362305 0.000000 m /zero glyphshow
12.724609 0.000000 m /zero glyphshow
grestore
gsave
370.149747 168.574250 translate
0.000000 rotate
0.000000 0.000000 m /one glyphshow
6.362305 0.000000 m /two glyphshow
12.724609 0.000000 m /zero glyphshow
grestore
gsave
13.600000 210.195511 translate
0.000000 rotate
0.000000 0.000000 m /minus glyphshow
8.378906 0.000000 m /zero glyphshow
14.741211 0.000000 m /period glyphshow
17.919922 0.000000 m /zero glyphshow
24.282227 0.000000 m /zero glyphshow
30.644531 0.000000 m /five glyphshow
grestore
gsave
21.975000 242.003341 translate
0.000000 rotate
0.000000 0.000000 m /zero glyphshow
6.362305 0.000000 m /period glyphshow
9.541016 0.000000 m /zero glyphshow
15.903320 0.000000 m /zero glyphshow
22.265625 0.000000 m /zero glyphshow
grestore
gsave
21.975000 273.811172 translate
0.000000 rotate
0.000000 0.000000 m /zero glyphshow
6.362305 0.000000 m /period glyphshow
9.541016 0.000000 m /zero glyphshow
15.903320 0.000000 m /zero glyphshow
22.265625 0.000000 m /five glyphshow
grestore
1.000 setlinewidth
0 setlinejoin
0 setlinecap
[] 0 setdash
1.000 setgray
gsave
357.1 121 57.6 183.2 clipbox
73.832727 245.800216 m
75.864994 245.800216 l
75.864994 224.429123 l
73.832727 224.429123 l
cl
gsave
0.122 0.467 0.706 setrgbcolor
fill
grestore
stroke
grestore
gsave
357.1 121 57.6 183.2 clipbox
76.37306 245.800216 m
78.405327 245.800216 l
78.405327 252.468299 l
76.37306 252.468299 l
cl
gsave
0.122 0.467 0.706 setrgbcolor
fill
grestore
stroke
grestore
gsave
357.1 121 57.6 183.2 clipbox
78.913393 245.800216 m
80.945659 245.800216 l
80.945659 252.107149 l
78.913393 252.107149 l
cl
gsave
0.122 0.467 0.706 setrgbcolor
fill
grestore
stroke
grestore
gsave
357.1 121 57.6 183.2 clipbox
81.453726 245.800216 m
83.485992 245.800216 l
83.485992 277.359192 l
81.453726 277.359192 l
cl
gsave
0.122 0.467 0.706 setrgbcolor
fill
grestore
stroke
grestore
gsave
357.1 121 57.6 183.2 clipbox
83.994059 245.800216 m
86.026325 245.800216 l
86.026325 243.180642 l
83.994059 243.180642 l
cl
gsave
0.122 0.467 0.706 setrgbcolor
fill
grestore
stroke
grestore
gsave
357.1 121 57.6 183.2 clipbox
86.534392 245.800216 m
88.566658 245.800216 l
88.566658 264.28849 l
86.534392 264.28849 l
cl
gsave
0.122 0.467 0.706 setrgbcolor
fill
grestore
stroke
grestore
gsave
357.1 121 57.6 183.2 clipbox
89.074725 245.800216 m
91.106991 245.800216 l
91.106991 291.183462 l
89.074725 291.183462 l
cl
gsave
0.122 0.467 0.706 setrgbcolor
fill
grestore
stroke
grestore
gsave
357.1 121 57.6 183.2 clipbox
91.615058 245.800216 m
93.647324 245.800216 l
93.647324 238.328463 l
91.615058 238.328463 l
cl
gsave
0.122 0.467 0.706 setrgbcolor
fill
grestore
stroke
grestore
gsave
357.1 121 57.6 183.2 clipbox
94.155391 245.800216 m
96.187657 245.800216 l
96.187657 236.79698 l
94.155391 236.79698 l
cl
gsave
0.122 0.467 0.706 setrgbcolor
fill
grestore
stroke
grestore
gsave
357.1 121 57.6 183.2 clipbox
96.695723 245.800216 m
98.72799 245.800216 l
98.72799 270.747865 l
96.695723 270.747865 l
cl
gsave
0.122 0.467 0.706 setrgbcolor
fill
grestore
stroke
grestore
gsave
357.1 121 57.6 183.2 clipbox
99.236056 245.800216 m
101.268323 245.800216 l
101.268323 243.227791 l
99.236056 243.227791 l
cl
gsave
0.122 0.467 0.706 setrgbcolor
fill
grestore
stroke
grestore
gsave
357.1 121 57.6 183.2 clipbox
101.776389 245.800216 m
103.808656 245.800216 l
103.808656 262.572326 l
101.776389 262.572326 l
cl
gsave
0.122 0.467 0.706 setrgbcolor
fill
grestore
stroke
grestore
gsave
357.1 121 57.6 183.2 clipbox
104.316722 245.800216 m
106.348988 245.800216 l
106.348988 229.299575 l
104.316722 229.299575 l
cl
gsave
0.122 0.467 0.706 setrgbcolor
fill
grestore
stroke
grestore
gsave
357.1 121 57.6 183.2 clipbox
106.857055 245.800216 m
108.889321 245.800216 l
108.889321 234.394529 l
106.857055 234.394529 l
cl
gsave
0.122 0.467 0.706 setrgbcolor
fill
grestore
stroke
grestore
gsave
357.1 121 57.6 183.2 clipbox
109.397388 245.800216 m
111.429654 245.800216 l
111.429654 260.121702 l
109.397388 260.121702 l
cl
gsave
0.122 0.467 0.706 setrgbcolor
fill
grestore
stroke
grestore
gsave
357.1 121 57.6 183.2 clipbox
111.937721 245.800216 m
113.969987 245.800216 l
113.969987 257.088507 l
111.937721 257.088507 l
cl
gsave
0.122 0.467 0.706 setrgbcolor
fill
grestore
stroke
grestore
gsave
357.1 121 57.6 183.2 clipbox
114.478054 245.800216 m
116.51032 245.800216 l
116.51032 226.9817 l
114.478054 226.9817 l
cl
gsave
0.122 0.467 0.706 setrgbcolor
fill
grestore
stroke
grestore
gsave
357.1 121 57.6 183.2 clipbox
117.018387 245.800216 m
119.050653 245.800216 l
119.050653 268.706083 l
117.018387 268.706083 l
cl
gsave
0.122 0.467 0.706 setrgbcolor
fill
grestore
stroke
grestore
gsave
357.1 121 57.6 183.2 clipbox
119.55872 245.800216 m
121.590986 245.800216 l
121.590986 251.715377 l
119.55872 251.715377 l
cl
gsave
0.122 0.467 0.706 setrgbcolor
fill
grestore
stroke
grestore
gsave
357.1 121 57.6 183.2 clipbox
122.099052 245.800216 m
124.131319 245.800216 l
124.131319 276.849733 l
122.099052 276.849733 l
cl
gsave
0.122 0.467 0.706 setrgbcolor
fill
grestore
stroke
grestore
gsave
357.1 121 57.6 183.2 clipbox
124.639385 245.800216 m
126.671652 245.800216 l
126.671652 211.580818 l
124.639385 211.580818 l
cl
gsave
0.122 0.467 0.706 setrgbcolor
fill
grestore
stroke
grestore
gsave
357.1 121 57.6 183.2 clipbox
127.179718 245.800216 m
129.211985 245.800216 l
129.211985 286.051966 l
127.179718 286.051966 l
cl
gsave
0.122 0.467 0.706 setrgbcolor
fill
grestore
stroke
grestore
gsave
357.1 121 57.6 183.2 clipbox
129.720051 245.800216 m
131.752318 245.800216 l
131.752318 243.709367 l
129.720051 243.709367 l
cl
gsave
0.122 0.467 0.706 setrgbcolor
fill
grestore
stroke
grestore
gsave
357.1 121 57.6 183.2 clipbox
132.260384 245.800216 m
134.29265 245.800216 l
134.29265 256.183313 l
132.260384 256.183313 l
cl
gsave
0.122 0.467 0.706 setrgbcolor
fill
grestore
stroke
grestore
gsave
357.1 121 57.6 183.2 clipbox
134.800717 245.800216 m
136.832983 245.800216 l
136.832983 213.575906 l
134.800717 213.575906 l
cl
gsave
0.122 0.467 0.706 setrgbcolor
fill
grestore
stroke
grestore
gsave
357.1 121 57.6 183.2 clipbox
137.34105 245.800216 m
139.373316 245.800216 l
139.373316 232.994335 l
137.34105 232.994335 l
cl
gsave
0.122 0.467 0.706 setrgbcolor
fill
grestore
stroke
grestore
gsave
357.1 121 57.6 183.2 clipbox
139.881383 245.800216 m
141.913649 245.800216 l
141.913649 254.955642 l
139.881383 254.955642 l
cl
gsave
0.122 0.467 0.706 setrgbcolor
fill
grestore
stroke
grestore
gsave
357.1 121 57.6 183.2 clipbox
142.421716 245.800216 m
144.453982 245.800216 l
144.453982 275.352222 l
142.421716 275.352222 l
cl
gsave
0.122 0.467 0.706 setrgbcolor
fill
grestore
stroke
grestore
gsave
357.1 121 57.6 183.2 clipbox
144.962049 245.800216 m
146.994315 245.800216 l
146.994315 210.333651 l
144.962049 210.333651 l
cl
gsave
0.122 0.467 0.706 setrgbcolor
fill
grestore
stroke
grestore
gsave
357.1 121 57.6 183.2 clipbox
147.502382 245.800216 m
149.534648 245.800216 l
149.534648 256.336115 l
147.502382 256.336115 l
cl
gsave
0.122 0.467 0.706 setrgbcolor
fill
grestore
stroke
grestore
gsave
357.1 121 57.6 183.2 clipbox
150.042714 245.800216 m
152.074981 245.800216 l
152.074981 236.64785 l
150.042714 236.64785 l
cl
gsave
0.122 0.467 0.706 setrgbcolor
fill
grestore
stroke
grestore
gsave
357.1 121 57.6 183.2 clipbox
152.583047 245.800216 m
154.615314 245.800216 l
154.615314 188.666182 l
152.583047 188.666182 l
cl
gsave
0.122 0.467 0.706 setrgbcolor
fill
grestore
stroke
grestore
gsave
357.1 121 57.6 183.2 clipbox
155.12338 245.800216 m
157.155647 245.800216 l
157.155647 240.040537 l
155.12338 240.040537 l
cl
gsave
0.122 0.467 0.706 setrgbcolor
fill
grestore
stroke
grestore
gsave
357.1 121 57.6 183.2 clipbox
157.663713 245.800216 m
159.69598 245.800216 l
159.69598 296.009425 l
157.663713 296.009425 l
cl
gsave
0.122 0.467 0.706 setrgbcolor
fill
grestore
stroke
grestore
gsave
357.1 121 57.6 183.2 clipbox
160.204046 245.800216 m
162.236312 245.800216 l
162.236312 257.893587 l
160.204046 257.893587 l
cl
gsave
0.122 0.467 0.706 setrgbcolor
fill
grestore
stroke
grestore
gsave
357.1 121 57.6 183.2 clipbox
162.744379 245.800216 m
164.776645 245.800216 l
164.776645 245.063935 l
162.744379 245.063935 l
cl
gsave
0.122 0.467 0.706 setrgbcolor
fill
grestore
stroke
grestore
gsave
357.1 121 57.6 183.2 clipbox
165.284712 245.800216 m
167.316978 245.800216 l
167.316978 261.452853 l
165.284712 261.452853 l
cl
gsave
0.122 0.467 0.706 setrgbcolor
fill
grestore
stroke
grestore
gsave
357.1 121 57.6 183.2 clipbox
167.825045 245.800216 m
169.857311 245.800216 l
169.857311 258.173325 l
167.825045 258.173325 l
cl
gsave
0.122 0.467 0.706 setrgbcolor
fill
grestore
stroke
grestore
gsave
357.1 121 57.6 183.2 clipbox
170.365378 245.800216 m
172.397644 245.800216 l
172.397644 250.099577 l
170.365378 250.099577 l
cl
gsave
0.122 0.467 0.706 setrgbcolor
fill
grestore
stroke
grestore
gsave
357.1 121 57.6 183.2 clipbox
172.905711 245.800216 m
174.937977 245.800216 l
174.937977 278.129396 l
172.905711 278.129396 l
cl
gsave
0.122 0.467 0.706 setrgbcolor
fill
grestore
stroke
grestore
gsave
357.1 121 57.6 183.2 clipbox
175.446044 245.800216 m
177.47831 245.800216 l
177.47831 246.838016 l
175.446044 246.838016 l
cl
gsave
0.122 0.467 0.706 setrgbcolor
fill
grestore
stroke
grestore
gsave
357.1 121 57.6 183.2 clipbox
177.986376 245.800216 m
180.018643 245.800216 l
180.018643 239.892508 l
177.986376 239.892508 l
cl
gsave
0.122 0.467 0.706 setrgbcolor
fill
grestore
stroke
grestore
gsave
357.1 121 57.6 183.2 clipbox
180.526709 245.800216 m
182.558976 245.800216 l
182.558976 266.654577 l
180.526709 266.654577 l
cl
gsave
0.122 0.467 0.706 setrgbcolor
fill
grestore
stroke
grestore
gsave
357.1 121 57.6 183.2 clipbox
183.067042 245.800216 m
185.099309 245.800216 l
185.099309 212.734422 l
183.067042 212.734422 l
cl
gsave
0.122 0.467 0.706 setrgbcolor
fill
grestore
stroke
grestore
gsave
357.1 121 57.6 183.2 clipbox
185.607375 245.800216 m
187.639641 245.800216 l
187.639641 247.613445 l
185.607375 247.613445 l
cl
gsave
0.122 0.467 0.706 setrgbcolor
fill
grestore
stroke
grestore
gsave
357.1 121 57.6 183.2 clipbox
188.147708 245.800216 m
190.179974 245.800216 l
190.179974 226.655193 l
188.147708 226.655193 l
cl
gsave
0.122 0.467 0.706 setrgbcolor
fill
grestore
stroke
grestore
gsave
357.1 121 57.6 183.2 clipbox
190.688041 245.800216 m
192.720307 245.800216 l
192.720307 236.225913 l
190.688041 236.225913 l
cl
gsave
0.122 0.467 0.706 setrgbcolor
fill
grestore
stroke
grestore
gsave
357.1 121 57.6 183.2 clipbox
193.228374 245.800216 m
195.26064 245.800216 l
195.26064 250.129882 l
193.228374 250.129882 l
cl
gsave
0.122 0.467 0.706 setrgbcolor
fill
grestore
stroke
grestore
gsave
357.1 121 57.6 183.2 clipbox
195.768707 245.800216 m
197.800973 245.800216 l
197.800973 293.78486 l
195.768707 293.78486 l
cl
gsave
0.122 0.467 0.706 setrgbcolor
fill
grestore
stroke
grestore
gsave
357.1 121 57.6 183.2 clipbox
198.30904 245.800216 m
200.341306 245.800216 l
200.341306 232.504439 l
198.30904 232.504439 l
cl
gsave
0.122 0.467 0.706 setrgbcolor
fill
grestore
stroke
grestore
gsave
357.1 121 57.6 183.2 clipbox
200.849373 245.800216 m
202.881639 245.800216 l
202.881639 258.176027 l
200.849373 258.176027 l
cl
gsave
0.122 0.467 0.706 setrgbcolor
fill
grestore
stroke
grestore
gsave
357.1 121 57.6 183.2 clipbox
203.389706 245.800216 m
205.421972 245.800216 l
205.421972 298.629818 l
203.389706 298.629818 l
cl
gsave
0.122 0.467 0.706 setrgbcolor
fill
grestore
stroke
grestore
gsave
357.1 121 57.6 183.2 clipbox
205.930038 245.800216 m
207.962305 245.800216 l
207.962305 200.275419 l
205.930038 200.275419 l
cl
gsave
0.122 0.467 0.706 setrgbcolor
fill
grestore
stroke
grestore
gsave
357.1 121 57.6 183.2 clipbox
208.470371 245.800216 m
210.502638 245.800216 l
210.502638 251.82911 l
208.470371 251.82911 l
cl
gsave
0.122 0.467 0.706 setrgbcolor
fill
grestore
stroke
grestore
gsave
357.1 121 57.6 183.2 clipbox
211.010704 245.800216 m
213.042971 245.800216 l
213.042971 231.044156 l
211.010704 231.044156 l
cl
gsave
0.122 0.467 0.706 setrgbcolor
fill
grestore
stroke
grestore
gsave
357.1 121 57.6 183.2 clipbox
213.551037 245.800216 m
215.583303 245.800216 l
215.583303 216.514587 l
213.551037 216.514587 l
cl
gsave
0.122 0.467 0.706 setrgbcolor
fill
grestore
stroke
grestore
gsave
357.1 121 57.6 183.2 clipbox
216.09137 245.800216 m
218.123636 245.800216 l
218.123636 212.988757 l
216.09137 212.988757 l
cl
gsave
0.122 0.467 0.706 setrgbcolor
fill
grestore
stroke
grestore
gsave
357.1 121 57.6 183.2 clipbox
218.631703 245.800216 m
220.663969 245.800216 l
220.663969 234.587953 l
218.631703 234.587953 l
cl
gsave
0.122 0.467 0.706 setrgbcolor
fill
grestore
stroke
grestore
gsave
357.1 121 57.6 183.2 clipbox
221.172036 245.800216 m
223.204302 245.800216 l
223.204302 236.34984 l
221.172036 236.34984 l
cl
gsave
0.122 0.467 0.706 setrgbcolor
fill
grestore
stroke
grestore
gsave
357.1 121 57.6 183.2 clipbox
223.712369 245.800216 m
225.744635 245.800216 l
225.744635 231.498321 l
223.712369 231.498321 l
cl
gsave
0.122 0.467 0.706 setrgbcolor
fill
grestore
stroke
grestore
gsave
357.1 121 57.6 183.2 clipbox
226.252702 245.800216 m
228.284968 245.800216 l
228.284968 217.799592 l
226.252702 217.799592 l
cl
gsave
0.122 0.467 0.706 setrgbcolor
fill
grestore
stroke
grestore
gsave
357.1 121 57.6 183.2 clipbox
228.793035 245.800216 m
230.825301 245.800216 l
230.825301 211.937676 l
228.793035 211.937676 l
cl
gsave
0.122 0.467 0.706 setrgbcolor
fill
grestore
stroke
grestore
gsave
357.1 121 57.6 183.2 clipbox
231.333367 245.800216 m
233.365634 245.800216 l
233.365634 255.717614 l
231.333367 255.717614 l
cl
gsave
0.122 0.467 0.706 setrgbcolor
fill
grestore
stroke
grestore
gsave
357.1 121 57.6 183.2 clipbox
233.8737 245.800216 m
235.905967 245.800216 l
235.905967 257.044098 l
233.8737 257.044098 l
cl
gsave
0.122 0.467 0.706 setrgbcolor
fill
grestore
stroke
grestore
gsave
357.1 121 57.6 183.2 clipbox
236.414033 245.800216 m
238.4463 245.800216 l
238.4463 275.899504 l
236.414033 275.899504 l
cl
gsave
0.122 0.467 0.706 setrgbcolor
fill
grestore
stroke
grestore
gsave
357.1 121 57.6 183.2 clipbox
238.954366 245.800216 m
240.986633 245.800216 l
240.986633 235.69286 l
238.954366 235.69286 l
cl
gsave
0.122 0.467 0.706 setrgbcolor
fill
grestore
stroke
grestore
gsave
357.1 121 57.6 183.2 clipbox
241.494699 245.800216 m
243.526965 245.800216 l
243.526965 259.872001 l
241.494699 259.872001 l
cl
gsave
0.122 0.467 0.706 setrgbcolor
fill
grestore
stroke
grestore
gsave
357.1 121 57.6 183.2 clipbox
244.035032 245.800216 m
246.067298 245.800216 l
246.067298 255.04034 l
244.035032 255.04034 l
cl
gsave
0.122 0.467 0.706 setrgbcolor
fill
grestore
stroke
grestore
gsave
357.1 121 57.6 183.2 clipbox
246.575365 245.800216 m
248.607631 245.800216 l
248.607631 235.14267 l
246.575365 235.14267 l
cl
gsave
0.122 0.467 0.706 setrgbcolor
fill
grestore
stroke
grestore
gsave
357.1 121 57.6 183.2 clipbox
249.115698 245.800216 m
251.147964 245.800216 l
251.147964 240.203258 l
249.115698 240.203258 l
cl
gsave
0.122 0.467 0.706 setrgbcolor
fill
grestore
stroke
grestore
gsave
357.1 121 57.6 183.2 clipbox
251.656031 245.800216 m
253.688297 245.800216 l
253.688297 233.554482 l
251.656031 233.554482 l
cl
gsave
0.122 0.467 0.706 setrgbcolor
fill
grestore
stroke
grestore
gsave
357.1 121 57.6 183.2 clipbox
254.196364 245.800216 m
256.22863 245.800216 l
256.22863 267.77887 l
254.196364 267.77887 l
cl
gsave
0.122 0.467 0.706 setrgbcolor
fill
grestore
stroke
grestore
gsave
357.1 121 57.6 183.2 clipbox
256.736697 245.800216 m
258.768963 245.800216 l
258.768963 233.264157 l
256.736697 233.264157 l
cl
gsave
0.122 0.467 0.706 setrgbcolor
fill
grestore
stroke
grestore
gsave
357.1 121 57.6 183.2 clipbox
259.277029 245.800216 m
261.309296 245.800216 l
261.309296 278.332509 l
259.277029 278.332509 l
cl
gsave
0.122 0.467 0.706 setrgbcolor
fill
grestore
stroke
grestore
gsave
357.1 121 57.6 183.2 clipbox
261.817362 245.800216 m
263.849629 245.800216 l
263.849629 244.666478 l
261.817362 244.666478 l
cl
gsave
0.122 0.467 0.706 setrgbcolor
fill
grestore
stroke
grestore
gsave
357.1 121 57.6 183.2 clipbox
264.357695 245.800216 m
266.389962 245.800216 l
266.389962 254.472115 l
264.357695 254.472115 l
cl
gsave
0.122 0.467 0.706 setrgbcolor
fill
grestore
stroke
grestore
gsave
357.1 121 57.6 183.2 clipbox
266.898028 245.800216 m
268.930294 245.800216 l
268.930294 275.155277 l
266.898028 275.155277 l
cl
gsave
0.122 0.467 0.706 setrgbcolor
fill
grestore
stroke
grestore
gsave
357.1 121 57.6 183.2 clipbox
269.438361 245.800216 m
271.470627 245.800216 l
271.470627 233.530776 l
269.438361 233.530776 l
cl
gsave
0.122 0.467 0.706 setrgbcolor
fill
grestore
stroke
grestore
gsave
357.1 121 57.6 183.2 clipbox
271.978694 245.800216 m
274.01096 245.800216 l
274.01096 237.034417 l
271.978694 237.034417 l
cl
gsave
0.122 0.467 0.706 setrgbcolor
fill
grestore
stroke
grestore
gsave
357.1 121 57.6 183.2 clipbox
274.519027 245.800216 m
276.551293 245.800216 l
276.551293 261.084845 l
274.519027 261.084845 l
cl
gsave
0.122 0.467 0.706 setrgbcolor
fill
grestore
stroke
grestore
gsave
357.1 121 57.6 183.2 clipbox
277.05936 245.800216 m
279.091626 245.800216 l
279.091626 231.750492 l
277.05936 231.750492 l
cl
gsave
0.122 0.467 0.706 setrgbcolor
fill
grestore
stroke
grestore
gsave
357.1 121 57.6 183.2 clipbox
279.599693 245.800216 m
281.631959 245.800216 l
281.631959 249.235773 l
279.599693 249.235773 l
cl
gsave
0.122 0.467 0.706 setrgbcolor
fill
grestore
stroke
grestore
gsave
357.1 121 57.6 183.2 clipbox
282.140026 245.800216 m
284.172292 245.800216 l
284.172292 226.104394 l
282.140026 226.104394 l
cl
gsave
0.122 0.467 0.706 setrgbcolor
fill
grestore
stroke
grestore
gsave
357.1 121 57.6 183.2 clipbox
284.680359 245.800216 m
286.712625 245.800216 l
286.712625 213.97035 l
284.680359 213.97035 l
cl
gsave
0.122 0.467 0.706 setrgbcolor
fill
grestore
stroke
grestore
gsave
357.1 121 57.6 183.2 clipbox
287.220691 245.800216 m
289.252958 245.800216 l
289.252958 275.680988 l
287.220691 275.680988 l
cl
gsave
0.122 0.467 0.706 setrgbcolor
fill
grestore
stroke
grestore
gsave
357.1 121 57.6 183.2 clipbox
289.761024 245.800216 m
291.793291 245.800216 l
291.793291 221.43285 l
289.761024 221.43285 l
cl
gsave
0.122 0.467 0.706 setrgbcolor
fill
grestore
stroke
grestore
gsave
357.1 121 57.6 183.2 clipbox
292.301357 245.800216 m
294.333624 245.800216 l
294.333624 256.970113 l
292.301357 256.970113 l
cl
gsave
0.122 0.467 0.706 setrgbcolor
fill
grestore
stroke
grestore
gsave
357.1 121 57.6 183.2 clipbox
294.84169 245.800216 m
296.873956 245.800216 l
296.873956 243.54852 l
294.84169 243.54852 l
cl
gsave
0.122 0.467 0.706 setrgbcolor
fill
grestore
stroke
grestore
gsave
357.1 121 57.6 183.2 clipbox
297.382023 245.800216 m
299.414289 245.800216 l
299.414289 238.542862 l
297.382023 238.542862 l
cl
gsave
0.122 0.467 0.706 setrgbcolor
fill
grestore
stroke
grestore
gsave
357.1 121 57.6 183.2 clipbox
299.922356 245.800216 m
301.954622 245.800216 l
301.954622 241.806907 l
299.922356 241.806907 l
cl
gsave
0.122 0.467 0.706 setrgbcolor
fill
grestore
stroke
grestore
gsave
357.1 121 57.6 183.2 clipbox
302.462689 245.800216 m
304.494955 245.800216 l
304.494955 227.667581 l
302.462689 227.667581 l
cl
gsave
0.122 0.467 0.706 setrgbcolor
fill
grestore
stroke
grestore
gsave
357.1 121 57.6 183.2 clipbox
305.003022 245.800216 m
307.035288 245.800216 l
307.035288 251.062797 l
305.003022 251.062797 l
cl
gsave
0.122 0.467 0.706 setrgbcolor
fill
grestore
stroke
grestore
gsave
357.1 121 57.6 183.2 clipbox
307.543355 245.800216 m
309.575621 245.800216 l
309.575621 249.827553 l
307.543355 249.827553 l
cl
gsave
0.122 0.467 0.706 setrgbcolor
fill
grestore
stroke
grestore
gsave
357.1 121 57.6 183.2 clipbox
310.083688 245.800216 m
312.115954 245.800216 l
312.115954 231.787551 l
310.083688 231.787551 l
cl
gsave
0.122 0.467 0.706 setrgbcolor
fill
grestore
stroke
grestore
gsave
357.1 121 57.6 183.2 clipbox
312.62402 245.800216 m
314.656287 245.800216 l
314.656287 238.697186 l
312.62402 238.697186 l
cl
gsave
0.122 0.467 0.706 setrgbcolor
fill
grestore
stroke
grestore
gsave
357.1 121 57.6 183.2 clipbox
315.164353 245.800216 m
317.19662 245.800216 l
317.19662 254.191177 l
315.164353 254.191177 l
cl
gsave
0.122 0.467 0.706 setrgbcolor
fill
grestore
stroke
grestore
gsave
357.1 121 57.6 183.2 clipbox
317.704686 245.800216 m
319.736953 245.800216 l
319.736953 242.258989 l
317.704686 242.258989 l
cl
gsave
0.122 0.467 0.706 setrgbcolor
fill
grestore
stroke
grestore
gsave
357.1 121 57.6 183.2 clipbox
320.245019 245.800216 m
322.277286 245.800216 l
322.277286 283.960913 l
320.245019 283.960913 l
cl
gsave
0.122 0.467 0.706 setrgbcolor
fill
grestore
stroke
grestore
gsave
357.1 121 57.6 183.2 clipbox
322.785352 245.800216 m
324.817618 245.800216 l
324.817618 255.645141 l
322.785352 255.645141 l
cl
gsave
0.122 0.467 0.706 setrgbcolor
fill
grestore
stroke
grestore
gsave
357.1 121 57.6 183.2 clipbox
325.325685 245.800216 m
327.357951 245.800216 l
327.357951 253.048692 l
325.325685 253.048692 l
cl
gsave
0.122 0.467 0.706 setrgbcolor
fill
grestore
stroke
grestore
gsave
357.1 121 57.6 183.2 clipbox
327.866018 245.800216 m
329.898284 245.800216 l
329.898284 246.088937 l
327.866018 246.088937 l
cl
gsave
0.122 0.467 0.706 setrgbcolor
fill
grestore
stroke
grestore
gsave
357.1 121 57.6 183.2 clipbox
330.406351 245.800216 m
332.438617 245.800216 l
332.438617 287.033678 l
330.406351 287.033678 l
cl
gsave
0.122 0.467 0.706 setrgbcolor
fill
grestore
stroke
grestore
gsave
357.1 121 57.6 183.2 clipbox
332.946684 245.800216 m
334.97895 245.800216 l
334.97895 274.968247 l
332.946684 274.968247 l
cl
gsave
0.122 0.467 0.706 setrgbcolor
fill
grestore
stroke
grestore
gsave
357.1 121 57.6 183.2 clipbox
335.487017 245.800216 m
337.519283 245.800216 l
337.519283 257.361939 l
335.487017 257.361939 l
cl
gsave
0.122 0.467 0.706 setrgbcolor
fill
grestore
stroke
grestore
gsave
357.1 121 57.6 183.2 clipbox
338.02735 245.800216 m
340.059616 245.800216 l
340.059616 230.156793 l
338.02735 230.156793 l
cl
gsave
0.122 0.467 0.706 setrgbcolor
fill
grestore
stroke
grestore
gsave
357.1 121 57.6 183.2 clipbox
340.567682 245.800216 m
342.599949 245.800216 l
342.599949 249.729346 l
340.567682 249.729346 l
cl
gsave
0.122 0.467 0.706 setrgbcolor
fill
grestore
stroke
grestore
gsave
357.1 121 57.6 183.2 clipbox
343.108015 245.800216 m
345.140282 245.800216 l
345.140282 247.230757 l
343.108015 247.230757 l
cl
gsave
0.122 0.467 0.706 setrgbcolor
fill
grestore
stroke
grestore
gsave
357.1 121 57.6 183.2 clipbox
345.648348 245.800216 m
347.680615 245.800216 l
347.680615 244.685905 l
345.648348 244.685905 l
cl
gsave
0.122 0.467 0.706 setrgbcolor
fill
grestore
stroke
grestore
gsave
357.1 121 57.6 183.2 clipbox
348.188681 245.800216 m
350.220948 245.800216 l
350.220948 251.901913 l
348.188681 251.901913 l
cl
gsave
0.122 0.467 0.706 setrgbcolor
fill
grestore
stroke
grestore
gsave
357.1 121 57.6 183.2 clipbox
350.729014 245.800216 m
352.76128 245.800216 l
352.76128 218.669437 l
350.729014 218.669437 l
cl
gsave
0.122 0.467 0.706 setrgbcolor
fill
grestore
stroke
grestore
gsave
357.1 121 57.6 183.2 clipbox
353.269347 245.800216 m
355.301613 245.800216 l
355.301613 234.417408 l
353.269347 234.417408 l
cl
gsave
0.122 0.467 0.706 setrgbcolor
fill
grestore
stroke
grestore
gsave
357.1 121 57.6 183.2 clipbox
355.80968 245.800216 m
357.841946 245.800216 l
357.841946 284.319737 l
355.80968 284.319737 l
cl
gsave
0.122 0.467 0.706 setrgbcolor
fill
grestore
stroke
grestore
gsave
357.1 121 57.6 183.2 clipbox
358.350013 245.800216 m
360.382279 245.800216 l
360.382279 211.101995 l
358.350013 211.101995 l
cl
gsave
0.122 0.467 0.706 setrgbcolor
fill
grestore
stroke
grestore
gsave
357.1 121 57.6 183.2 clipbox
360.890346 245.800216 m
362.922612 245.800216 l
362.922612 253.759885 l
360.890346 253.759885 l
cl
gsave
0.122 0.467 0.706 setrgbcolor
fill
grestore
stroke
grestore
gsave
357.1 121 57.6 183.2 clipbox
363.430679 245.800216 m
365.462945 245.800216 l
365.462945 229.428851 l
363.430679 229.428851 l
cl
gsave
0.122 0.467 0.706 setrgbcolor
fill
grestore
stroke
grestore
gsave
357.1 121 57.6 183.2 clipbox
365.971012 245.800216 m
368.003278 245.800216 l
368.003278 235.503361 l
365.971012 235.503361 l
cl
gsave
0.122 0.467 0.706 setrgbcolor
fill
grestore
stroke
grestore
gsave
357.1 121 57.6 183.2 clipbox
368.511344 245.800216 m
370.543611 245.800216 l
370.543611 211.743844 l
368.511344 211.743844 l
cl
gsave
0.122 0.467 0.706 setrgbcolor
fill
grestore
stroke
grestore
gsave
357.1 121 57.6 183.2 clipbox
371.051677 245.800216 m
373.083944 245.800216 l
373.083944 256.050964 l
371.051677 256.050964 l
cl
gsave
0.122 0.467 0.706 setrgbcolor
fill
grestore
stroke
grestore
gsave
357.1 121 57.6 183.2 clipbox
373.59201 245.800216 m
375.624277 245.800216 l
375.624277 239.851748 l
373.59201 239.851748 l
cl
gsave
0.122 0.467 0.706 setrgbcolor
fill
grestore
stroke
grestore
gsave
357.1 121 57.6 183.2 clipbox
376.132343 245.800216 m
378.164609 245.800216 l
378.164609 234.685568 l
376.132343 234.685568 l
cl
gsave
0.122 0.467 0.706 setrgbcolor
fill
grestore
stroke
grestore
gsave
357.1 121 57.6 183.2 clipbox
378.672676 245.800216 m
380.704942 245.800216 l
380.704942 260.856884 l
378.672676 260.856884 l
cl
gsave
0.122 0.467 0.706 setrgbcolor
fill
grestore
stroke
grestore
gsave
357.1 121 57.6 183.2 clipbox
381.213009 245.800216 m
383.245275 245.800216 l
383.245275 251.155891 l
381.213009 251.155891 l
cl
gsave
0.122 0.467 0.706 setrgbcolor
fill
grestore
stroke
grestore
gsave
357.1 121 57.6 183.2 clipbox
383.753342 245.800216 m
385.785608 245.800216 l
385.785608 253.637976 l
383.753342 253.637976 l
cl
gsave
0.122 0.467 0.706 setrgbcolor
fill
grestore
stroke
grestore
gsave
357.1 121 57.6 183.2 clipbox
386.293675 245.800216 m
388.325941 245.800216 l
388.325941 239.951268 l
386.293675 239.951268 l
cl
gsave
0.122 0.467 0.706 setrgbcolor
fill
grestore
stroke
grestore
gsave
357.1 121 57.6 183.2 clipbox
388.834008 245.800216 m
390.866274 245.800216 l
390.866274 280.391483 l
388.834008 280.391483 l
cl
gsave
0.122 0.467 0.706 setrgbcolor
fill
grestore
stroke
grestore
gsave
357.1 121 57.6 183.2 clipbox
391.374341 245.800216 m
393.406607 245.800216 l
393.406607 234.248478 l
391.374341 234.248478 l
cl
gsave
0.122 0.467 0.706 setrgbcolor
fill
grestore
stroke
grestore
gsave
357.1 121 57.6 183.2 clipbox
393.914673 245.800216 m
395.94694 245.800216 l
395.94694 245.066292 l
393.914673 245.066292 l
cl
gsave
0.122 0.467 0.706 setrgbcolor
fill
grestore
stroke
grestore
gsave
357.1 121 57.6 183.2 clipbox
396.455006 245.800216 m
398.487273 245.800216 l
398.487273 252.69154 l
396.455006 252.69154 l
cl
gsave
0.122 0.467 0.706 setrgbcolor
fill
grestore
stroke
grestore
0.800 setlinewidth
2 setlinecap
0.150 setgray
gsave
57.6 183.168 m
57.6 304.128 l
stroke
grestore
gsave
414.72 183.168 m
414.72 304.128 l
stroke
grestore
gsave
57.6 183.168 m
414.72 183.168 l
stroke
grestore
gsave
57.6 304.128 m
414.72 304.128 l
stroke
grestore
gsave
57.6 38.016 m
414.72 38.016 l
414.72 158.976 l
57.6 158.976 l
cl
1.000 setgray
fill
grestore
gsave
71.669173 23.422250 translate
0.000000 rotate
0.000000 0.000000 m /zero glyphshow
grestore
gsave
119.296144 23.422250 translate
0.000000 rotate
0.000000 0.000000 m /two glyphshow
6.362305 0.000000 m /zero glyphshow
grestore
gsave
170.102802 23.422250 translate
0.000000 rotate
0.000000 0.000000 m /four glyphshow
6.362305 0.000000 m /zero glyphshow
grestore
gsave
220.909460 23.422250 translate
0.000000 rotate
0.000000 0.000000 m /six glyphshow
6.362305 0.000000 m /zero glyphshow
grestore
gsave
271.716118 23.422250 translate
0.000000 rotate
0.000000 0.000000 m /eight glyphshow
6.362305 0.000000 m /zero glyphshow
grestore
gsave
319.343089 23.422250 translate
0.000000 rotate
0.000000 0.000000 m /one glyphshow
6.362305 0.000000 m /zero glyphshow
12.724609 0.000000 m /zero glyphshow
grestore
gsave
370.149747 23.422250 translate
0.000000 rotate
0.000000 0.000000 m /one glyphshow
6.362305 0.000000 m /two glyphshow
12.724609 0.000000 m /zero glyphshow
grestore
gsave
13.600000 53.648711 translate
0.000000 rotate
0.000000 0.000000 m /minus glyphshow
8.378906 0.000000 m /zero glyphshow
14.741211 0.000000 m /period glyphshow
17.919922 0.000000 m /zero glyphshow
24.282227 0.000000 m /one glyphshow
30.644531 0.000000 m /zero glyphshow
grestore
gsave
13.600000 74.126502 translate
0.000000 rotate
0.000000 0.000000 m /minus glyphshow
8.378906 0.000000 m /zero glyphshow
14.741211 0.000000 m /period glyphshow
17.919922 0.000000 m /zero glyphshow
24.282227 0.000000 m /zero glyphshow
30.644531 0.000000 m /five glyphshow
grestore
gsave
21.975000 94.604294 translate
0.000000 rotate
0.000000 0.000000 m /zero glyphshow
6.362305 0.000000 m /period glyphshow
9.541016 0.000000 m /zero glyphshow
15.903320 0.000000 m /zero glyphshow
22.265625 0.000000 m /zero glyphshow
grestore
gsave
21.975000 115.082086 translate
0.000000 rotate
0.000000 0.000000 m /zero glyphshow
6.362305 0.000000 m /period glyphshow
9.541016 0.000000 m /zero glyphshow
15.903320 0.000000 m /zero glyphshow
22.265625 0.000000 m /five glyphshow
grestore
gsave
21.975000 135.559878 translate
0.000000 rotate
0.000000 0.000000 m /zero glyphshow
6.362305 0.000000 m /period glyphshow
9.541016 0.000000 m /zero glyphshow
15.903320 0.000000 m /one glyphshow
22.265625 0.000000 m /zero glyphshow
grestore
1.000 setlinewidth
0 setlinecap
1.000 setgray
gsave
357.1 121 57.6 38.02 clipbox
73.832727 98.401169 m
75.864994 98.401169 l
75.864994 66.538263 l
73.832727 66.538263 l
cl
gsave
0.122 0.467 0.706 setrgbcolor
fill
grestore
stroke
grestore
gsave
357.1 121 57.6 38.02 clipbox
76.37306 98.401169 m
78.405327 98.401169 l
78.405327 98.401169 l
76.37306 98.401169 l
cl
gsave
0.122 0.467 0.706 setrgbcolor
fill
grestore
stroke
grestore
gsave
357.1 121 57.6 38.02 clipbox
78.913393 98.401169 m
80.945659 98.401169 l
80.945659 98.401169 l
78.913393 98.401169 l
cl
gsave
0.122 0.467 0.706 setrgbcolor
fill
grestore
stroke
grestore
gsave
357.1 121 57.6 38.02 clipbox
81.453726 98.401169 m
83.485992 98.401169 l
83.485992 139.783853 l
81.453726 139.783853 l
cl
gsave
0.122 0.467 0.706 setrgbcolor
fill
grestore
stroke
grestore
gsave
357.1 121 57.6 38.02 clipbox
83.994059 98.401169 m
86.026325 98.401169 l
86.026325 98.401169 l
83.994059 98.401169 l
cl
gsave
0.122 0.467 0.706 setrgbcolor
fill
grestore
stroke
grestore
gsave
357.1 121 57.6 38.02 clipbox
86.534392 98.401169 m
88.566658 98.401169 l
88.566658 98.401169 l
86.534392 98.401169 l
cl
gsave
0.122 0.467 0.706 setrgbcolor
fill
grestore
stroke
grestore
gsave
357.1 121 57.6 38.02 clipbox
89.074725 98.401169 m
91.106991 98.401169 l
91.106991 148.683879 l
89.074725 148.683879 l
cl
gsave
0.122 0.467 0.706 setrgbcolor
fill
grestore
stroke
grestore
gsave
357.1 121 57.6 38.02 clipbox
91.615058 98.401169 m
93.647324 98.401169 l
93.647324 98.401169 l
91.615058 98.401169 l
cl
gsave
0.122 0.467 0.706 setrgbcolor
fill
grestore
stroke
grestore
gsave
357.1 121 57.6 38.02 clipbox
94.155391 98.401169 m
96.187657 98.401169 l
96.187657 98.401169 l
94.155391 98.401169 l
cl
gsave
0.122 0.467 0.706 setrgbcolor
fill
grestore
stroke
grestore
gsave
357.1 121 57.6 38.02 clipbox
96.695723 98.401169 m
98.72799 98.401169 l
98.72799 98.401169 l
96.695723 98.401169 l
cl
gsave
0.122 0.467 0.706 setrgbcolor
fill
grestore
stroke
grestore
gsave
357.1 121 57.6 38.02 clipbox
99.236056 98.401169 m
101.268323 98.401169 l
101.268323 98.401169 l
99.236056 98.401169 l
cl
gsave
0.122 0.467 0.706 setrgbcolor
fill
grestore
stroke
grestore
gsave
357.1 121 57.6 38.02 clipbox
101.776389 98.401169 m
103.808656 98.401169 l
103.808656 98.401169 l
101.776389 98.401169 l
cl
gsave
0.122 0.467 0.706 setrgbcolor
fill
grestore
stroke
grestore
gsave
357.1 121 57.6 38.02 clipbox
104.316722 98.401169 m
106.348988 98.401169 l
106.348988 98.401169 l
104.316722 98.401169 l
cl
gsave
0.122 0.467 0.706 setrgbcolor
fill
grestore
stroke
grestore
gsave
357.1 121 57.6 38.02 clipbox
106.857055 98.401169 m
108.889321 98.401169 l
108.889321 98.401169 l
106.857055 98.401169 l
cl
gsave
0.122 0.467 0.706 setrgbcolor
fill
grestore
stroke
grestore
gsave
357.1 121 57.6 38.02 clipbox
109.397388 98.401169 m
111.429654 98.401169 l
111.429654 98.401169 l
109.397388 98.401169 l
cl
gsave
0.122 0.467 0.706 setrgbcolor
fill
grestore
stroke
grestore
gsave
357.1 121 57.6 38.02 clipbox
111.937721 98.401169 m
113.969987 98.401169 l
113.969987 98.401169 l
111.937721 98.401169 l
cl
gsave
0.122 0.467 0.706 setrgbcolor
fill
grestore
stroke
grestore
gsave
357.1 121 57.6 38.02 clipbox
114.478054 98.401169 m
116.51032 98.401169 l
116.51032 98.401169 l
114.478054 98.401169 l
cl
gsave
0.122 0.467 0.706 setrgbcolor
fill
grestore
stroke
grestore
gsave
357.1 121 57.6 38.02 clipbox
117.018387 98.401169 m
119.050653 98.401169 l
119.050653 98.401169 l
117.018387 98.401169 l
cl
gsave
0.122 0.467 0.706 setrgbcolor
fill
grestore
stroke
grestore
gsave
357.1 121 57.6 38.02 clipbox
119.55872 98.401169 m
121.590986 98.401169 l
121.590986 98.401169 l
119.55872 98.401169 l
cl
gsave
0.122 0.467 0.706 setrgbcolor
fill
grestore
stroke
grestore
gsave
357.1 121 57.6 38.02 clipbox
122.099052 98.401169 m
124.131319 98.401169 l
124.131319 139.455862 l
122.099052 139.455862 l
cl
gsave
0.122 0.467 0.706 setrgbcolor
fill
grestore
stroke
grestore
gsave
357.1 121 57.6 38.02 clipbox
124.639385 98.401169 m
126.671652 98.401169 l
126.671652 58.266558 l
124.639385 58.266558 l
cl
gsave
0.122 0.467 0.706 setrgbcolor
fill
grestore
stroke
grestore
gsave
357.1 121 57.6 38.02 clipbox
127.179718 98.401169 m
129.211985 98.401169 l
129.211985 145.380234 l
127.179718 145.380234 l
cl
gsave
0.122 0.467 0.706 setrgbcolor
fill
grestore
stroke
grestore
gsave
357.1 121 57.6 38.02 clipbox
129.720051 98.401169 m
131.752318 98.401169 l
131.752318 98.401169 l
129.720051 98.401169 l
cl
gsave
0.122 0.467 0.706 setrgbcolor
fill
grestore
stroke
grestore
gsave
357.1 121 57.6 38.02 clipbox
132.260384 98.401169 m
134.29265 98.401169 l
134.29265 98.401169 l
132.260384 98.401169 l
cl
gsave
0.122 0.467 0.706 setrgbcolor
fill
grestore
stroke
grestore
gsave
357.1 121 57.6 38.02 clipbox
134.800717 98.401169 m
136.832983 98.401169 l
136.832983 59.550992 l
134.800717 59.550992 l
cl
gsave
0.122 0.467 0.706 setrgbcolor
fill
grestore
stroke
grestore
gsave
357.1 121 57.6 38.02 clipbox
137.34105 98.401169 m
139.373316 98.401169 l
139.373316 98.401169 l
137.34105 98.401169 l
cl
gsave
0.122 0.467 0.706 setrgbcolor
fill
grestore
stroke
grestore
gsave
357.1 121 57.6 38.02 clipbox
139.881383 98.401169 m
141.913649 98.401169 l
141.913649 98.401169 l
139.881383 98.401169 l
cl
gsave
0.122 0.467 0.706 setrgbcolor
fill
grestore
stroke
grestore
gsave
357.1 121 57.6 38.02 clipbox
142.421716 98.401169 m
144.453982 98.401169 l
144.453982 138.491771 l
142.421716 138.491771 l
cl
gsave
0.122 0.467 0.706 setrgbcolor
fill
grestore
stroke
grestore
gsave
357.1 121 57.6 38.02 clipbox
144.962049 98.401169 m
146.994315 98.401169 l
146.994315 57.463636 l
144.962049 57.463636 l
cl
gsave
0.122 0.467 0.706 setrgbcolor
fill
grestore
stroke
grestore
gsave
357.1 121 57.6 38.02 clipbox
147.502382 98.401169 m
149.534648 98.401169 l
149.534648 98.401169 l
147.502382 98.401169 l
cl
gsave
0.122 0.467 0.706 setrgbcolor
fill
grestore
stroke
grestore
gsave
357.1 121 57.6 38.02 clipbox
150.042714 98.401169 m
152.074981 98.401169 l
152.074981 98.401169 l
150.042714 98.401169 l
cl
gsave
0.122 0.467 0.706 setrgbcolor
fill
grestore
stroke
grestore
gsave
357.1 121 57.6 38.02 clipbox
152.583047 98.401169 m
154.615314 98.401169 l
154.615314 43.514182 l
152.583047 43.514182 l
cl
gsave
0.122 0.467 0.706 setrgbcolor
fill
grestore
stroke
grestore
gsave
357.1 121 57.6 38.02 clipbox
155.12338 98.401169 m
157.155647 98.401169 l
157.155647 98.401169 l
155.12338 98.401169 l
cl
gsave
0.122 0.467 0.706 setrgbcolor
fill
grestore
stroke
grestore
gsave
357.1 121 57.6 38.02 clipbox
157.663713 98.401169 m
159.69598 98.401169 l
159.69598 151.790821 l
157.663713 151.790821 l
cl
gsave
0.122 0.467 0.706 setrgbcolor
fill
grestore
stroke
grestore
gsave
357.1 121 57.6 38.02 clipbox
160.204046 98.401169 m
162.236312 98.401169 l
162.236312 98.401169 l
160.204046 98.401169 l
cl
gsave
0.122 0.467 0.706 setrgbcolor
fill
grestore
stroke
grestore
gsave
357.1 121 57.6 38.02 clipbox
162.744379 98.401169 m
164.776645 98.401169 l
164.776645 98.401169 l
162.744379 98.401169 l
cl
gsave
0.122 0.467 0.706 setrgbcolor
fill
grestore
stroke
grestore
gsave
357.1 121 57.6 38.02 clipbox
165.284712 98.401169 m
167.316978 98.401169 l
167.316978 98.401169 l
165.284712 98.401169 l
cl
gsave
0.122 0.467 0.706 setrgbcolor
fill
grestore
stroke
grestore
gsave
357.1 121 57.6 38.02 clipbox
167.825045 98.401169 m
169.857311 98.401169 l
169.857311 98.401169 l
167.825045 98.401169 l
cl
gsave
0.122 0.467 0.706 setrgbcolor
fill
grestore
stroke
grestore
gsave
357.1 121 57.6 38.02 clipbox
170.365378 98.401169 m
172.397644 98.401169 l
172.397644 98.401169 l
170.365378 98.401169 l
cl
gsave
0.122 0.467 0.706 setrgbcolor
fill
grestore
stroke
grestore
gsave
357.1 121 57.6 38.02 clipbox
172.905711 98.401169 m
174.937977 98.401169 l
174.937977 140.279706 l
172.905711 140.279706 l
cl
gsave
0.122 0.467 0.706 setrgbcolor
fill
grestore
stroke
grestore
gsave
357.1 121 57.6 38.02 clipbox
175.446044 98.401169 m
177.47831 98.401169 l
177.47831 98.401169 l
175.446044 98.401169 l
cl
gsave
0.122 0.467 0.706 setrgbcolor
fill
grestore
stroke
grestore
gsave
357.1 121 57.6 38.02 clipbox
177.986376 98.401169 m
180.018643 98.401169 l
180.018643 98.401169 l
177.986376 98.401169 l
cl
gsave
0.122 0.467 0.706 setrgbcolor
fill
grestore
stroke
grestore
gsave
357.1 121 57.6 38.02 clipbox
180.526709 98.401169 m
182.558976 98.401169 l
182.558976 98.401169 l
180.526709 98.401169 l
cl
gsave
0.122 0.467 0.706 setrgbcolor
fill
grestore
stroke
grestore
gsave
357.1 121 57.6 38.02 clipbox
183.067042 98.401169 m
185.099309 98.401169 l
185.099309 59.009246 l
183.067042 59.009246 l
cl
gsave
0.122 0.467 0.706 setrgbcolor
fill
grestore
stroke
grestore
gsave
357.1 121 57.6 38.02 clipbox
185.607375 98.401169 m
187.639641 98.401169 l
187.639641 98.401169 l
185.607375 98.401169 l
cl
gsave
0.122 0.467 0.706 setrgbcolor
fill
grestore
stroke
grestore
gsave
357.1 121 57.6 38.02 clipbox
188.147708 98.401169 m
190.179974 98.401169 l
190.179974 98.401169 l
188.147708 98.401169 l
cl
gsave
0.122 0.467 0.706 setrgbcolor
fill
grestore
stroke
grestore
gsave
357.1 121 57.6 38.02 clipbox
190.688041 98.401169 m
192.720307 98.401169 l
192.720307 98.401169 l
190.688041 98.401169 l
cl
gsave
0.122 0.467 0.706 setrgbcolor
fill
grestore
stroke
grestore
gsave
357.1 121 57.6 38.02 clipbox
193.228374 98.401169 m
195.26064 98.401169 l
195.26064 98.401169 l
193.228374 98.401169 l
cl
gsave
0.122 0.467 0.706 setrgbcolor
fill
grestore
stroke
grestore
gsave
357.1 121 57.6 38.02 clipbox
195.768707 98.401169 m
197.800973 98.401169 l
197.800973 150.358648 l
195.768707 150.358648 l
cl
gsave
0.122 0.467 0.706 setrgbcolor
fill
grestore
stroke
grestore
gsave
357.1 121 57.6 38.02 clipbox
198.30904 98.401169 m
200.341306 98.401169 l
200.341306 98.401169 l
198.30904 98.401169 l
cl
gsave
0.122 0.467 0.706 setrgbcolor
fill
grestore
stroke
grestore
gsave
357.1 121 57.6 38.02 clipbox
200.849373 98.401169 m
202.881639 98.401169 l
202.881639 98.401169 l
200.849373 98.401169 l
cl
gsave
0.122 0.467 0.706 setrgbcolor
fill
grestore
stroke
grestore
gsave
357.1 121 57.6 38.02 clipbox
203.389706 98.401169 m
205.421972 98.401169 l
205.421972 153.477818 l
203.389706 153.477818 l
cl
gsave
0.122 0.467 0.706 setrgbcolor
fill
grestore
stroke
grestore
gsave
357.1 121 57.6 38.02 clipbox
205.930038 98.401169 m
207.962305 98.401169 l
207.962305 50.988176 l
205.930038 50.988176 l
cl
gsave
0.122 0.467 0.706 setrgbcolor
fill
grestore
stroke
grestore
gsave
357.1 121 57.6 38.02 clipbox
208.470371 98.401169 m
210.502638 98.401169 l
210.502638 98.401169 l
208.470371 98.401169 l
cl
gsave
0.122 0.467 0.706 setrgbcolor
fill
grestore
stroke
grestore
gsave
357.1 121 57.6 38.02 clipbox
211.010704 98.401169 m
213.042971 98.401169 l
213.042971 98.401169 l
211.010704 98.401169 l
cl
gsave
0.122 0.467 0.706 setrgbcolor
fill
grestore
stroke
grestore
gsave
357.1 121 57.6 38.02 clipbox
213.551037 98.401169 m
215.583303 98.401169 l
215.583303 61.442905 l
213.551037 61.442905 l
cl
gsave
0.122 0.467 0.706 setrgbcolor
fill
grestore
stroke
grestore
gsave
357.1 121 57.6 38.02 clipbox
216.09137 98.401169 m
218.123636 98.401169 l
218.123636 59.172985 l
216.09137 59.172985 l
cl
gsave
0.122 0.467 0.706 setrgbcolor
fill
grestore
stroke
grestore
gsave
357.1 121 57.6 38.02 clipbox
218.631703 98.401169 m
220.663969 98.401169 l
220.663969 98.401169 l
218.631703 98.401169 l
cl
gsave
0.122 0.467 0.706 setrgbcolor
fill
grestore
stroke
grestore
gsave
357.1 121 57.6 38.02 clipbox
221.172036 98.401169 m
223.204302 98.401169 l
223.204302 98.401169 l
221.172036 98.401169 l
cl
gsave
0.122 0.467 0.706 setrgbcolor
fill
grestore
stroke
grestore
gsave
357.1 121 57.6 38.02 clipbox
223.712369 98.401169 m
225.744635 98.401169 l
225.744635 98.401169 l
223.712369 98.401169 l
cl
gsave
0.122 0.467 0.706 setrgbcolor
fill
grestore
stroke
grestore
gsave
357.1 121 57.6 38.02 clipbox
226.252702 98.401169 m
228.284968 98.401169 l
228.284968 62.270189 l
226.252702 62.270189 l
cl
gsave
0.122 0.467 0.706 setrgbcolor
fill
grestore
stroke
grestore
gsave
357.1 121 57.6 38.02 clipbox
228.793035 98.401169 m
230.825301 98.401169 l
230.825301 58.496304 l
228.793035 58.496304 l
cl
gsave
0.122 0.467 0.706 setrgbcolor
fill
grestore
stroke
grestore
gsave
357.1 121 57.6 38.02 clipbox
231.333367 98.401169 m
233.365634 98.401169 l
233.365634 98.401169 l
231.333367 98.401169 l
cl
gsave
0.122 0.467 0.706 setrgbcolor
fill
grestore
stroke
grestore
gsave
357.1 121 57.6 38.02 clipbox
233.8737 98.401169 m
235.905967 98.401169 l
235.905967 98.401169 l
233.8737 98.401169 l
cl
gsave
0.122 0.467 0.706 setrgbcolor
fill
grestore
stroke
grestore
gsave
357.1 121 57.6 38.02 clipbox
236.414033 98.401169 m
238.4463 98.401169 l
238.4463 138.844108 l
236.414033 138.844108 l
cl
gsave
0.122 0.467 0.706 setrgbcolor
fill
grestore
stroke
grestore
gsave
357.1 121 57.6 38.02 clipbox
238.954366 98.401169 m
240.986633 98.401169 l
240.986633 98.401169 l
238.954366 98.401169 l
cl
gsave
0.122 0.467 0.706 setrgbcolor
fill
grestore
stroke
grestore
gsave
357.1 121 57.6 38.02 clipbox
241.494699 98.401169 m
243.526965 98.401169 l
243.526965 98.401169 l
241.494699 98.401169 l
cl
gsave
0.122 0.467 0.706 setrgbcolor
fill
grestore
stroke
grestore
gsave
357.1 121 57.6 38.02 clipbox
244.035032 98.401169 m
246.067298 98.401169 l
246.067298 98.401169 l
244.035032 98.401169 l
cl
gsave
0.122 0.467 0.706 setrgbcolor
fill
grestore
stroke
grestore
gsave
357.1 121 57.6 38.02 clipbox
246.575365 98.401169 m
248.607631 98.401169 l
248.607631 98.401169 l
246.575365 98.401169 l
cl
gsave
0.122 0.467 0.706 setrgbcolor
fill
grestore
stroke
grestore
gsave
357.1 121 57.6 38.02 clipbox
249.115698 98.401169 m
251.147964 98.401169 l
251.147964 98.401169 l
249.115698 98.401169 l
cl
gsave
0.122 0.467 0.706 setrgbcolor
fill
grestore
stroke
grestore
gsave
357.1 121 57.6 38.02 clipbox
251.656031 98.401169 m
253.688297 98.401169 l
253.688297 98.401169 l
251.656031 98.401169 l
cl
gsave
0.122 0.467 0.706 setrgbcolor
fill
grestore
stroke
grestore
gsave
357.1 121 57.6 38.02 clipbox
254.196364 98.401169 m
256.22863 98.401169 l
256.22863 98.401169 l
254.196364 98.401169 l
cl
gsave
0.122 0.467 0.706 setrgbcolor
fill
grestore
stroke
grestore
gsave
357.1 121 57.6 38.02 clipbox
256.736697 98.401169 m
258.768963 98.401169 l
258.768963 98.401169 l
256.736697 98.401169 l
cl
gsave
0.122 0.467 0.706 setrgbcolor
fill
grestore
stroke
grestore
gsave
357.1 121 57.6 38.02 clipbox
259.277029 98.401169 m
261.309296 98.401169 l
261.309296 140.410471 l
259.277029 140.410471 l
cl
gsave
0.122 0.467 0.706 setrgbcolor
fill
grestore
stroke
grestore
gsave
357.1 121 57.6 38.02 clipbox
261.817362 98.401169 m
263.849629 98.401169 l
263.849629 98.401169 l
261.817362 98.401169 l
cl
gsave
0.122 0.467 0.706 setrgbcolor
fill
grestore
stroke
grestore
gsave
357.1 121 57.6 38.02 clipbox
264.357695 98.401169 m
266.389962 98.401169 l
266.389962 98.401169 l
264.357695 98.401169 l
cl
gsave
0.122 0.467 0.706 setrgbcolor
fill
grestore
stroke
grestore
gsave
357.1 121 57.6 38.02 clipbox
266.898028 98.401169 m
268.930294 98.401169 l
268.930294 98.401169 l
266.898028 98.401169 l
cl
gsave
0.122 0.467 0.706 setrgbcolor
fill
grestore
stroke
grestore
gsave
357.1 121 57.6 38.02 clipbox
269.438361 98.401169 m
271.470627 98.401169 l
271.470627 98.401169 l
269.438361 98.401169 l
cl
gsave
0.122 0.467 0.706 setrgbcolor
fill
grestore
stroke
grestore
gsave
357.1 121 57.6 38.02 clipbox
271.978694 98.401169 m
274.01096 98.401169 l
274.01096 98.401169 l
271.978694 98.401169 l
cl
gsave
0.122 0.467 0.706 setrgbcolor
fill
grestore
stroke
grestore
gsave
357.1 121 57.6 38.02 clipbox
274.519027 98.401169 m
276.551293 98.401169 l
276.551293 98.401169 l
274.519027 98.401169 l
cl
gsave
0.122 0.467 0.706 setrgbcolor
fill
grestore
stroke
grestore
gsave
357.1 121 57.6 38.02 clipbox
277.05936 98.401169 m
279.091626 98.401169 l
279.091626 98.401169 l
277.05936 98.401169 l
cl
gsave
0.122 0.467 0.706 setrgbcolor
fill
grestore
stroke
grestore
gsave
357.1 121 57.6 38.02 clipbox
279.599693 98.401169 m
281.631959 98.401169 l
281.631959 98.401169 l
279.599693 98.401169 l
cl
gsave
0.122 0.467 0.706 setrgbcolor
fill
grestore
stroke
grestore
gsave
357.1 121 57.6 38.02 clipbox
282.140026 98.401169 m
284.172292 98.401169 l
284.172292 98.401169 l
282.140026 98.401169 l
cl
gsave
0.122 0.467 0.706 setrgbcolor
fill
grestore
stroke
grestore
gsave
357.1 121 57.6 38.02 clipbox
284.680359 98.401169 m
286.712625 98.401169 l
286.712625 59.804936 l
284.680359 59.804936 l
cl
gsave
0.122 0.467 0.706 setrgbcolor
fill
grestore
stroke
grestore
gsave
357.1 121 57.6 38.02 clipbox
287.220691 98.401169 m
289.252958 98.401169 l
289.252958 138.703426 l
287.220691 138.703426 l
cl
gsave
0.122 0.467 0.706 setrgbcolor
fill
grestore
stroke
grestore
gsave
357.1 121 57.6 38.02 clipbox
289.761024 98.401169 m
291.793291 98.401169 l
291.793291 64.60927 l
289.761024 64.60927 l
cl
gsave
0.122 0.467 0.706 setrgbcolor
fill
grestore
stroke
grestore
gsave
357.1 121 57.6 38.02 clipbox
292.301357 98.401169 m
294.333624 98.401169 l
294.333624 98.401169 l
292.301357 98.401169 l
cl
gsave
0.122 0.467 0.706 setrgbcolor
fill
grestore
stroke
grestore
gsave
357.1 121 57.6 38.02 clipbox
294.84169 98.401169 m
296.873956 98.401169 l
296.873956 98.401169 l
294.84169 98.401169 l
cl
gsave
0.122 0.467 0.706 setrgbcolor
fill
grestore
stroke
grestore
gsave
357.1 121 57.6 38.02 clipbox
297.382023 98.401169 m
299.414289 98.401169 l
299.414289 98.401169 l
297.382023 98.401169 l
cl
gsave
0.122 0.467 0.706 setrgbcolor
fill
grestore
stroke
grestore
gsave
357.1 121 57.6 38.02 clipbox
299.922356 98.401169 m
301.954622 98.401169 l
301.954622 98.401169 l
299.922356 98.401169 l
cl
gsave
0.122 0.467 0.706 setrgbcolor
fill
grestore
stroke
grestore
gsave
357.1 121 57.6 38.02 clipbox
302.462689 98.401169 m
304.494955 98.401169 l
304.494955 98.401169 l
302.462689 98.401169 l
cl
gsave
0.122 0.467 0.706 setrgbcolor
fill
grestore
stroke
grestore
gsave
357.1 121 57.6 38.02 clipbox
305.003022 98.401169 m
307.035288 98.401169 l
307.035288 98.401169 l
305.003022 98.401169 l
cl
gsave
0.122 0.467 0.706 setrgbcolor
fill
grestore
stroke
grestore
gsave
357.1 121 57.6 38.02 clipbox
307.543355 98.401169 m
309.575621 98.401169 l
309.575621 98.401169 l
307.543355 98.401169 l
cl
gsave
0.122 0.467 0.706 setrgbcolor
fill
grestore
stroke
grestore
gsave
357.1 121 57.6 38.02 clipbox
310.083688 98.401169 m
312.115954 98.401169 l
312.115954 98.401169 l
310.083688 98.401169 l
cl
gsave
0.122 0.467 0.706 setrgbcolor
fill
grestore
stroke
grestore
gsave
357.1 121 57.6 38.02 clipbox
312.62402 98.401169 m
314.656287 98.401169 l
314.656287 98.401169 l
312.62402 98.401169 l
cl
gsave
0.122 0.467 0.706 setrgbcolor
fill
grestore
stroke
grestore
gsave
357.1 121 57.6 38.02 clipbox
315.164353 98.401169 m
317.19662 98.401169 l
317.19662 98.401169 l
315.164353 98.401169 l
cl
gsave
0.122 0.467 0.706 setrgbcolor
fill
grestore
stroke
grestore
gsave
357.1 121 57.6 38.02 clipbox
317.704686 98.401169 m
319.736953 98.401169 l
319.736953 98.401169 l
317.704686 98.401169 l
cl
gsave
0.122 0.467 0.706 setrgbcolor
fill
grestore
stroke
grestore
gsave
357.1 121 57.6 38.02 clipbox
320.245019 98.401169 m
322.277286 98.401169 l
322.277286 144.03402 l
320.245019 144.03402 l
cl
gsave
0.122 0.467 0.706 setrgbcolor
fill
grestore
stroke
grestore
gsave
357.1 121 57.6 38.02 clipbox
322.785352 98.401169 m
324.817618 98.401169 l
324.817618 98.401169 l
322.785352 98.401169 l
cl
gsave
0.122 0.467 0.706 setrgbcolor
fill
grestore
stroke
grestore
gsave
357.1 121 57.6 38.02 clipbox
325.325685 98.401169 m
327.357951 98.401169 l
327.357951 98.401169 l
325.325685 98.401169 l
cl
gsave
0.122 0.467 0.706 setrgbcolor
fill
grestore
stroke
grestore
gsave
357.1 121 57.6 38.02 clipbox
327.866018 98.401169 m
329.898284 98.401169 l
329.898284 98.401169 l
327.866018 98.401169 l
cl
gsave
0.122 0.467 0.706 setrgbcolor
fill
grestore
stroke
grestore
gsave
357.1 121 57.6 38.02 clipbox
330.406351 98.401169 m
332.438617 98.401169 l
332.438617 146.012257 l
330.406351 146.012257 l
cl
gsave
0.122 0.467 0.706 setrgbcolor
fill
grestore
stroke
grestore
gsave
357.1 121 57.6 38.02 clipbox
332.946684 98.401169 m
334.97895 98.401169 l
334.97895 98.401169 l
332.946684 98.401169 l
cl
gsave
0.122 0.467 0.706 setrgbcolor
fill
grestore
stroke
grestore
gsave
357.1 121 57.6 38.02 clipbox
335.487017 98.401169 m
337.519283 98.401169 l
337.519283 98.401169 l
335.487017 98.401169 l
cl
gsave
0.122 0.467 0.706 setrgbcolor
fill
grestore
stroke
grestore
gsave
357.1 121 57.6 38.02 clipbox
338.02735 98.401169 m
340.059616 98.401169 l
340.059616 98.401169 l
338.02735 98.401169 l
cl
gsave
0.122 0.467 0.706 setrgbcolor
fill
grestore
stroke
grestore
gsave
357.1 121 57.6 38.02 clipbox
340.567682 98.401169 m
342.599949 98.401169 l
342.599949 98.401169 l
340.567682 98.401169 l
cl
gsave
0.122 0.467 0.706 setrgbcolor
fill
grestore
stroke
grestore
gsave
357.1 121 57.6 38.02 clipbox
343.108015 98.401169 m
345.140282 98.401169 l
345.140282 98.401169 l
343.108015 98.401169 l
cl
gsave
0.122 0.467 0.706 setrgbcolor
fill
grestore
stroke
grestore
gsave
357.1 121 57.6 38.02 clipbox
345.648348 98.401169 m
347.680615 98.401169 l
347.680615 98.401169 l
345.648348 98.401169 l
cl
gsave
0.122 0.467 0.706 setrgbcolor
fill
grestore
stroke
grestore
gsave
357.1 121 57.6 38.02 clipbox
348.188681 98.401169 m
350.220948 98.401169 l
350.220948 98.401169 l
348.188681 98.401169 l
cl
gsave
0.122 0.467 0.706 setrgbcolor
fill
grestore
stroke
grestore
gsave
357.1 121 57.6 38.02 clipbox
350.729014 98.401169 m
352.76128 98.401169 l
352.76128 62.830191 l
350.729014 62.830191 l
cl
gsave
0.122 0.467 0.706 setrgbcolor
fill
grestore
stroke
grestore
gsave
357.1 121 57.6 38.02 clipbox
353.269347 98.401169 m
355.301613 98.401169 l
355.301613 98.401169 l
353.269347 98.401169 l
cl
gsave
0.122 0.467 0.706 setrgbcolor
fill
grestore
stroke
grestore
gsave
357.1 121 57.6 38.02 clipbox
355.80968 98.401169 m
357.841946 98.401169 l
357.841946 144.265028 l
355.80968 144.265028 l
cl
gsave
0.122 0.467 0.706 setrgbcolor
fill
grestore
stroke
grestore
gsave
357.1 121 57.6 38.02 clipbox
358.350013 98.401169 m
360.382279 98.401169 l
360.382279 57.958295 l
358.350013 57.958295 l
cl
gsave
0.122 0.467 0.706 setrgbcolor
fill
grestore
stroke
grestore
gsave
357.1 121 57.6 38.02 clipbox
360.890346 98.401169 m
362.922612 98.401169 l
362.922612 98.401169 l
360.890346 98.401169 l
cl
gsave
0.122 0.467 0.706 setrgbcolor
fill
grestore
stroke
grestore
gsave
357.1 121 57.6 38.02 clipbox
363.430679 98.401169 m
365.462945 98.401169 l
365.462945 98.401169 l
363.430679 98.401169 l
cl
gsave
0.122 0.467 0.706 setrgbcolor
fill
grestore
stroke
grestore
gsave
357.1 121 57.6 38.02 clipbox
365.971012 98.401169 m
368.003278 98.401169 l
368.003278 98.401169 l
365.971012 98.401169 l
cl
gsave
0.122 0.467 0.706 setrgbcolor
fill
grestore
stroke
grestore
gsave
357.1 121 57.6 38.02 clipbox
368.511344 98.401169 m
370.543611 98.401169 l
370.543611 58.371516 l
368.511344 58.371516 l
cl
gsave
0.122 0.467 0.706 setrgbcolor
fill
grestore
stroke
grestore
gsave
357.1 121 57.6 38.02 clipbox
371.051677 98.401169 m
373.083944 98.401169 l
373.083944 98.401169 l
371.051677 98.401169 l
cl
gsave
0.122 0.467 0.706 setrgbcolor
fill
grestore
stroke
grestore
gsave
357.1 121 57.6 38.02 clipbox
373.59201 98.401169 m
375.624277 98.401169 l
375.624277 98.401169 l
373.59201 98.401169 l
cl
gsave
0.122 0.467 0.706 setrgbcolor
fill
grestore
stroke
grestore
gsave
357.1 121 57.6 38.02 clipbox
376.132343 98.401169 m
378.164609 98.401169 l
378.164609 98.401169 l
376.132343 98.401169 l
cl
gsave
0.122 0.467 0.706 setrgbcolor
fill
grestore
stroke
grestore
gsave
357.1 121 57.6 38.02 clipbox
378.672676 98.401169 m
380.704942 98.401169 l
380.704942 98.401169 l
378.672676 98.401169 l
cl
gsave
0.122 0.467 0.706 setrgbcolor
fill
grestore
stroke
grestore
gsave
357.1 121 57.6 38.02 clipbox
381.213009 98.401169 m
383.245275 98.401169 l
383.245275 98.401169 l
381.213009 98.401169 l
cl
gsave
0.122 0.467 0.706 setrgbcolor
fill
grestore
stroke
grestore
gsave
357.1 121 57.6 38.02 clipbox
383.753342 98.401169 m
385.785608 98.401169 l
385.785608 98.401169 l
383.753342 98.401169 l
cl
gsave
0.122 0.467 0.706 setrgbcolor
fill
grestore
stroke
grestore
gsave
357.1 121 57.6 38.02 clipbox
386.293675 98.401169 m
388.325941 98.401169 l
388.325941 98.401169 l
386.293675 98.401169 l
cl
gsave
0.122 0.467 0.706 setrgbcolor
fill
grestore
stroke
grestore
gsave
357.1 121 57.6 38.02 clipbox
388.834008 98.401169 m
390.866274 98.401169 l
390.866274 141.736031 l
388.834008 141.736031 l
cl
gsave
0.122 0.467 0.706 setrgbcolor
fill
grestore
stroke
grestore
gsave
357.1 121 57.6 38.02 clipbox
391.374341 98.401169 m
393.406607 98.401169 l
393.406607 98.401169 l
391.374341 98.401169 l
cl
gsave
0.122 0.467 0.706 setrgbcolor
fill
grestore
stroke
grestore
gsave
357.1 121 57.6 38.02 clipbox
393.914673 98.401169 m
395.94694 98.401169 l
395.94694 98.401169 l
393.914673 98.401169 l
cl
gsave
0.122 0.467 0.706 setrgbcolor
fill
grestore
stroke
grestore
gsave
357.1 121 57.6 38.02 clipbox
396.455006 98.401169 m
398.487273 98.401169 l
398.487273 98.401169 l
396.455006 98.401169 l
cl
gsave
0.122 0.467 0.706 setrgbcolor
fill
grestore
stroke
grestore
0.800 setlinewidth
2 setlinecap
0.150 setgray
gsave
57.6 38.016 m
57.6 158.976 l
stroke
grestore
gsave
414.72 38.016 m
414.72 158.976 l
stroke
grestore
gsave
57.6 38.016 m
414.72 38.016 l
stroke
grestore
gsave
57.6 158.976 m
414.72 158.976 l
stroke
grestore

end
showpage
