%!PS-Adobe-3.0 EPSF-3.0
%%Title: notebooks/ksparse_activation.eps
%%Creator: matplotlib version 3.0.2, http://matplotlib.org/
%%CreationDate: Sun Apr 21 20:25:11 2019
%%Orientation: portrait
%%BoundingBox: 75 223 536 568
%%EndComments
%%BeginProlog
/mpldict 8 dict def
mpldict begin
/m { moveto } bind def
/l { lineto } bind def
/r { rlineto } bind def
/c { curveto } bind def
/cl { closepath } bind def
/box {
m
1 index 0 r
0 exch r
neg 0 r
cl
} bind def
/clipbox {
box
clip
newpath
} bind def
%!PS-Adobe-3.0 Resource-Font
%%Title: DejaVu Sans
%%Copyright: Copyright (c) 2003 by Bitstream, Inc. All Rights Reserved. Copyright (c) 2006 by Tavmjong Bah. All Rights Reserved. DejaVu changes are in public domain 
%%Creator: Converted from TrueType to type 3 by PPR
25 dict begin
/_d{bind def}bind def
/_m{moveto}_d
/_l{lineto}_d
/_cl{closepath eofill}_d
/_c{curveto}_d
/_sc{7 -1 roll{setcachedevice}{pop pop pop pop pop pop}ifelse}_d
/_e{exec}_d
/FontName /DejaVuSans def
/PaintType 0 def
/FontMatrix[.001 0 0 .001 0 0]def
/FontBBox[-1021 -463 1793 1232]def
/FontType 3 def
/Encoding [ /period /zero /one /two /four /five /six /eight /minus ] def
/FontInfo 10 dict dup begin
/FamilyName (DejaVu Sans) def
/FullName (DejaVu Sans) def
/Notice (Copyright (c) 2003 by Bitstream, Inc. All Rights Reserved. Copyright (c) 2006 by Tavmjong Bah. All Rights Reserved. DejaVu changes are in public domain ) def
/Weight (Book) def
/Version (Version 2.35) def
/ItalicAngle 0.0 def
/isFixedPitch false def
/UnderlinePosition -130 def
/UnderlineThickness 90 def
end readonly def
/CharStrings 10 dict dup begin
/.notdef 0 def
/period{318 0 107 0 210 124 _sc
107 124 _m
210 124 _l
210 0 _l
107 0 _l
107 124 _l
_cl}_d
/zero{636 0 66 -13 570 742 _sc
318 664 _m
267 664 229 639 203 589 _c
177 539 165 464 165 364 _c
165 264 177 189 203 139 _c
229 89 267 64 318 64 _c
369 64 407 89 433 139 _c
458 189 471 264 471 364 _c
471 464 458 539 433 589 _c
407 639 369 664 318 664 _c
318 742 _m
399 742 461 709 505 645 _c
548 580 570 486 570 364 _c
570 241 548 147 505 83 _c
461 19 399 -13 318 -13 _c
236 -13 173 19 130 83 _c
87 147 66 241 66 364 _c
66 486 87 580 130 645 _c
173 709 236 742 318 742 _c
_cl}_d
/one{636 0 110 0 544 729 _sc
124 83 _m
285 83 _l
285 639 _l
110 604 _l
110 694 _l
284 729 _l
383 729 _l
383 83 _l
544 83 _l
544 0 _l
124 0 _l
124 83 _l
_cl}_d
/two{{636 0 73 0 536 742 _sc
192 83 _m
536 83 _l
536 0 _l
73 0 _l
73 83 _l
110 121 161 173 226 239 _c
290 304 331 346 348 365 _c
380 400 402 430 414 455 _c
426 479 433 504 433 528 _c
433 566 419 598 392 622 _c
365 646 330 659 286 659 _c
255 659 222 653 188 643 _c
154 632 117 616 78 594 _c
78 694 _l
118 710 155 722 189 730 _c
223 738 255 742 284 742 _c
}_e{359 742 419 723 464 685 _c
509 647 532 597 532 534 _c
532 504 526 475 515 449 _c
504 422 484 390 454 354 _c
446 344 420 317 376 272 _c
332 227 271 164 192 83 _c
_cl}_e}_d
/four{636 0 49 0 580 729 _sc
378 643 _m
129 254 _l
378 254 _l
378 643 _l
352 729 _m
476 729 _l
476 254 _l
580 254 _l
580 172 _l
476 172 _l
476 0 _l
378 0 _l
378 172 _l
49 172 _l
49 267 _l
352 729 _l
_cl}_d
/five{{636 0 77 -13 549 729 _sc
108 729 _m
495 729 _l
495 646 _l
198 646 _l
198 467 _l
212 472 227 476 241 478 _c
255 480 270 482 284 482 _c
365 482 429 459 477 415 _c
525 370 549 310 549 234 _c
549 155 524 94 475 51 _c
426 8 357 -13 269 -13 _c
238 -13 207 -10 175 -6 _c
143 -1 111 6 77 17 _c
77 116 _l
106 100 136 88 168 80 _c
199 72 232 69 267 69 _c
}_e{323 69 368 83 401 113 _c
433 143 450 183 450 234 _c
450 284 433 324 401 354 _c
368 384 323 399 267 399 _c
241 399 214 396 188 390 _c
162 384 135 375 108 363 _c
108 729 _l
_cl}_e}_d
/six{{636 0 70 -13 573 742 _sc
330 404 _m
286 404 251 388 225 358 _c
199 328 186 286 186 234 _c
186 181 199 139 225 109 _c
251 79 286 64 330 64 _c
374 64 409 79 435 109 _c
461 139 474 181 474 234 _c
474 286 461 328 435 358 _c
409 388 374 404 330 404 _c
526 713 _m
526 623 _l
501 635 476 644 451 650 _c
425 656 400 659 376 659 _c
310 659 260 637 226 593 _c
}_e{192 549 172 482 168 394 _c
187 422 211 444 240 459 _c
269 474 301 482 336 482 _c
409 482 467 459 509 415 _c
551 371 573 310 573 234 _c
573 159 550 99 506 54 _c
462 9 403 -13 330 -13 _c
246 -13 181 19 137 83 _c
92 147 70 241 70 364 _c
70 479 97 571 152 639 _c
206 707 280 742 372 742 _c
396 742 421 739 447 735 _c
472 730 498 723 526 713 _c
_cl}_e}_d
/eight{{636 0 68 -13 568 742 _sc
318 346 _m
271 346 234 333 207 308 _c
180 283 167 249 167 205 _c
167 161 180 126 207 101 _c
234 76 271 64 318 64 _c
364 64 401 76 428 102 _c
455 127 469 161 469 205 _c
469 249 455 283 429 308 _c
402 333 365 346 318 346 _c
219 388 _m
177 398 144 418 120 447 _c
96 476 85 511 85 553 _c
85 611 105 657 147 691 _c
188 725 245 742 318 742 _c
}_e{390 742 447 725 489 691 _c
530 657 551 611 551 553 _c
551 511 539 476 515 447 _c
491 418 459 398 417 388 _c
464 377 501 355 528 323 _c
554 291 568 251 568 205 _c
568 134 546 80 503 43 _c
459 5 398 -13 318 -13 _c
237 -13 175 5 132 43 _c
89 80 68 134 68 205 _c
68 251 81 291 108 323 _c
134 355 171 377 219 388 _c
183 544 _m
183 506 194 476 218 455 _c
}_e{242 434 275 424 318 424 _c
360 424 393 434 417 455 _c
441 476 453 506 453 544 _c
453 582 441 611 417 632 _c
393 653 360 664 318 664 _c
275 664 242 653 218 632 _c
194 611 183 582 183 544 _c
_cl}_e}_d
/minus{838 0 106 272 732 355 _sc
106 355 _m
732 355 _l
732 272 _l
106 272 _l
106 355 _l
_cl}_d
end readonly def

/BuildGlyph
 {exch begin
 CharStrings exch
 2 copy known not{pop /.notdef}if
 true 3 1 roll get exec
 end}_d

/BuildChar {
 1 index /Encoding get exch get
 1 index /BuildGlyph get exec
}_d

FontName currentdict end definefont pop
end
%%EndProlog
mpldict begin
75.6 223.2 translate
460.8 345.6 0 0 clipbox
gsave
0 0 m
460.8 0 l
460.8 345.6 l
0 345.6 l
cl
1.000 setgray
fill
grestore
gsave
57.6 183.168 m
414.72 183.168 l
414.72 304.128 l
57.6 304.128 l
cl
1.000 setgray
fill
grestore
gsave
357.1 121 57.6 183.2 clipbox
73.832727 244.62614 m
75.864994 244.62614 l
75.864994 241.924405 l
73.832727 241.924405 l
cl
0.122 0.467 0.706 setrgbcolor
fill
grestore
gsave
357.1 121 57.6 183.2 clipbox
76.37306 244.62614 m
78.405327 244.62614 l
78.405327 263.960498 l
76.37306 263.960498 l
cl
0.122 0.467 0.706 setrgbcolor
fill
grestore
gsave
357.1 121 57.6 183.2 clipbox
78.913393 244.62614 m
80.945659 244.62614 l
80.945659 216.673346 l
78.913393 216.673346 l
cl
0.122 0.467 0.706 setrgbcolor
fill
grestore
gsave
357.1 121 57.6 183.2 clipbox
81.453726 244.62614 m
83.485992 244.62614 l
83.485992 258.684415 l
81.453726 258.684415 l
cl
0.122 0.467 0.706 setrgbcolor
fill
grestore
gsave
357.1 121 57.6 183.2 clipbox
83.994059 244.62614 m
86.026325 244.62614 l
86.026325 283.079889 l
83.994059 283.079889 l
cl
0.122 0.467 0.706 setrgbcolor
fill
grestore
gsave
357.1 121 57.6 183.2 clipbox
86.534392 244.62614 m
88.566658 244.62614 l
88.566658 294.547609 l
86.534392 294.547609 l
cl
0.122 0.467 0.706 setrgbcolor
fill
grestore
gsave
357.1 121 57.6 183.2 clipbox
89.074725 244.62614 m
91.106991 244.62614 l
91.106991 252.634278 l
89.074725 252.634278 l
cl
0.122 0.467 0.706 setrgbcolor
fill
grestore
gsave
357.1 121 57.6 183.2 clipbox
91.615058 244.62614 m
93.647324 244.62614 l
93.647324 218.693199 l
91.615058 218.693199 l
cl
0.122 0.467 0.706 setrgbcolor
fill
grestore
gsave
357.1 121 57.6 183.2 clipbox
94.155391 244.62614 m
96.187657 244.62614 l
96.187657 229.256903 l
94.155391 229.256903 l
cl
0.122 0.467 0.706 setrgbcolor
fill
grestore
gsave
357.1 121 57.6 183.2 clipbox
96.695723 244.62614 m
98.72799 244.62614 l
98.72799 257.406502 l
96.695723 257.406502 l
cl
0.122 0.467 0.706 setrgbcolor
fill
grestore
gsave
357.1 121 57.6 183.2 clipbox
99.236056 244.62614 m
101.268323 244.62614 l
101.268323 250.497908 l
99.236056 250.497908 l
cl
0.122 0.467 0.706 setrgbcolor
fill
grestore
gsave
357.1 121 57.6 183.2 clipbox
101.776389 244.62614 m
103.808656 244.62614 l
103.808656 229.76563 l
101.776389 229.76563 l
cl
0.122 0.467 0.706 setrgbcolor
fill
grestore
gsave
357.1 121 57.6 183.2 clipbox
104.316722 244.62614 m
106.348988 244.62614 l
106.348988 226.799042 l
104.316722 226.799042 l
cl
0.122 0.467 0.706 setrgbcolor
fill
grestore
gsave
357.1 121 57.6 183.2 clipbox
106.857055 244.62614 m
108.889321 244.62614 l
108.889321 241.499956 l
106.857055 241.499956 l
cl
0.122 0.467 0.706 setrgbcolor
fill
grestore
gsave
357.1 121 57.6 183.2 clipbox
109.397388 244.62614 m
111.429654 244.62614 l
111.429654 231.489912 l
109.397388 231.489912 l
cl
0.122 0.467 0.706 setrgbcolor
fill
grestore
gsave
357.1 121 57.6 183.2 clipbox
111.937721 244.62614 m
113.969987 244.62614 l
113.969987 253.420175 l
111.937721 253.420175 l
cl
0.122 0.467 0.706 setrgbcolor
fill
grestore
gsave
357.1 121 57.6 183.2 clipbox
114.478054 244.62614 m
116.51032 244.62614 l
116.51032 255.947165 l
114.478054 255.947165 l
cl
0.122 0.467 0.706 setrgbcolor
fill
grestore
gsave
357.1 121 57.6 183.2 clipbox
117.018387 244.62614 m
119.050653 244.62614 l
119.050653 248.386995 l
117.018387 248.386995 l
cl
0.122 0.467 0.706 setrgbcolor
fill
grestore
gsave
357.1 121 57.6 183.2 clipbox
119.55872 244.62614 m
121.590986 244.62614 l
121.590986 248.405279 l
119.55872 248.405279 l
cl
0.122 0.467 0.706 setrgbcolor
fill
grestore
gsave
357.1 121 57.6 183.2 clipbox
122.099052 244.62614 m
124.131319 244.62614 l
124.131319 269.246985 l
122.099052 269.246985 l
cl
0.122 0.467 0.706 setrgbcolor
fill
grestore
gsave
357.1 121 57.6 183.2 clipbox
124.639385 244.62614 m
126.671652 244.62614 l
126.671652 224.134225 l
124.639385 224.134225 l
cl
0.122 0.467 0.706 setrgbcolor
fill
grestore
gsave
357.1 121 57.6 183.2 clipbox
127.179718 244.62614 m
129.211985 244.62614 l
129.211985 230.156568 l
127.179718 230.156568 l
cl
0.122 0.467 0.706 setrgbcolor
fill
grestore
gsave
357.1 121 57.6 183.2 clipbox
129.720051 244.62614 m
131.752318 244.62614 l
131.752318 272.443235 l
129.720051 272.443235 l
cl
0.122 0.467 0.706 setrgbcolor
fill
grestore
gsave
357.1 121 57.6 183.2 clipbox
132.260384 244.62614 m
134.29265 244.62614 l
134.29265 257.125774 l
132.260384 257.125774 l
cl
0.122 0.467 0.706 setrgbcolor
fill
grestore
gsave
357.1 121 57.6 183.2 clipbox
134.800717 244.62614 m
136.832983 244.62614 l
136.832983 248.333022 l
134.800717 248.333022 l
cl
0.122 0.467 0.706 setrgbcolor
fill
grestore
gsave
357.1 121 57.6 183.2 clipbox
137.34105 244.62614 m
139.373316 244.62614 l
139.373316 237.00519 l
137.34105 237.00519 l
cl
0.122 0.467 0.706 setrgbcolor
fill
grestore
gsave
357.1 121 57.6 183.2 clipbox
139.881383 244.62614 m
141.913649 244.62614 l
141.913649 235.832318 l
139.881383 235.832318 l
cl
0.122 0.467 0.706 setrgbcolor
fill
grestore
gsave
357.1 121 57.6 183.2 clipbox
142.421716 244.62614 m
144.453982 244.62614 l
144.453982 242.113829 l
142.421716 242.113829 l
cl
0.122 0.467 0.706 setrgbcolor
fill
grestore
gsave
357.1 121 57.6 183.2 clipbox
144.962049 244.62614 m
146.994315 244.62614 l
146.994315 277.224811 l
144.962049 277.224811 l
cl
0.122 0.467 0.706 setrgbcolor
fill
grestore
gsave
357.1 121 57.6 183.2 clipbox
147.502382 244.62614 m
149.534648 244.62614 l
149.534648 272.006094 l
147.502382 272.006094 l
cl
0.122 0.467 0.706 setrgbcolor
fill
grestore
gsave
357.1 121 57.6 183.2 clipbox
150.042714 244.62614 m
152.074981 244.62614 l
152.074981 245.533203 l
150.042714 245.533203 l
cl
0.122 0.467 0.706 setrgbcolor
fill
grestore
gsave
357.1 121 57.6 183.2 clipbox
152.583047 244.62614 m
154.615314 244.62614 l
154.615314 215.143072 l
152.583047 215.143072 l
cl
0.122 0.467 0.706 setrgbcolor
fill
grestore
gsave
357.1 121 57.6 183.2 clipbox
155.12338 244.62614 m
157.155647 244.62614 l
157.155647 241.081746 l
155.12338 241.081746 l
cl
0.122 0.467 0.706 setrgbcolor
fill
grestore
gsave
357.1 121 57.6 183.2 clipbox
157.663713 244.62614 m
159.69598 244.62614 l
159.69598 252.348384 l
157.663713 252.348384 l
cl
0.122 0.467 0.706 setrgbcolor
fill
grestore
gsave
357.1 121 57.6 183.2 clipbox
160.204046 244.62614 m
162.236312 244.62614 l
162.236312 268.190466 l
160.204046 268.190466 l
cl
0.122 0.467 0.706 setrgbcolor
fill
grestore
gsave
357.1 121 57.6 183.2 clipbox
162.744379 244.62614 m
164.776645 244.62614 l
164.776645 222.809057 l
162.744379 222.809057 l
cl
0.122 0.467 0.706 setrgbcolor
fill
grestore
gsave
357.1 121 57.6 183.2 clipbox
165.284712 244.62614 m
167.316978 244.62614 l
167.316978 234.33533 l
165.284712 234.33533 l
cl
0.122 0.467 0.706 setrgbcolor
fill
grestore
gsave
357.1 121 57.6 183.2 clipbox
167.825045 244.62614 m
169.857311 244.62614 l
169.857311 275.950769 l
167.825045 275.950769 l
cl
0.122 0.467 0.706 setrgbcolor
fill
grestore
gsave
357.1 121 57.6 183.2 clipbox
170.365378 244.62614 m
172.397644 244.62614 l
172.397644 258.23675 l
170.365378 258.23675 l
cl
0.122 0.467 0.706 setrgbcolor
fill
grestore
gsave
357.1 121 57.6 183.2 clipbox
172.905711 244.62614 m
174.937977 244.62614 l
174.937977 237.614783 l
172.905711 237.614783 l
cl
0.122 0.467 0.706 setrgbcolor
fill
grestore
gsave
357.1 121 57.6 183.2 clipbox
175.446044 244.62614 m
177.47831 244.62614 l
177.47831 238.713983 l
175.446044 238.713983 l
cl
0.122 0.467 0.706 setrgbcolor
fill
grestore
gsave
357.1 121 57.6 183.2 clipbox
177.986376 244.62614 m
180.018643 244.62614 l
180.018643 214.516497 l
177.986376 214.516497 l
cl
0.122 0.467 0.706 setrgbcolor
fill
grestore
gsave
357.1 121 57.6 183.2 clipbox
180.526709 244.62614 m
182.558976 244.62614 l
182.558976 273.241444 l
180.526709 273.241444 l
cl
0.122 0.467 0.706 setrgbcolor
fill
grestore
gsave
357.1 121 57.6 183.2 clipbox
183.067042 244.62614 m
185.099309 244.62614 l
185.099309 245.981707 l
183.067042 245.981707 l
cl
0.122 0.467 0.706 setrgbcolor
fill
grestore
gsave
357.1 121 57.6 183.2 clipbox
185.607375 244.62614 m
187.639641 244.62614 l
187.639641 236.298445 l
185.607375 236.298445 l
cl
0.122 0.467 0.706 setrgbcolor
fill
grestore
gsave
357.1 121 57.6 183.2 clipbox
188.147708 244.62614 m
190.179974 244.62614 l
190.179974 260.218342 l
188.147708 260.218342 l
cl
0.122 0.467 0.706 setrgbcolor
fill
grestore
gsave
357.1 121 57.6 183.2 clipbox
190.688041 244.62614 m
192.720307 244.62614 l
192.720307 246.39559 l
190.688041 246.39559 l
cl
0.122 0.467 0.706 setrgbcolor
fill
grestore
gsave
357.1 121 57.6 183.2 clipbox
193.228374 244.62614 m
195.26064 244.62614 l
195.26064 245.697526 l
193.228374 245.697526 l
cl
0.122 0.467 0.706 setrgbcolor
fill
grestore
gsave
357.1 121 57.6 183.2 clipbox
195.768707 244.62614 m
197.800973 244.62614 l
197.800973 225.7426 l
195.768707 225.7426 l
cl
0.122 0.467 0.706 setrgbcolor
fill
grestore
gsave
357.1 121 57.6 183.2 clipbox
198.30904 244.62614 m
200.341306 244.62614 l
200.341306 216.703777 l
198.30904 216.703777 l
cl
0.122 0.467 0.706 setrgbcolor
fill
grestore
gsave
357.1 121 57.6 183.2 clipbox
200.849373 244.62614 m
202.881639 244.62614 l
202.881639 206.675994 l
200.849373 206.675994 l
cl
0.122 0.467 0.706 setrgbcolor
fill
grestore
gsave
357.1 121 57.6 183.2 clipbox
203.389706 244.62614 m
205.421972 244.62614 l
205.421972 252.252697 l
203.389706 252.252697 l
cl
0.122 0.467 0.706 setrgbcolor
fill
grestore
gsave
357.1 121 57.6 183.2 clipbox
205.930038 244.62614 m
207.962305 244.62614 l
207.962305 226.945851 l
205.930038 226.945851 l
cl
0.122 0.467 0.706 setrgbcolor
fill
grestore
gsave
357.1 121 57.6 183.2 clipbox
208.470371 244.62614 m
210.502638 244.62614 l
210.502638 229.077623 l
208.470371 229.077623 l
cl
0.122 0.467 0.706 setrgbcolor
fill
grestore
gsave
357.1 121 57.6 183.2 clipbox
211.010704 244.62614 m
213.042971 244.62614 l
213.042971 213.962582 l
211.010704 213.962582 l
cl
0.122 0.467 0.706 setrgbcolor
fill
grestore
gsave
357.1 121 57.6 183.2 clipbox
213.551037 244.62614 m
215.583303 244.62614 l
215.583303 263.647981 l
213.551037 263.647981 l
cl
0.122 0.467 0.706 setrgbcolor
fill
grestore
gsave
357.1 121 57.6 183.2 clipbox
216.09137 244.62614 m
218.123636 244.62614 l
218.123636 231.719991 l
216.09137 231.719991 l
cl
0.122 0.467 0.706 setrgbcolor
fill
grestore
gsave
357.1 121 57.6 183.2 clipbox
218.631703 244.62614 m
220.663969 244.62614 l
220.663969 204.316319 l
218.631703 204.316319 l
cl
0.122 0.467 0.706 setrgbcolor
fill
grestore
gsave
357.1 121 57.6 183.2 clipbox
221.172036 244.62614 m
223.204302 244.62614 l
223.204302 232.736379 l
221.172036 232.736379 l
cl
0.122 0.467 0.706 setrgbcolor
fill
grestore
gsave
357.1 121 57.6 183.2 clipbox
223.712369 244.62614 m
225.744635 244.62614 l
225.744635 239.381722 l
223.712369 239.381722 l
cl
0.122 0.467 0.706 setrgbcolor
fill
grestore
gsave
357.1 121 57.6 183.2 clipbox
226.252702 244.62614 m
228.284968 244.62614 l
228.284968 252.902044 l
226.252702 252.902044 l
cl
0.122 0.467 0.706 setrgbcolor
fill
grestore
gsave
357.1 121 57.6 183.2 clipbox
228.793035 244.62614 m
230.825301 244.62614 l
230.825301 225.524001 l
228.793035 225.524001 l
cl
0.122 0.467 0.706 setrgbcolor
fill
grestore
gsave
357.1 121 57.6 183.2 clipbox
231.333367 244.62614 m
233.365634 244.62614 l
233.365634 206.820376 l
231.333367 206.820376 l
cl
0.122 0.467 0.706 setrgbcolor
fill
grestore
gsave
357.1 121 57.6 183.2 clipbox
233.8737 244.62614 m
235.905967 244.62614 l
235.905967 231.098164 l
233.8737 231.098164 l
cl
0.122 0.467 0.706 setrgbcolor
fill
grestore
gsave
357.1 121 57.6 183.2 clipbox
236.414033 244.62614 m
238.4463 244.62614 l
238.4463 211.760202 l
236.414033 211.760202 l
cl
0.122 0.467 0.706 setrgbcolor
fill
grestore
gsave
357.1 121 57.6 183.2 clipbox
238.954366 244.62614 m
240.986633 244.62614 l
240.986633 259.676583 l
238.954366 259.676583 l
cl
0.122 0.467 0.706 setrgbcolor
fill
grestore
gsave
357.1 121 57.6 183.2 clipbox
241.494699 244.62614 m
243.526965 244.62614 l
243.526965 259.639052 l
241.494699 259.639052 l
cl
0.122 0.467 0.706 setrgbcolor
fill
grestore
gsave
357.1 121 57.6 183.2 clipbox
244.035032 244.62614 m
246.067298 244.62614 l
246.067298 253.208897 l
244.035032 253.208897 l
cl
0.122 0.467 0.706 setrgbcolor
fill
grestore
gsave
357.1 121 57.6 183.2 clipbox
246.575365 244.62614 m
248.607631 244.62614 l
248.607631 239.390059 l
246.575365 239.390059 l
cl
0.122 0.467 0.706 setrgbcolor
fill
grestore
gsave
357.1 121 57.6 183.2 clipbox
249.115698 244.62614 m
251.147964 244.62614 l
251.147964 214.384603 l
249.115698 214.384603 l
cl
0.122 0.467 0.706 setrgbcolor
fill
grestore
gsave
357.1 121 57.6 183.2 clipbox
251.656031 244.62614 m
253.688297 244.62614 l
253.688297 192.367145 l
251.656031 192.367145 l
cl
0.122 0.467 0.706 setrgbcolor
fill
grestore
gsave
357.1 121 57.6 183.2 clipbox
254.196364 244.62614 m
256.22863 244.62614 l
256.22863 233.29063 l
254.196364 233.29063 l
cl
0.122 0.467 0.706 setrgbcolor
fill
grestore
gsave
357.1 121 57.6 183.2 clipbox
256.736697 244.62614 m
258.768963 244.62614 l
258.768963 263.435384 l
256.736697 263.435384 l
cl
0.122 0.467 0.706 setrgbcolor
fill
grestore
gsave
357.1 121 57.6 183.2 clipbox
259.277029 244.62614 m
261.309296 244.62614 l
261.309296 238.836798 l
259.277029 238.836798 l
cl
0.122 0.467 0.706 setrgbcolor
fill
grestore
gsave
357.1 121 57.6 183.2 clipbox
261.817362 244.62614 m
263.849629 244.62614 l
263.849629 234.807514 l
261.817362 234.807514 l
cl
0.122 0.467 0.706 setrgbcolor
fill
grestore
gsave
357.1 121 57.6 183.2 clipbox
264.357695 244.62614 m
266.389962 244.62614 l
266.389962 279.859733 l
264.357695 279.859733 l
cl
0.122 0.467 0.706 setrgbcolor
fill
grestore
gsave
357.1 121 57.6 183.2 clipbox
266.898028 244.62614 m
268.930294 244.62614 l
268.930294 240.135101 l
266.898028 240.135101 l
cl
0.122 0.467 0.706 setrgbcolor
fill
grestore
gsave
357.1 121 57.6 183.2 clipbox
269.438361 244.62614 m
271.470627 244.62614 l
271.470627 231.582952 l
269.438361 231.582952 l
cl
0.122 0.467 0.706 setrgbcolor
fill
grestore
gsave
357.1 121 57.6 183.2 clipbox
271.978694 244.62614 m
274.01096 244.62614 l
274.01096 246.432851 l
271.978694 246.432851 l
cl
0.122 0.467 0.706 setrgbcolor
fill
grestore
gsave
357.1 121 57.6 183.2 clipbox
274.519027 244.62614 m
276.551293 244.62614 l
276.551293 255.728467 l
274.519027 255.728467 l
cl
0.122 0.467 0.706 setrgbcolor
fill
grestore
gsave
357.1 121 57.6 183.2 clipbox
277.05936 244.62614 m
279.091626 244.62614 l
279.091626 239.685038 l
277.05936 239.685038 l
cl
0.122 0.467 0.706 setrgbcolor
fill
grestore
gsave
357.1 121 57.6 183.2 clipbox
279.599693 244.62614 m
281.631959 244.62614 l
281.631959 269.601168 l
279.599693 269.601168 l
cl
0.122 0.467 0.706 setrgbcolor
fill
grestore
gsave
357.1 121 57.6 183.2 clipbox
282.140026 244.62614 m
284.172292 244.62614 l
284.172292 231.192344 l
282.140026 231.192344 l
cl
0.122 0.467 0.706 setrgbcolor
fill
grestore
gsave
357.1 121 57.6 183.2 clipbox
284.680359 244.62614 m
286.712625 244.62614 l
286.712625 213.893667 l
284.680359 213.893667 l
cl
0.122 0.467 0.706 setrgbcolor
fill
grestore
gsave
357.1 121 57.6 183.2 clipbox
287.220691 244.62614 m
289.252958 244.62614 l
289.252958 273.342179 l
287.220691 273.342179 l
cl
0.122 0.467 0.706 setrgbcolor
fill
grestore
gsave
357.1 121 57.6 183.2 clipbox
289.761024 244.62614 m
291.793291 244.62614 l
291.793291 229.322409 l
289.761024 229.322409 l
cl
0.122 0.467 0.706 setrgbcolor
fill
grestore
gsave
357.1 121 57.6 183.2 clipbox
292.301357 244.62614 m
294.333624 244.62614 l
294.333624 253.829352 l
292.301357 253.829352 l
cl
0.122 0.467 0.706 setrgbcolor
fill
grestore
gsave
357.1 121 57.6 183.2 clipbox
294.84169 244.62614 m
296.873956 244.62614 l
296.873956 243.995983 l
294.84169 243.995983 l
cl
0.122 0.467 0.706 setrgbcolor
fill
grestore
gsave
357.1 121 57.6 183.2 clipbox
297.382023 244.62614 m
299.414289 244.62614 l
299.414289 275.360077 l
297.382023 275.360077 l
cl
0.122 0.467 0.706 setrgbcolor
fill
grestore
gsave
357.1 121 57.6 183.2 clipbox
299.922356 244.62614 m
301.954622 244.62614 l
301.954622 204.975161 l
299.922356 204.975161 l
cl
0.122 0.467 0.706 setrgbcolor
fill
grestore
gsave
357.1 121 57.6 183.2 clipbox
302.462689 244.62614 m
304.494955 244.62614 l
304.494955 217.352304 l
302.462689 217.352304 l
cl
0.122 0.467 0.706 setrgbcolor
fill
grestore
gsave
357.1 121 57.6 183.2 clipbox
305.003022 244.62614 m
307.035288 244.62614 l
307.035288 250.254144 l
305.003022 250.254144 l
cl
0.122 0.467 0.706 setrgbcolor
fill
grestore
gsave
357.1 121 57.6 183.2 clipbox
307.543355 244.62614 m
309.575621 244.62614 l
309.575621 242.931709 l
307.543355 242.931709 l
cl
0.122 0.467 0.706 setrgbcolor
fill
grestore
gsave
357.1 121 57.6 183.2 clipbox
310.083688 244.62614 m
312.115954 244.62614 l
312.115954 245.966045 l
310.083688 245.966045 l
cl
0.122 0.467 0.706 setrgbcolor
fill
grestore
gsave
357.1 121 57.6 183.2 clipbox
312.62402 244.62614 m
314.656287 244.62614 l
314.656287 237.605434 l
312.62402 237.605434 l
cl
0.122 0.467 0.706 setrgbcolor
fill
grestore
gsave
357.1 121 57.6 183.2 clipbox
315.164353 244.62614 m
317.19662 244.62614 l
317.19662 237.073435 l
315.164353 237.073435 l
cl
0.122 0.467 0.706 setrgbcolor
fill
grestore
gsave
357.1 121 57.6 183.2 clipbox
317.704686 244.62614 m
319.736953 244.62614 l
319.736953 288.249562 l
317.704686 288.249562 l
cl
0.122 0.467 0.706 setrgbcolor
fill
grestore
gsave
357.1 121 57.6 183.2 clipbox
320.245019 244.62614 m
322.277286 244.62614 l
322.277286 210.203831 l
320.245019 210.203831 l
cl
0.122 0.467 0.706 setrgbcolor
fill
grestore
gsave
357.1 121 57.6 183.2 clipbox
322.785352 244.62614 m
324.817618 244.62614 l
324.817618 248.64088 l
322.785352 248.64088 l
cl
0.122 0.467 0.706 setrgbcolor
fill
grestore
gsave
357.1 121 57.6 183.2 clipbox
325.325685 244.62614 m
327.357951 244.62614 l
327.357951 217.912722 l
325.325685 217.912722 l
cl
0.122 0.467 0.706 setrgbcolor
fill
grestore
gsave
357.1 121 57.6 183.2 clipbox
327.866018 244.62614 m
329.898284 244.62614 l
329.898284 261.896244 l
327.866018 261.896244 l
cl
0.122 0.467 0.706 setrgbcolor
fill
grestore
gsave
357.1 121 57.6 183.2 clipbox
330.406351 244.62614 m
332.438617 244.62614 l
332.438617 232.035286 l
330.406351 232.035286 l
cl
0.122 0.467 0.706 setrgbcolor
fill
grestore
gsave
357.1 121 57.6 183.2 clipbox
332.946684 244.62614 m
334.97895 244.62614 l
334.97895 262.117775 l
332.946684 262.117775 l
cl
0.122 0.467 0.706 setrgbcolor
fill
grestore
gsave
357.1 121 57.6 183.2 clipbox
335.487017 244.62614 m
337.519283 244.62614 l
337.519283 247.240342 l
335.487017 247.240342 l
cl
0.122 0.467 0.706 setrgbcolor
fill
grestore
gsave
357.1 121 57.6 183.2 clipbox
338.02735 244.62614 m
340.059616 244.62614 l
340.059616 244.028071 l
338.02735 244.028071 l
cl
0.122 0.467 0.706 setrgbcolor
fill
grestore
gsave
357.1 121 57.6 183.2 clipbox
340.567682 244.62614 m
342.599949 244.62614 l
342.599949 268.593477 l
340.567682 268.593477 l
cl
0.122 0.467 0.706 setrgbcolor
fill
grestore
gsave
357.1 121 57.6 183.2 clipbox
343.108015 244.62614 m
345.140282 244.62614 l
345.140282 261.473568 l
343.108015 261.473568 l
cl
0.122 0.467 0.706 setrgbcolor
fill
grestore
gsave
357.1 121 57.6 183.2 clipbox
345.648348 244.62614 m
347.680615 244.62614 l
347.680615 229.735386 l
345.648348 229.735386 l
cl
0.122 0.467 0.706 setrgbcolor
fill
grestore
gsave
357.1 121 57.6 183.2 clipbox
348.188681 244.62614 m
350.220948 244.62614 l
350.220948 262.491629 l
348.188681 262.491629 l
cl
0.122 0.467 0.706 setrgbcolor
fill
grestore
gsave
357.1 121 57.6 183.2 clipbox
350.729014 244.62614 m
352.76128 244.62614 l
352.76128 258.607511 l
350.729014 258.607511 l
cl
0.122 0.467 0.706 setrgbcolor
fill
grestore
gsave
357.1 121 57.6 183.2 clipbox
353.269347 244.62614 m
355.301613 244.62614 l
355.301613 235.278329 l
353.269347 235.278329 l
cl
0.122 0.467 0.706 setrgbcolor
fill
grestore
gsave
357.1 121 57.6 183.2 clipbox
355.80968 244.62614 m
357.841946 244.62614 l
357.841946 283.733924 l
355.80968 283.733924 l
cl
0.122 0.467 0.706 setrgbcolor
fill
grestore
gsave
357.1 121 57.6 183.2 clipbox
358.350013 244.62614 m
360.382279 244.62614 l
360.382279 235.554024 l
358.350013 235.554024 l
cl
0.122 0.467 0.706 setrgbcolor
fill
grestore
gsave
357.1 121 57.6 183.2 clipbox
360.890346 244.62614 m
362.922612 244.62614 l
362.922612 215.871895 l
360.890346 215.871895 l
cl
0.122 0.467 0.706 setrgbcolor
fill
grestore
gsave
357.1 121 57.6 183.2 clipbox
363.430679 244.62614 m
365.462945 244.62614 l
365.462945 249.140739 l
363.430679 249.140739 l
cl
0.122 0.467 0.706 setrgbcolor
fill
grestore
gsave
357.1 121 57.6 183.2 clipbox
365.971012 244.62614 m
368.003278 244.62614 l
368.003278 244.504037 l
365.971012 244.504037 l
cl
0.122 0.467 0.706 setrgbcolor
fill
grestore
gsave
357.1 121 57.6 183.2 clipbox
368.511344 244.62614 m
370.543611 244.62614 l
370.543611 227.700138 l
368.511344 227.700138 l
cl
0.122 0.467 0.706 setrgbcolor
fill
grestore
gsave
357.1 121 57.6 183.2 clipbox
371.051677 244.62614 m
373.083944 244.62614 l
373.083944 212.546947 l
371.051677 212.546947 l
cl
0.122 0.467 0.706 setrgbcolor
fill
grestore
gsave
357.1 121 57.6 183.2 clipbox
373.59201 244.62614 m
375.624277 244.62614 l
375.624277 251.868297 l
373.59201 251.868297 l
cl
0.122 0.467 0.706 setrgbcolor
fill
grestore
gsave
357.1 121 57.6 183.2 clipbox
376.132343 244.62614 m
378.164609 244.62614 l
378.164609 248.435414 l
376.132343 248.435414 l
cl
0.122 0.467 0.706 setrgbcolor
fill
grestore
gsave
357.1 121 57.6 183.2 clipbox
378.672676 244.62614 m
380.704942 244.62614 l
380.704942 253.034896 l
378.672676 253.034896 l
cl
0.122 0.467 0.706 setrgbcolor
fill
grestore
gsave
357.1 121 57.6 183.2 clipbox
381.213009 244.62614 m
383.245275 244.62614 l
383.245275 233.517686 l
381.213009 233.517686 l
cl
0.122 0.467 0.706 setrgbcolor
fill
grestore
gsave
357.1 121 57.6 183.2 clipbox
383.753342 244.62614 m
385.785608 244.62614 l
385.785608 273.582423 l
383.753342 273.582423 l
cl
0.122 0.467 0.706 setrgbcolor
fill
grestore
gsave
357.1 121 57.6 183.2 clipbox
386.293675 244.62614 m
388.325941 244.62614 l
388.325941 188.666182 l
386.293675 188.666182 l
cl
0.122 0.467 0.706 setrgbcolor
fill
grestore
gsave
357.1 121 57.6 183.2 clipbox
388.834008 244.62614 m
390.866274 244.62614 l
390.866274 247.530073 l
388.834008 247.530073 l
cl
0.122 0.467 0.706 setrgbcolor
fill
grestore
gsave
357.1 121 57.6 183.2 clipbox
391.374341 244.62614 m
393.406607 244.62614 l
393.406607 298.629818 l
391.374341 298.629818 l
cl
0.122 0.467 0.706 setrgbcolor
fill
grestore
gsave
357.1 121 57.6 183.2 clipbox
393.914673 244.62614 m
395.94694 244.62614 l
395.94694 231.419235 l
393.914673 231.419235 l
cl
0.122 0.467 0.706 setrgbcolor
fill
grestore
gsave
357.1 121 57.6 183.2 clipbox
396.455006 244.62614 m
398.487273 244.62614 l
398.487273 275.724024 l
396.455006 275.724024 l
cl
0.122 0.467 0.706 setrgbcolor
fill
grestore
0.800 setlinewidth
1 setlinejoin
0 setlinecap
[] 0 setdash
0.000 setgray
gsave
/o {
gsave
newpath
translate
0.8 setlinewidth
1 setlinejoin
0 setlinecap
0 0 m
0 -3.5 l

gsave
0.000 setgray
fill
grestore
stroke
grestore
} bind def
74.8489 183.168 o
grestore
/DejaVuSans findfont
10.000 scalefont
setfont
gsave
71.669173 168.574250 translate
0.000000 rotate
0.000000 0.000000 m /zero glyphshow
grestore
gsave
/o {
gsave
newpath
translate
0.8 setlinewidth
1 setlinejoin
0 setlinecap
0 0 m
0 -3.5 l

gsave
0.000 setgray
fill
grestore
stroke
grestore
} bind def
125.656 183.168 o
grestore
gsave
119.296144 168.574250 translate
0.000000 rotate
0.000000 0.000000 m /two glyphshow
6.362305 0.000000 m /zero glyphshow
grestore
gsave
/o {
gsave
newpath
translate
0.8 setlinewidth
1 setlinejoin
0 setlinecap
0 0 m
0 -3.5 l

gsave
0.000 setgray
fill
grestore
stroke
grestore
} bind def
176.462 183.168 o
grestore
gsave
170.102802 168.574250 translate
0.000000 rotate
0.000000 0.000000 m /four glyphshow
6.362305 0.000000 m /zero glyphshow
grestore
gsave
/o {
gsave
newpath
translate
0.8 setlinewidth
1 setlinejoin
0 setlinecap
0 0 m
0 -3.5 l

gsave
0.000 setgray
fill
grestore
stroke
grestore
} bind def
227.269 183.168 o
grestore
gsave
220.909460 168.574250 translate
0.000000 rotate
0.000000 0.000000 m /six glyphshow
6.362305 0.000000 m /zero glyphshow
grestore
gsave
/o {
gsave
newpath
translate
0.8 setlinewidth
1 setlinejoin
0 setlinecap
0 0 m
0 -3.5 l

gsave
0.000 setgray
fill
grestore
stroke
grestore
} bind def
278.075 183.168 o
grestore
gsave
271.716118 168.574250 translate
0.000000 rotate
0.000000 0.000000 m /eight glyphshow
6.362305 0.000000 m /zero glyphshow
grestore
gsave
/o {
gsave
newpath
translate
0.8 setlinewidth
1 setlinejoin
0 setlinecap
0 0 m
0 -3.5 l

gsave
0.000 setgray
fill
grestore
stroke
grestore
} bind def
328.882 183.168 o
grestore
gsave
319.343089 168.574250 translate
0.000000 rotate
0.000000 0.000000 m /one glyphshow
6.362305 0.000000 m /zero glyphshow
12.724609 0.000000 m /zero glyphshow
grestore
gsave
/o {
gsave
newpath
translate
0.8 setlinewidth
1 setlinejoin
0 setlinecap
0 0 m
0 -3.5 l

gsave
0.000 setgray
fill
grestore
stroke
grestore
} bind def
379.689 183.168 o
grestore
gsave
370.149747 168.574250 translate
0.000000 rotate
0.000000 0.000000 m /one glyphshow
6.362305 0.000000 m /two glyphshow
12.724609 0.000000 m /zero glyphshow
grestore
gsave
/o {
gsave
newpath
translate
0.8 setlinewidth
1 setlinejoin
0 setlinecap
0 0 m
-3.5 0 l

gsave
0.000 setgray
fill
grestore
stroke
grestore
} bind def
57.6 213.35 o
grestore
gsave
13.600000 209.552723 translate
0.000000 rotate
0.000000 0.000000 m /minus glyphshow
8.378906 0.000000 m /zero glyphshow
14.741211 0.000000 m /period glyphshow
17.919922 0.000000 m /zero glyphshow
24.282227 0.000000 m /zero glyphshow
30.644531 0.000000 m /five glyphshow
grestore
gsave
/o {
gsave
newpath
translate
0.8 setlinewidth
1 setlinejoin
0 setlinecap
0 0 m
-3.5 0 l

gsave
0.000 setgray
fill
grestore
stroke
grestore
} bind def
57.6 244.626 o
grestore
gsave
21.975000 240.829265 translate
0.000000 rotate
0.000000 0.000000 m /zero glyphshow
6.362305 0.000000 m /period glyphshow
9.541016 0.000000 m /zero glyphshow
15.903320 0.000000 m /zero glyphshow
22.265625 0.000000 m /zero glyphshow
grestore
gsave
/o {
gsave
newpath
translate
0.8 setlinewidth
1 setlinejoin
0 setlinecap
0 0 m
-3.5 0 l

gsave
0.000 setgray
fill
grestore
stroke
grestore
} bind def
57.6 275.903 o
grestore
gsave
21.975000 272.105807 translate
0.000000 rotate
0.000000 0.000000 m /zero glyphshow
6.362305 0.000000 m /period glyphshow
9.541016 0.000000 m /zero glyphshow
15.903320 0.000000 m /zero glyphshow
22.265625 0.000000 m /five glyphshow
grestore
0 setlinejoin
2 setlinecap
[] 0 setdash
gsave
57.6 183.168 m
57.6 304.128 l
stroke
grestore
gsave
414.72 183.168 m
414.72 304.128 l
stroke
grestore
gsave
57.6 183.168 m
414.72 183.168 l
stroke
grestore
gsave
57.6 304.128 m
414.72 304.128 l
stroke
grestore
gsave
57.6 38.016 m
414.72 38.016 l
414.72 158.976 l
57.6 158.976 l
cl
1.000 setgray
fill
grestore
gsave
357.1 121 57.6 38.02 clipbox
73.832727 99.47414 m
75.864994 99.47414 l
75.864994 99.47414 l
73.832727 99.47414 l
cl
0.122 0.467 0.706 setrgbcolor
fill
grestore
gsave
357.1 121 57.6 38.02 clipbox
76.37306 99.47414 m
78.405327 99.47414 l
78.405327 99.47414 l
76.37306 99.47414 l
cl
0.122 0.467 0.706 setrgbcolor
fill
grestore
gsave
357.1 121 57.6 38.02 clipbox
78.913393 99.47414 m
80.945659 99.47414 l
80.945659 71.521346 l
78.913393 71.521346 l
cl
0.122 0.467 0.706 setrgbcolor
fill
grestore
gsave
357.1 121 57.6 38.02 clipbox
81.453726 99.47414 m
83.485992 99.47414 l
83.485992 99.47414 l
81.453726 99.47414 l
cl
0.122 0.467 0.706 setrgbcolor
fill
grestore
gsave
357.1 121 57.6 38.02 clipbox
83.994059 99.47414 m
86.026325 99.47414 l
86.026325 137.927889 l
83.994059 137.927889 l
cl
0.122 0.467 0.706 setrgbcolor
fill
grestore
gsave
357.1 121 57.6 38.02 clipbox
86.534392 99.47414 m
88.566658 99.47414 l
88.566658 149.395609 l
86.534392 149.395609 l
cl
0.122 0.467 0.706 setrgbcolor
fill
grestore
gsave
357.1 121 57.6 38.02 clipbox
89.074725 99.47414 m
91.106991 99.47414 l
91.106991 99.47414 l
89.074725 99.47414 l
cl
0.122 0.467 0.706 setrgbcolor
fill
grestore
gsave
357.1 121 57.6 38.02 clipbox
91.615058 99.47414 m
93.647324 99.47414 l
93.647324 99.47414 l
91.615058 99.47414 l
cl
0.122 0.467 0.706 setrgbcolor
fill
grestore
gsave
357.1 121 57.6 38.02 clipbox
94.155391 99.47414 m
96.187657 99.47414 l
96.187657 99.47414 l
94.155391 99.47414 l
cl
0.122 0.467 0.706 setrgbcolor
fill
grestore
gsave
357.1 121 57.6 38.02 clipbox
96.695723 99.47414 m
98.72799 99.47414 l
98.72799 99.47414 l
96.695723 99.47414 l
cl
0.122 0.467 0.706 setrgbcolor
fill
grestore
gsave
357.1 121 57.6 38.02 clipbox
99.236056 99.47414 m
101.268323 99.47414 l
101.268323 99.47414 l
99.236056 99.47414 l
cl
0.122 0.467 0.706 setrgbcolor
fill
grestore
gsave
357.1 121 57.6 38.02 clipbox
101.776389 99.47414 m
103.808656 99.47414 l
103.808656 99.47414 l
101.776389 99.47414 l
cl
0.122 0.467 0.706 setrgbcolor
fill
grestore
gsave
357.1 121 57.6 38.02 clipbox
104.316722 99.47414 m
106.348988 99.47414 l
106.348988 99.47414 l
104.316722 99.47414 l
cl
0.122 0.467 0.706 setrgbcolor
fill
grestore
gsave
357.1 121 57.6 38.02 clipbox
106.857055 99.47414 m
108.889321 99.47414 l
108.889321 99.47414 l
106.857055 99.47414 l
cl
0.122 0.467 0.706 setrgbcolor
fill
grestore
gsave
357.1 121 57.6 38.02 clipbox
109.397388 99.47414 m
111.429654 99.47414 l
111.429654 99.47414 l
109.397388 99.47414 l
cl
0.122 0.467 0.706 setrgbcolor
fill
grestore
gsave
357.1 121 57.6 38.02 clipbox
111.937721 99.47414 m
113.969987 99.47414 l
113.969987 99.47414 l
111.937721 99.47414 l
cl
0.122 0.467 0.706 setrgbcolor
fill
grestore
gsave
357.1 121 57.6 38.02 clipbox
114.478054 99.47414 m
116.51032 99.47414 l
116.51032 99.47414 l
114.478054 99.47414 l
cl
0.122 0.467 0.706 setrgbcolor
fill
grestore
gsave
357.1 121 57.6 38.02 clipbox
117.018387 99.47414 m
119.050653 99.47414 l
119.050653 99.47414 l
117.018387 99.47414 l
cl
0.122 0.467 0.706 setrgbcolor
fill
grestore
gsave
357.1 121 57.6 38.02 clipbox
119.55872 99.47414 m
121.590986 99.47414 l
121.590986 99.47414 l
119.55872 99.47414 l
cl
0.122 0.467 0.706 setrgbcolor
fill
grestore
gsave
357.1 121 57.6 38.02 clipbox
122.099052 99.47414 m
124.131319 99.47414 l
124.131319 99.47414 l
122.099052 99.47414 l
cl
0.122 0.467 0.706 setrgbcolor
fill
grestore
gsave
357.1 121 57.6 38.02 clipbox
124.639385 99.47414 m
126.671652 99.47414 l
126.671652 99.47414 l
124.639385 99.47414 l
cl
0.122 0.467 0.706 setrgbcolor
fill
grestore
gsave
357.1 121 57.6 38.02 clipbox
127.179718 99.47414 m
129.211985 99.47414 l
129.211985 99.47414 l
127.179718 99.47414 l
cl
0.122 0.467 0.706 setrgbcolor
fill
grestore
gsave
357.1 121 57.6 38.02 clipbox
129.720051 99.47414 m
131.752318 99.47414 l
131.752318 127.291235 l
129.720051 127.291235 l
cl
0.122 0.467 0.706 setrgbcolor
fill
grestore
gsave
357.1 121 57.6 38.02 clipbox
132.260384 99.47414 m
134.29265 99.47414 l
134.29265 99.47414 l
132.260384 99.47414 l
cl
0.122 0.467 0.706 setrgbcolor
fill
grestore
gsave
357.1 121 57.6 38.02 clipbox
134.800717 99.47414 m
136.832983 99.47414 l
136.832983 99.47414 l
134.800717 99.47414 l
cl
0.122 0.467 0.706 setrgbcolor
fill
grestore
gsave
357.1 121 57.6 38.02 clipbox
137.34105 99.47414 m
139.373316 99.47414 l
139.373316 99.47414 l
137.34105 99.47414 l
cl
0.122 0.467 0.706 setrgbcolor
fill
grestore
gsave
357.1 121 57.6 38.02 clipbox
139.881383 99.47414 m
141.913649 99.47414 l
141.913649 99.47414 l
139.881383 99.47414 l
cl
0.122 0.467 0.706 setrgbcolor
fill
grestore
gsave
357.1 121 57.6 38.02 clipbox
142.421716 99.47414 m
144.453982 99.47414 l
144.453982 99.47414 l
142.421716 99.47414 l
cl
0.122 0.467 0.706 setrgbcolor
fill
grestore
gsave
357.1 121 57.6 38.02 clipbox
144.962049 99.47414 m
146.994315 99.47414 l
146.994315 132.072811 l
144.962049 132.072811 l
cl
0.122 0.467 0.706 setrgbcolor
fill
grestore
gsave
357.1 121 57.6 38.02 clipbox
147.502382 99.47414 m
149.534648 99.47414 l
149.534648 126.854094 l
147.502382 126.854094 l
cl
0.122 0.467 0.706 setrgbcolor
fill
grestore
gsave
357.1 121 57.6 38.02 clipbox
150.042714 99.47414 m
152.074981 99.47414 l
152.074981 99.47414 l
150.042714 99.47414 l
cl
0.122 0.467 0.706 setrgbcolor
fill
grestore
gsave
357.1 121 57.6 38.02 clipbox
152.583047 99.47414 m
154.615314 99.47414 l
154.615314 69.991072 l
152.583047 69.991072 l
cl
0.122 0.467 0.706 setrgbcolor
fill
grestore
gsave
357.1 121 57.6 38.02 clipbox
155.12338 99.47414 m
157.155647 99.47414 l
157.155647 99.47414 l
155.12338 99.47414 l
cl
0.122 0.467 0.706 setrgbcolor
fill
grestore
gsave
357.1 121 57.6 38.02 clipbox
157.663713 99.47414 m
159.69598 99.47414 l
159.69598 99.47414 l
157.663713 99.47414 l
cl
0.122 0.467 0.706 setrgbcolor
fill
grestore
gsave
357.1 121 57.6 38.02 clipbox
160.204046 99.47414 m
162.236312 99.47414 l
162.236312 99.47414 l
160.204046 99.47414 l
cl
0.122 0.467 0.706 setrgbcolor
fill
grestore
gsave
357.1 121 57.6 38.02 clipbox
162.744379 99.47414 m
164.776645 99.47414 l
164.776645 99.47414 l
162.744379 99.47414 l
cl
0.122 0.467 0.706 setrgbcolor
fill
grestore
gsave
357.1 121 57.6 38.02 clipbox
165.284712 99.47414 m
167.316978 99.47414 l
167.316978 99.47414 l
165.284712 99.47414 l
cl
0.122 0.467 0.706 setrgbcolor
fill
grestore
gsave
357.1 121 57.6 38.02 clipbox
167.825045 99.47414 m
169.857311 99.47414 l
169.857311 130.798769 l
167.825045 130.798769 l
cl
0.122 0.467 0.706 setrgbcolor
fill
grestore
gsave
357.1 121 57.6 38.02 clipbox
170.365378 99.47414 m
172.397644 99.47414 l
172.397644 99.47414 l
170.365378 99.47414 l
cl
0.122 0.467 0.706 setrgbcolor
fill
grestore
gsave
357.1 121 57.6 38.02 clipbox
172.905711 99.47414 m
174.937977 99.47414 l
174.937977 99.47414 l
172.905711 99.47414 l
cl
0.122 0.467 0.706 setrgbcolor
fill
grestore
gsave
357.1 121 57.6 38.02 clipbox
175.446044 99.47414 m
177.47831 99.47414 l
177.47831 99.47414 l
175.446044 99.47414 l
cl
0.122 0.467 0.706 setrgbcolor
fill
grestore
gsave
357.1 121 57.6 38.02 clipbox
177.986376 99.47414 m
180.018643 99.47414 l
180.018643 69.364497 l
177.986376 69.364497 l
cl
0.122 0.467 0.706 setrgbcolor
fill
grestore
gsave
357.1 121 57.6 38.02 clipbox
180.526709 99.47414 m
182.558976 99.47414 l
182.558976 128.089444 l
180.526709 128.089444 l
cl
0.122 0.467 0.706 setrgbcolor
fill
grestore
gsave
357.1 121 57.6 38.02 clipbox
183.067042 99.47414 m
185.099309 99.47414 l
185.099309 99.47414 l
183.067042 99.47414 l
cl
0.122 0.467 0.706 setrgbcolor
fill
grestore
gsave
357.1 121 57.6 38.02 clipbox
185.607375 99.47414 m
187.639641 99.47414 l
187.639641 99.47414 l
185.607375 99.47414 l
cl
0.122 0.467 0.706 setrgbcolor
fill
grestore
gsave
357.1 121 57.6 38.02 clipbox
188.147708 99.47414 m
190.179974 99.47414 l
190.179974 99.47414 l
188.147708 99.47414 l
cl
0.122 0.467 0.706 setrgbcolor
fill
grestore
gsave
357.1 121 57.6 38.02 clipbox
190.688041 99.47414 m
192.720307 99.47414 l
192.720307 99.47414 l
190.688041 99.47414 l
cl
0.122 0.467 0.706 setrgbcolor
fill
grestore
gsave
357.1 121 57.6 38.02 clipbox
193.228374 99.47414 m
195.26064 99.47414 l
195.26064 99.47414 l
193.228374 99.47414 l
cl
0.122 0.467 0.706 setrgbcolor
fill
grestore
gsave
357.1 121 57.6 38.02 clipbox
195.768707 99.47414 m
197.800973 99.47414 l
197.800973 99.47414 l
195.768707 99.47414 l
cl
0.122 0.467 0.706 setrgbcolor
fill
grestore
gsave
357.1 121 57.6 38.02 clipbox
198.30904 99.47414 m
200.341306 99.47414 l
200.341306 99.47414 l
198.30904 99.47414 l
cl
0.122 0.467 0.706 setrgbcolor
fill
grestore
gsave
357.1 121 57.6 38.02 clipbox
200.849373 99.47414 m
202.881639 99.47414 l
202.881639 61.523994 l
200.849373 61.523994 l
cl
0.122 0.467 0.706 setrgbcolor
fill
grestore
gsave
357.1 121 57.6 38.02 clipbox
203.389706 99.47414 m
205.421972 99.47414 l
205.421972 99.47414 l
203.389706 99.47414 l
cl
0.122 0.467 0.706 setrgbcolor
fill
grestore
gsave
357.1 121 57.6 38.02 clipbox
205.930038 99.47414 m
207.962305 99.47414 l
207.962305 99.47414 l
205.930038 99.47414 l
cl
0.122 0.467 0.706 setrgbcolor
fill
grestore
gsave
357.1 121 57.6 38.02 clipbox
208.470371 99.47414 m
210.502638 99.47414 l
210.502638 99.47414 l
208.470371 99.47414 l
cl
0.122 0.467 0.706 setrgbcolor
fill
grestore
gsave
357.1 121 57.6 38.02 clipbox
211.010704 99.47414 m
213.042971 99.47414 l
213.042971 68.810582 l
211.010704 68.810582 l
cl
0.122 0.467 0.706 setrgbcolor
fill
grestore
gsave
357.1 121 57.6 38.02 clipbox
213.551037 99.47414 m
215.583303 99.47414 l
215.583303 99.47414 l
213.551037 99.47414 l
cl
0.122 0.467 0.706 setrgbcolor
fill
grestore
gsave
357.1 121 57.6 38.02 clipbox
216.09137 99.47414 m
218.123636 99.47414 l
218.123636 99.47414 l
216.09137 99.47414 l
cl
0.122 0.467 0.706 setrgbcolor
fill
grestore
gsave
357.1 121 57.6 38.02 clipbox
218.631703 99.47414 m
220.663969 99.47414 l
220.663969 59.164319 l
218.631703 59.164319 l
cl
0.122 0.467 0.706 setrgbcolor
fill
grestore
gsave
357.1 121 57.6 38.02 clipbox
221.172036 99.47414 m
223.204302 99.47414 l
223.204302 99.47414 l
221.172036 99.47414 l
cl
0.122 0.467 0.706 setrgbcolor
fill
grestore
gsave
357.1 121 57.6 38.02 clipbox
223.712369 99.47414 m
225.744635 99.47414 l
225.744635 99.47414 l
223.712369 99.47414 l
cl
0.122 0.467 0.706 setrgbcolor
fill
grestore
gsave
357.1 121 57.6 38.02 clipbox
226.252702 99.47414 m
228.284968 99.47414 l
228.284968 99.47414 l
226.252702 99.47414 l
cl
0.122 0.467 0.706 setrgbcolor
fill
grestore
gsave
357.1 121 57.6 38.02 clipbox
228.793035 99.47414 m
230.825301 99.47414 l
230.825301 99.47414 l
228.793035 99.47414 l
cl
0.122 0.467 0.706 setrgbcolor
fill
grestore
gsave
357.1 121 57.6 38.02 clipbox
231.333367 99.47414 m
233.365634 99.47414 l
233.365634 61.668376 l
231.333367 61.668376 l
cl
0.122 0.467 0.706 setrgbcolor
fill
grestore
gsave
357.1 121 57.6 38.02 clipbox
233.8737 99.47414 m
235.905967 99.47414 l
235.905967 99.47414 l
233.8737 99.47414 l
cl
0.122 0.467 0.706 setrgbcolor
fill
grestore
gsave
357.1 121 57.6 38.02 clipbox
236.414033 99.47414 m
238.4463 99.47414 l
238.4463 66.608202 l
236.414033 66.608202 l
cl
0.122 0.467 0.706 setrgbcolor
fill
grestore
gsave
357.1 121 57.6 38.02 clipbox
238.954366 99.47414 m
240.986633 99.47414 l
240.986633 99.47414 l
238.954366 99.47414 l
cl
0.122 0.467 0.706 setrgbcolor
fill
grestore
gsave
357.1 121 57.6 38.02 clipbox
241.494699 99.47414 m
243.526965 99.47414 l
243.526965 99.47414 l
241.494699 99.47414 l
cl
0.122 0.467 0.706 setrgbcolor
fill
grestore
gsave
357.1 121 57.6 38.02 clipbox
244.035032 99.47414 m
246.067298 99.47414 l
246.067298 99.47414 l
244.035032 99.47414 l
cl
0.122 0.467 0.706 setrgbcolor
fill
grestore
gsave
357.1 121 57.6 38.02 clipbox
246.575365 99.47414 m
248.607631 99.47414 l
248.607631 99.47414 l
246.575365 99.47414 l
cl
0.122 0.467 0.706 setrgbcolor
fill
grestore
gsave
357.1 121 57.6 38.02 clipbox
249.115698 99.47414 m
251.147964 99.47414 l
251.147964 69.232603 l
249.115698 69.232603 l
cl
0.122 0.467 0.706 setrgbcolor
fill
grestore
gsave
357.1 121 57.6 38.02 clipbox
251.656031 99.47414 m
253.688297 99.47414 l
253.688297 47.215145 l
251.656031 47.215145 l
cl
0.122 0.467 0.706 setrgbcolor
fill
grestore
gsave
357.1 121 57.6 38.02 clipbox
254.196364 99.47414 m
256.22863 99.47414 l
256.22863 99.47414 l
254.196364 99.47414 l
cl
0.122 0.467 0.706 setrgbcolor
fill
grestore
gsave
357.1 121 57.6 38.02 clipbox
256.736697 99.47414 m
258.768963 99.47414 l
258.768963 99.47414 l
256.736697 99.47414 l
cl
0.122 0.467 0.706 setrgbcolor
fill
grestore
gsave
357.1 121 57.6 38.02 clipbox
259.277029 99.47414 m
261.309296 99.47414 l
261.309296 99.47414 l
259.277029 99.47414 l
cl
0.122 0.467 0.706 setrgbcolor
fill
grestore
gsave
357.1 121 57.6 38.02 clipbox
261.817362 99.47414 m
263.849629 99.47414 l
263.849629 99.47414 l
261.817362 99.47414 l
cl
0.122 0.467 0.706 setrgbcolor
fill
grestore
gsave
357.1 121 57.6 38.02 clipbox
264.357695 99.47414 m
266.389962 99.47414 l
266.389962 134.707733 l
264.357695 134.707733 l
cl
0.122 0.467 0.706 setrgbcolor
fill
grestore
gsave
357.1 121 57.6 38.02 clipbox
266.898028 99.47414 m
268.930294 99.47414 l
268.930294 99.47414 l
266.898028 99.47414 l
cl
0.122 0.467 0.706 setrgbcolor
fill
grestore
gsave
357.1 121 57.6 38.02 clipbox
269.438361 99.47414 m
271.470627 99.47414 l
271.470627 99.47414 l
269.438361 99.47414 l
cl
0.122 0.467 0.706 setrgbcolor
fill
grestore
gsave
357.1 121 57.6 38.02 clipbox
271.978694 99.47414 m
274.01096 99.47414 l
274.01096 99.47414 l
271.978694 99.47414 l
cl
0.122 0.467 0.706 setrgbcolor
fill
grestore
gsave
357.1 121 57.6 38.02 clipbox
274.519027 99.47414 m
276.551293 99.47414 l
276.551293 99.47414 l
274.519027 99.47414 l
cl
0.122 0.467 0.706 setrgbcolor
fill
grestore
gsave
357.1 121 57.6 38.02 clipbox
277.05936 99.47414 m
279.091626 99.47414 l
279.091626 99.47414 l
277.05936 99.47414 l
cl
0.122 0.467 0.706 setrgbcolor
fill
grestore
gsave
357.1 121 57.6 38.02 clipbox
279.599693 99.47414 m
281.631959 99.47414 l
281.631959 124.449168 l
279.599693 124.449168 l
cl
0.122 0.467 0.706 setrgbcolor
fill
grestore
gsave
357.1 121 57.6 38.02 clipbox
282.140026 99.47414 m
284.172292 99.47414 l
284.172292 99.47414 l
282.140026 99.47414 l
cl
0.122 0.467 0.706 setrgbcolor
fill
grestore
gsave
357.1 121 57.6 38.02 clipbox
284.680359 99.47414 m
286.712625 99.47414 l
286.712625 68.741667 l
284.680359 68.741667 l
cl
0.122 0.467 0.706 setrgbcolor
fill
grestore
gsave
357.1 121 57.6 38.02 clipbox
287.220691 99.47414 m
289.252958 99.47414 l
289.252958 128.190179 l
287.220691 128.190179 l
cl
0.122 0.467 0.706 setrgbcolor
fill
grestore
gsave
357.1 121 57.6 38.02 clipbox
289.761024 99.47414 m
291.793291 99.47414 l
291.793291 99.47414 l
289.761024 99.47414 l
cl
0.122 0.467 0.706 setrgbcolor
fill
grestore
gsave
357.1 121 57.6 38.02 clipbox
292.301357 99.47414 m
294.333624 99.47414 l
294.333624 99.47414 l
292.301357 99.47414 l
cl
0.122 0.467 0.706 setrgbcolor
fill
grestore
gsave
357.1 121 57.6 38.02 clipbox
294.84169 99.47414 m
296.873956 99.47414 l
296.873956 99.47414 l
294.84169 99.47414 l
cl
0.122 0.467 0.706 setrgbcolor
fill
grestore
gsave
357.1 121 57.6 38.02 clipbox
297.382023 99.47414 m
299.414289 99.47414 l
299.414289 130.208077 l
297.382023 130.208077 l
cl
0.122 0.467 0.706 setrgbcolor
fill
grestore
gsave
357.1 121 57.6 38.02 clipbox
299.922356 99.47414 m
301.954622 99.47414 l
301.954622 59.823161 l
299.922356 59.823161 l
cl
0.122 0.467 0.706 setrgbcolor
fill
grestore
gsave
357.1 121 57.6 38.02 clipbox
302.462689 99.47414 m
304.494955 99.47414 l
304.494955 99.47414 l
302.462689 99.47414 l
cl
0.122 0.467 0.706 setrgbcolor
fill
grestore
gsave
357.1 121 57.6 38.02 clipbox
305.003022 99.47414 m
307.035288 99.47414 l
307.035288 99.47414 l
305.003022 99.47414 l
cl
0.122 0.467 0.706 setrgbcolor
fill
grestore
gsave
357.1 121 57.6 38.02 clipbox
307.543355 99.47414 m
309.575621 99.47414 l
309.575621 99.47414 l
307.543355 99.47414 l
cl
0.122 0.467 0.706 setrgbcolor
fill
grestore
gsave
357.1 121 57.6 38.02 clipbox
310.083688 99.47414 m
312.115954 99.47414 l
312.115954 99.47414 l
310.083688 99.47414 l
cl
0.122 0.467 0.706 setrgbcolor
fill
grestore
gsave
357.1 121 57.6 38.02 clipbox
312.62402 99.47414 m
314.656287 99.47414 l
314.656287 99.47414 l
312.62402 99.47414 l
cl
0.122 0.467 0.706 setrgbcolor
fill
grestore
gsave
357.1 121 57.6 38.02 clipbox
315.164353 99.47414 m
317.19662 99.47414 l
317.19662 99.47414 l
315.164353 99.47414 l
cl
0.122 0.467 0.706 setrgbcolor
fill
grestore
gsave
357.1 121 57.6 38.02 clipbox
317.704686 99.47414 m
319.736953 99.47414 l
319.736953 143.097562 l
317.704686 143.097562 l
cl
0.122 0.467 0.706 setrgbcolor
fill
grestore
gsave
357.1 121 57.6 38.02 clipbox
320.245019 99.47414 m
322.277286 99.47414 l
322.277286 65.051831 l
320.245019 65.051831 l
cl
0.122 0.467 0.706 setrgbcolor
fill
grestore
gsave
357.1 121 57.6 38.02 clipbox
322.785352 99.47414 m
324.817618 99.47414 l
324.817618 99.47414 l
322.785352 99.47414 l
cl
0.122 0.467 0.706 setrgbcolor
fill
grestore
gsave
357.1 121 57.6 38.02 clipbox
325.325685 99.47414 m
327.357951 99.47414 l
327.357951 99.47414 l
325.325685 99.47414 l
cl
0.122 0.467 0.706 setrgbcolor
fill
grestore
gsave
357.1 121 57.6 38.02 clipbox
327.866018 99.47414 m
329.898284 99.47414 l
329.898284 99.47414 l
327.866018 99.47414 l
cl
0.122 0.467 0.706 setrgbcolor
fill
grestore
gsave
357.1 121 57.6 38.02 clipbox
330.406351 99.47414 m
332.438617 99.47414 l
332.438617 99.47414 l
330.406351 99.47414 l
cl
0.122 0.467 0.706 setrgbcolor
fill
grestore
gsave
357.1 121 57.6 38.02 clipbox
332.946684 99.47414 m
334.97895 99.47414 l
334.97895 99.47414 l
332.946684 99.47414 l
cl
0.122 0.467 0.706 setrgbcolor
fill
grestore
gsave
357.1 121 57.6 38.02 clipbox
335.487017 99.47414 m
337.519283 99.47414 l
337.519283 99.47414 l
335.487017 99.47414 l
cl
0.122 0.467 0.706 setrgbcolor
fill
grestore
gsave
357.1 121 57.6 38.02 clipbox
338.02735 99.47414 m
340.059616 99.47414 l
340.059616 99.47414 l
338.02735 99.47414 l
cl
0.122 0.467 0.706 setrgbcolor
fill
grestore
gsave
357.1 121 57.6 38.02 clipbox
340.567682 99.47414 m
342.599949 99.47414 l
342.599949 99.47414 l
340.567682 99.47414 l
cl
0.122 0.467 0.706 setrgbcolor
fill
grestore
gsave
357.1 121 57.6 38.02 clipbox
343.108015 99.47414 m
345.140282 99.47414 l
345.140282 99.47414 l
343.108015 99.47414 l
cl
0.122 0.467 0.706 setrgbcolor
fill
grestore
gsave
357.1 121 57.6 38.02 clipbox
345.648348 99.47414 m
347.680615 99.47414 l
347.680615 99.47414 l
345.648348 99.47414 l
cl
0.122 0.467 0.706 setrgbcolor
fill
grestore
gsave
357.1 121 57.6 38.02 clipbox
348.188681 99.47414 m
350.220948 99.47414 l
350.220948 99.47414 l
348.188681 99.47414 l
cl
0.122 0.467 0.706 setrgbcolor
fill
grestore
gsave
357.1 121 57.6 38.02 clipbox
350.729014 99.47414 m
352.76128 99.47414 l
352.76128 99.47414 l
350.729014 99.47414 l
cl
0.122 0.467 0.706 setrgbcolor
fill
grestore
gsave
357.1 121 57.6 38.02 clipbox
353.269347 99.47414 m
355.301613 99.47414 l
355.301613 99.47414 l
353.269347 99.47414 l
cl
0.122 0.467 0.706 setrgbcolor
fill
grestore
gsave
357.1 121 57.6 38.02 clipbox
355.80968 99.47414 m
357.841946 99.47414 l
357.841946 138.581924 l
355.80968 138.581924 l
cl
0.122 0.467 0.706 setrgbcolor
fill
grestore
gsave
357.1 121 57.6 38.02 clipbox
358.350013 99.47414 m
360.382279 99.47414 l
360.382279 99.47414 l
358.350013 99.47414 l
cl
0.122 0.467 0.706 setrgbcolor
fill
grestore
gsave
357.1 121 57.6 38.02 clipbox
360.890346 99.47414 m
362.922612 99.47414 l
362.922612 70.719895 l
360.890346 70.719895 l
cl
0.122 0.467 0.706 setrgbcolor
fill
grestore
gsave
357.1 121 57.6 38.02 clipbox
363.430679 99.47414 m
365.462945 99.47414 l
365.462945 99.47414 l
363.430679 99.47414 l
cl
0.122 0.467 0.706 setrgbcolor
fill
grestore
gsave
357.1 121 57.6 38.02 clipbox
365.971012 99.47414 m
368.003278 99.47414 l
368.003278 99.47414 l
365.971012 99.47414 l
cl
0.122 0.467 0.706 setrgbcolor
fill
grestore
gsave
357.1 121 57.6 38.02 clipbox
368.511344 99.47414 m
370.543611 99.47414 l
370.543611 99.47414 l
368.511344 99.47414 l
cl
0.122 0.467 0.706 setrgbcolor
fill
grestore
gsave
357.1 121 57.6 38.02 clipbox
371.051677 99.47414 m
373.083944 99.47414 l
373.083944 67.394947 l
371.051677 67.394947 l
cl
0.122 0.467 0.706 setrgbcolor
fill
grestore
gsave
357.1 121 57.6 38.02 clipbox
373.59201 99.47414 m
375.624277 99.47414 l
375.624277 99.47414 l
373.59201 99.47414 l
cl
0.122 0.467 0.706 setrgbcolor
fill
grestore
gsave
357.1 121 57.6 38.02 clipbox
376.132343 99.47414 m
378.164609 99.47414 l
378.164609 99.47414 l
376.132343 99.47414 l
cl
0.122 0.467 0.706 setrgbcolor
fill
grestore
gsave
357.1 121 57.6 38.02 clipbox
378.672676 99.47414 m
380.704942 99.47414 l
380.704942 99.47414 l
378.672676 99.47414 l
cl
0.122 0.467 0.706 setrgbcolor
fill
grestore
gsave
357.1 121 57.6 38.02 clipbox
381.213009 99.47414 m
383.245275 99.47414 l
383.245275 99.47414 l
381.213009 99.47414 l
cl
0.122 0.467 0.706 setrgbcolor
fill
grestore
gsave
357.1 121 57.6 38.02 clipbox
383.753342 99.47414 m
385.785608 99.47414 l
385.785608 128.430423 l
383.753342 128.430423 l
cl
0.122 0.467 0.706 setrgbcolor
fill
grestore
gsave
357.1 121 57.6 38.02 clipbox
386.293675 99.47414 m
388.325941 99.47414 l
388.325941 43.514182 l
386.293675 43.514182 l
cl
0.122 0.467 0.706 setrgbcolor
fill
grestore
gsave
357.1 121 57.6 38.02 clipbox
388.834008 99.47414 m
390.866274 99.47414 l
390.866274 99.47414 l
388.834008 99.47414 l
cl
0.122 0.467 0.706 setrgbcolor
fill
grestore
gsave
357.1 121 57.6 38.02 clipbox
391.374341 99.47414 m
393.406607 99.47414 l
393.406607 153.477818 l
391.374341 153.477818 l
cl
0.122 0.467 0.706 setrgbcolor
fill
grestore
gsave
357.1 121 57.6 38.02 clipbox
393.914673 99.47414 m
395.94694 99.47414 l
395.94694 99.47414 l
393.914673 99.47414 l
cl
0.122 0.467 0.706 setrgbcolor
fill
grestore
gsave
357.1 121 57.6 38.02 clipbox
396.455006 99.47414 m
398.487273 99.47414 l
398.487273 130.572024 l
396.455006 130.572024 l
cl
0.122 0.467 0.706 setrgbcolor
fill
grestore
1 setlinejoin
0 setlinecap
[] 0 setdash
gsave
/o {
gsave
newpath
translate
0.8 setlinewidth
1 setlinejoin
0 setlinecap
0 0 m
0 -3.5 l

gsave
0.000 setgray
fill
grestore
stroke
grestore
} bind def
74.8489 38.016 o
grestore
gsave
71.669173 23.422250 translate
0.000000 rotate
0.000000 0.000000 m /zero glyphshow
grestore
gsave
/o {
gsave
newpath
translate
0.8 setlinewidth
1 setlinejoin
0 setlinecap
0 0 m
0 -3.5 l

gsave
0.000 setgray
fill
grestore
stroke
grestore
} bind def
125.656 38.016 o
grestore
gsave
119.296144 23.422250 translate
0.000000 rotate
0.000000 0.000000 m /two glyphshow
6.362305 0.000000 m /zero glyphshow
grestore
gsave
/o {
gsave
newpath
translate
0.8 setlinewidth
1 setlinejoin
0 setlinecap
0 0 m
0 -3.5 l

gsave
0.000 setgray
fill
grestore
stroke
grestore
} bind def
176.462 38.016 o
grestore
gsave
170.102802 23.422250 translate
0.000000 rotate
0.000000 0.000000 m /four glyphshow
6.362305 0.000000 m /zero glyphshow
grestore
gsave
/o {
gsave
newpath
translate
0.8 setlinewidth
1 setlinejoin
0 setlinecap
0 0 m
0 -3.5 l

gsave
0.000 setgray
fill
grestore
stroke
grestore
} bind def
227.269 38.016 o
grestore
gsave
220.909460 23.422250 translate
0.000000 rotate
0.000000 0.000000 m /six glyphshow
6.362305 0.000000 m /zero glyphshow
grestore
gsave
/o {
gsave
newpath
translate
0.8 setlinewidth
1 setlinejoin
0 setlinecap
0 0 m
0 -3.5 l

gsave
0.000 setgray
fill
grestore
stroke
grestore
} bind def
278.075 38.016 o
grestore
gsave
271.716118 23.422250 translate
0.000000 rotate
0.000000 0.000000 m /eight glyphshow
6.362305 0.000000 m /zero glyphshow
grestore
gsave
/o {
gsave
newpath
translate
0.8 setlinewidth
1 setlinejoin
0 setlinecap
0 0 m
0 -3.5 l

gsave
0.000 setgray
fill
grestore
stroke
grestore
} bind def
328.882 38.016 o
grestore
gsave
319.343089 23.422250 translate
0.000000 rotate
0.000000 0.000000 m /one glyphshow
6.362305 0.000000 m /zero glyphshow
12.724609 0.000000 m /zero glyphshow
grestore
gsave
/o {
gsave
newpath
translate
0.8 setlinewidth
1 setlinejoin
0 setlinecap
0 0 m
0 -3.5 l

gsave
0.000 setgray
fill
grestore
stroke
grestore
} bind def
379.689 38.016 o
grestore
gsave
370.149747 23.422250 translate
0.000000 rotate
0.000000 0.000000 m /one glyphshow
6.362305 0.000000 m /two glyphshow
12.724609 0.000000 m /zero glyphshow
grestore
gsave
/o {
gsave
newpath
translate
0.8 setlinewidth
1 setlinejoin
0 setlinecap
0 0 m
-3.5 0 l

gsave
0.000 setgray
fill
grestore
stroke
grestore
} bind def
57.6 68.1976 o
grestore
gsave
13.600000 64.400723 translate
0.000000 rotate
0.000000 0.000000 m /minus glyphshow
8.378906 0.000000 m /zero glyphshow
14.741211 0.000000 m /period glyphshow
17.919922 0.000000 m /zero glyphshow
24.282227 0.000000 m /zero glyphshow
30.644531 0.000000 m /five glyphshow
grestore
gsave
/o {
gsave
newpath
translate
0.8 setlinewidth
1 setlinejoin
0 setlinecap
0 0 m
-3.5 0 l

gsave
0.000 setgray
fill
grestore
stroke
grestore
} bind def
57.6 99.4741 o
grestore
gsave
21.975000 95.677265 translate
0.000000 rotate
0.000000 0.000000 m /zero glyphshow
6.362305 0.000000 m /period glyphshow
9.541016 0.000000 m /zero glyphshow
15.903320 0.000000 m /zero glyphshow
22.265625 0.000000 m /zero glyphshow
grestore
gsave
/o {
gsave
newpath
translate
0.8 setlinewidth
1 setlinejoin
0 setlinecap
0 0 m
-3.5 0 l

gsave
0.000 setgray
fill
grestore
stroke
grestore
} bind def
57.6 130.751 o
grestore
gsave
21.975000 126.953807 translate
0.000000 rotate
0.000000 0.000000 m /zero glyphshow
6.362305 0.000000 m /period glyphshow
9.541016 0.000000 m /zero glyphshow
15.903320 0.000000 m /zero glyphshow
22.265625 0.000000 m /five glyphshow
grestore
0 setlinejoin
2 setlinecap
[] 0 setdash
gsave
57.6 38.016 m
57.6 158.976 l
stroke
grestore
gsave
414.72 38.016 m
414.72 158.976 l
stroke
grestore
gsave
57.6 38.016 m
414.72 38.016 l
stroke
grestore
gsave
57.6 158.976 m
414.72 158.976 l
stroke
grestore

end
showpage
