%!PS-Adobe-3.0 EPSF-3.0
%%Title: /home/quent/Documents/repos/latex/master-thesis/figures/overfitting.eps
%%Creator: matplotlib version 3.0.2, http://matplotlib.org/
%%CreationDate: Thu May  9 15:39:07 2019
%%Orientation: portrait
%%BoundingBox: -270 216 882 576
%%EndComments
%%BeginProlog
/mpldict 8 dict def
mpldict begin
/m { moveto } bind def
/l { lineto } bind def
/r { rlineto } bind def
/c { curveto } bind def
/cl { closepath } bind def
/box {
m
1 index 0 r
0 exch r
neg 0 r
cl
} bind def
/clipbox {
box
clip
newpath
} bind def
%!PS-Adobe-3.0 Resource-Font
%%Title: DejaVu Sans
%%Copyright: Copyright (c) 2003 by Bitstream, Inc. All Rights Reserved. Copyright (c) 2006 by Tavmjong Bah. All Rights Reserved. DejaVu changes are in public domain 
%%Creator: Converted from TrueType to type 3 by PPR
25 dict begin
/_d{bind def}bind def
/_m{moveto}_d
/_l{lineto}_d
/_cl{closepath eofill}_d
/_c{curveto}_d
/_sc{7 -1 roll{setcachedevice}{pop pop pop pop pop pop}ifelse}_d
/_e{exec}_d
/FontName /DejaVuSans def
/PaintType 0 def
/FontMatrix[.001 0 0 .001 0 0]def
/FontBBox[-1021 -463 1793 1232]def
/FontType 3 def
/Encoding [ /space /parenleft /parenright /plus /hyphen /period /zero /one /two /three /four /five /seven /eight /colon /equal /A /D /E /M /O /S /T /U /a /c /d /e /f /g /i /l /m /n /o /p /r /s /t /u /v /x /y /plusminus ] def
/FontInfo 10 dict dup begin
/FamilyName (DejaVu Sans) def
/FullName (DejaVu Sans) def
/Notice (Copyright (c) 2003 by Bitstream, Inc. All Rights Reserved. Copyright (c) 2006 by Tavmjong Bah. All Rights Reserved. DejaVu changes are in public domain ) def
/Weight (Book) def
/Version (Version 2.35) def
/ItalicAngle 0.0 def
/isFixedPitch false def
/UnderlinePosition -130 def
/UnderlineThickness 90 def
end readonly def
/CharStrings 45 dict dup begin
/.notdef 0 def
/space{318 0 0 0 0 0 _sc
}_d
/parenleft{390 0 86 -131 310 759 _sc
310 759 _m
266 683 234 609 213 536 _c
191 463 181 389 181 314 _c
181 238 191 164 213 91 _c
234 17 266 -56 310 -131 _c
232 -131 _l
183 -54 146 20 122 94 _c
98 168 86 241 86 314 _c
86 386 98 459 122 533 _c
146 607 182 682 232 759 _c
310 759 _l
_cl}_d
/parenright{390 0 80 -131 304 759 _sc
80 759 _m
158 759 _l
206 682 243 607 267 533 _c
291 459 304 386 304 314 _c
304 241 291 168 267 94 _c
243 20 206 -54 158 -131 _c
80 -131 _l
123 -56 155 17 177 91 _c
198 164 209 238 209 314 _c
209 389 198 463 177 536 _c
155 609 123 683 80 759 _c
_cl}_d
/plus{838 0 106 0 732 627 _sc
460 627 _m
460 355 _l
732 355 _l
732 272 _l
460 272 _l
460 0 _l
378 0 _l
378 272 _l
106 272 _l
106 355 _l
378 355 _l
378 627 _l
460 627 _l
_cl}_d
/hyphen{361 0 49 234 312 314 _sc
49 314 _m
312 314 _l
312 234 _l
49 234 _l
49 314 _l
_cl}_d
/period{318 0 107 0 210 124 _sc
107 124 _m
210 124 _l
210 0 _l
107 0 _l
107 124 _l
_cl}_d
/zero{636 0 66 -13 570 742 _sc
318 664 _m
267 664 229 639 203 589 _c
177 539 165 464 165 364 _c
165 264 177 189 203 139 _c
229 89 267 64 318 64 _c
369 64 407 89 433 139 _c
458 189 471 264 471 364 _c
471 464 458 539 433 589 _c
407 639 369 664 318 664 _c
318 742 _m
399 742 461 709 505 645 _c
548 580 570 486 570 364 _c
570 241 548 147 505 83 _c
461 19 399 -13 318 -13 _c
236 -13 173 19 130 83 _c
87 147 66 241 66 364 _c
66 486 87 580 130 645 _c
173 709 236 742 318 742 _c
_cl}_d
/one{636 0 110 0 544 729 _sc
124 83 _m
285 83 _l
285 639 _l
110 604 _l
110 694 _l
284 729 _l
383 729 _l
383 83 _l
544 83 _l
544 0 _l
124 0 _l
124 83 _l
_cl}_d
/two{{636 0 73 0 536 742 _sc
192 83 _m
536 83 _l
536 0 _l
73 0 _l
73 83 _l
110 121 161 173 226 239 _c
290 304 331 346 348 365 _c
380 400 402 430 414 455 _c
426 479 433 504 433 528 _c
433 566 419 598 392 622 _c
365 646 330 659 286 659 _c
255 659 222 653 188 643 _c
154 632 117 616 78 594 _c
78 694 _l
118 710 155 722 189 730 _c
223 738 255 742 284 742 _c
}_e{359 742 419 723 464 685 _c
509 647 532 597 532 534 _c
532 504 526 475 515 449 _c
504 422 484 390 454 354 _c
446 344 420 317 376 272 _c
332 227 271 164 192 83 _c
_cl}_e}_d
/three{{636 0 76 -13 556 742 _sc
406 393 _m
453 383 490 362 516 330 _c
542 298 556 258 556 212 _c
556 140 531 84 482 45 _c
432 6 362 -13 271 -13 _c
240 -13 208 -10 176 -4 _c
144 1 110 10 76 22 _c
76 117 _l
103 101 133 89 166 81 _c
198 73 232 69 268 69 _c
330 69 377 81 409 105 _c
441 129 458 165 458 212 _c
458 254 443 288 413 312 _c
383 336 341 349 287 349 _c
}_e{202 349 _l
202 430 _l
291 430 _l
339 430 376 439 402 459 _c
428 478 441 506 441 543 _c
441 580 427 609 401 629 _c
374 649 336 659 287 659 _c
260 659 231 656 200 650 _c
169 644 135 635 98 623 _c
98 711 _l
135 721 170 729 203 734 _c
235 739 266 742 296 742 _c
370 742 429 725 473 691 _c
517 657 539 611 539 553 _c
539 513 527 479 504 451 _c
481 423 448 403 406 393 _c
_cl}_e}_d
/four{636 0 49 0 580 729 _sc
378 643 _m
129 254 _l
378 254 _l
378 643 _l
352 729 _m
476 729 _l
476 254 _l
580 254 _l
580 172 _l
476 172 _l
476 0 _l
378 0 _l
378 172 _l
49 172 _l
49 267 _l
352 729 _l
_cl}_d
/five{{636 0 77 -13 549 729 _sc
108 729 _m
495 729 _l
495 646 _l
198 646 _l
198 467 _l
212 472 227 476 241 478 _c
255 480 270 482 284 482 _c
365 482 429 459 477 415 _c
525 370 549 310 549 234 _c
549 155 524 94 475 51 _c
426 8 357 -13 269 -13 _c
238 -13 207 -10 175 -6 _c
143 -1 111 6 77 17 _c
77 116 _l
106 100 136 88 168 80 _c
199 72 232 69 267 69 _c
}_e{323 69 368 83 401 113 _c
433 143 450 183 450 234 _c
450 284 433 324 401 354 _c
368 384 323 399 267 399 _c
241 399 214 396 188 390 _c
162 384 135 375 108 363 _c
108 729 _l
_cl}_e}_d
/seven{636 0 82 0 551 729 _sc
82 729 _m
551 729 _l
551 687 _l
286 0 _l
183 0 _l
432 646 _l
82 646 _l
82 729 _l
_cl}_d
/eight{{636 0 68 -13 568 742 _sc
318 346 _m
271 346 234 333 207 308 _c
180 283 167 249 167 205 _c
167 161 180 126 207 101 _c
234 76 271 64 318 64 _c
364 64 401 76 428 102 _c
455 127 469 161 469 205 _c
469 249 455 283 429 308 _c
402 333 365 346 318 346 _c
219 388 _m
177 398 144 418 120 447 _c
96 476 85 511 85 553 _c
85 611 105 657 147 691 _c
188 725 245 742 318 742 _c
}_e{390 742 447 725 489 691 _c
530 657 551 611 551 553 _c
551 511 539 476 515 447 _c
491 418 459 398 417 388 _c
464 377 501 355 528 323 _c
554 291 568 251 568 205 _c
568 134 546 80 503 43 _c
459 5 398 -13 318 -13 _c
237 -13 175 5 132 43 _c
89 80 68 134 68 205 _c
68 251 81 291 108 323 _c
134 355 171 377 219 388 _c
183 544 _m
183 506 194 476 218 455 _c
}_e{242 434 275 424 318 424 _c
360 424 393 434 417 455 _c
441 476 453 506 453 544 _c
453 582 441 611 417 632 _c
393 653 360 664 318 664 _c
275 664 242 653 218 632 _c
194 611 183 582 183 544 _c
_cl}_e}_d
/colon{337 0 117 0 220 517 _sc
117 124 _m
220 124 _l
220 0 _l
117 0 _l
117 124 _l
117 517 _m
220 517 _l
220 393 _l
117 393 _l
117 517 _l
_cl}_d
/equal{838 0 106 172 732 454 _sc
106 454 _m
732 454 _l
732 372 _l
106 372 _l
106 454 _l
106 255 _m
732 255 _l
732 172 _l
106 172 _l
106 255 _l
_cl}_d
/A{684 0 8 0 676 729 _sc
342 632 _m
208 269 _l
476 269 _l
342 632 _l
286 729 _m
398 729 _l
676 0 _l
573 0 _l
507 187 _l
178 187 _l
112 0 _l
8 0 _l
286 729 _l
_cl}_d
/D{770 0 98 0 711 729 _sc
197 648 _m
197 81 _l
316 81 _l
416 81 490 103 537 149 _c
583 195 607 267 607 365 _c
607 463 583 534 537 580 _c
490 625 416 648 316 648 _c
197 648 _l
98 729 _m
301 729 _l
442 729 546 699 612 641 _c
678 582 711 490 711 365 _c
711 239 677 147 611 88 _c
545 29 441 0 301 0 _c
98 0 _l
98 729 _l
_cl}_d
/E{632 0 98 0 568 729 _sc
98 729 _m
559 729 _l
559 646 _l
197 646 _l
197 430 _l
544 430 _l
544 347 _l
197 347 _l
197 83 _l
568 83 _l
568 0 _l
98 0 _l
98 729 _l
_cl}_d
/M{863 0 98 0 765 729 _sc
98 729 _m
245 729 _l
431 233 _l
618 729 _l
765 729 _l
765 0 _l
669 0 _l
669 640 _l
481 140 _l
382 140 _l
194 640 _l
194 0 _l
98 0 _l
98 729 _l
_cl}_d
/O{787 0 56 -13 731 742 _sc
394 662 _m
322 662 265 635 223 582 _c
181 528 160 456 160 364 _c
160 272 181 199 223 146 _c
265 92 322 66 394 66 _c
465 66 522 92 564 146 _c
606 199 627 272 627 364 _c
627 456 606 528 564 582 _c
522 635 465 662 394 662 _c
394 742 _m
496 742 577 707 639 639 _c
700 571 731 479 731 364 _c
731 248 700 157 639 89 _c
577 21 496 -13 394 -13 _c
291 -13 209 21 148 89 _c
86 157 56 248 56 364 _c
56 479 86 571 148 639 _c
209 707 291 742 394 742 _c
_cl}_d
/S{{635 0 66 -13 579 742 _sc
535 705 _m
535 609 _l
497 627 462 640 429 649 _c
395 657 363 662 333 662 _c
279 662 237 651 208 631 _c
179 610 165 580 165 542 _c
165 510 174 485 194 469 _c
213 452 250 439 304 429 _c
364 417 _l
437 403 491 378 526 343 _c
561 307 579 260 579 201 _c
579 130 555 77 508 41 _c
460 5 391 -13 300 -13 _c
265 -13 228 -9 189 -2 _c
}_e{150 5 110 16 69 32 _c
69 134 _l
109 111 148 94 186 83 _c
224 71 262 66 300 66 _c
356 66 399 77 430 99 _c
460 121 476 152 476 194 _c
476 230 465 258 443 278 _c
421 298 385 313 335 323 _c
275 335 _l
201 349 148 372 115 404 _c
82 435 66 478 66 534 _c
66 598 88 649 134 686 _c
179 723 242 742 322 742 _c
356 742 390 739 426 733 _c
461 727 497 717 535 705 _c
}_e{_cl}_e}_d
/T{611 0 -2 0 614 729 _sc
-2 729 _m
614 729 _l
614 646 _l
355 646 _l
355 0 _l
256 0 _l
256 646 _l
-2 646 _l
-2 729 _l
_cl}_d
/U{732 0 87 -13 645 729 _sc
87 729 _m
186 729 _l
186 286 _l
186 208 200 151 228 117 _c
256 83 302 66 366 66 _c
429 66 475 83 503 117 _c
531 151 546 208 546 286 _c
546 729 _l
645 729 _l
645 274 _l
645 178 621 107 574 59 _c
527 11 458 -13 366 -13 _c
274 -13 204 11 157 59 _c
110 107 87 178 87 274 _c
87 729 _l
_cl}_d
/a{{613 0 60 -13 522 560 _sc
343 275 _m
270 275 220 266 192 250 _c
164 233 150 205 150 165 _c
150 133 160 107 181 89 _c
202 70 231 61 267 61 _c
317 61 357 78 387 114 _c
417 149 432 196 432 255 _c
432 275 _l
343 275 _l
522 312 _m
522 0 _l
432 0 _l
432 83 _l
411 49 385 25 355 10 _c
325 -5 287 -13 243 -13 _c
187 -13 142 2 109 33 _c
76 64 60 106 60 159 _c
}_e{60 220 80 266 122 298 _c
163 329 224 345 306 345 _c
432 345 _l
432 354 _l
432 395 418 427 391 450 _c
364 472 326 484 277 484 _c
245 484 215 480 185 472 _c
155 464 127 453 100 439 _c
100 522 _l
132 534 164 544 195 550 _c
226 556 256 560 286 560 _c
365 560 424 539 463 498 _c
502 457 522 395 522 312 _c
_cl}_e}_d
/c{{550 0 55 -13 488 560 _sc
488 526 _m
488 442 _l
462 456 437 466 411 473 _c
385 480 360 484 334 484 _c
276 484 230 465 198 428 _c
166 391 150 339 150 273 _c
150 206 166 154 198 117 _c
230 80 276 62 334 62 _c
360 62 385 65 411 72 _c
437 79 462 90 488 104 _c
488 21 _l
462 9 436 0 410 -5 _c
383 -10 354 -13 324 -13 _c
242 -13 176 12 128 64 _c
}_e{79 115 55 185 55 273 _c
55 362 79 432 128 483 _c
177 534 244 560 330 560 _c
358 560 385 557 411 551 _c
437 545 463 537 488 526 _c
_cl}_e}_d
/d{{635 0 55 -13 544 760 _sc
454 464 _m
454 760 _l
544 760 _l
544 0 _l
454 0 _l
454 82 _l
435 49 411 25 382 10 _c
353 -5 319 -13 279 -13 _c
213 -13 159 13 117 65 _c
75 117 55 187 55 273 _c
55 359 75 428 117 481 _c
159 533 213 560 279 560 _c
319 560 353 552 382 536 _c
411 520 435 496 454 464 _c
148 273 _m
148 207 161 155 188 117 _c
215 79 253 61 301 61 _c
}_e{348 61 385 79 413 117 _c
440 155 454 207 454 273 _c
454 339 440 390 413 428 _c
385 466 348 485 301 485 _c
253 485 215 466 188 428 _c
161 390 148 339 148 273 _c
_cl}_e}_d
/e{{615 0 55 -13 562 560 _sc
562 296 _m
562 252 _l
149 252 _l
153 190 171 142 205 110 _c
238 78 284 62 344 62 _c
378 62 412 66 444 74 _c
476 82 509 95 541 113 _c
541 28 _l
509 14 476 3 442 -3 _c
408 -9 373 -13 339 -13 _c
251 -13 182 12 131 62 _c
80 112 55 181 55 268 _c
55 357 79 428 127 481 _c
175 533 241 560 323 560 _c
397 560 455 536 498 489 _c
}_e{540 441 562 377 562 296 _c
472 322 _m
471 371 457 410 431 440 _c
404 469 368 484 324 484 _c
274 484 234 469 204 441 _c
174 413 156 373 152 322 _c
472 322 _l
_cl}_e}_d
/f{352 0 23 0 371 760 _sc
371 760 _m
371 685 _l
285 685 _l
253 685 230 678 218 665 _c
205 652 199 629 199 595 _c
199 547 _l
347 547 _l
347 477 _l
199 477 _l
199 0 _l
109 0 _l
109 477 _l
23 477 _l
23 547 _l
109 547 _l
109 585 _l
109 645 123 690 151 718 _c
179 746 224 760 286 760 _c
371 760 _l
_cl}_d
/g{{635 0 55 -207 544 560 _sc
454 280 _m
454 344 440 395 414 431 _c
387 467 349 485 301 485 _c
253 485 215 467 188 431 _c
161 395 148 344 148 280 _c
148 215 161 165 188 129 _c
215 93 253 75 301 75 _c
349 75 387 93 414 129 _c
440 165 454 215 454 280 _c
544 68 _m
544 -24 523 -93 482 -139 _c
440 -184 377 -207 292 -207 _c
260 -207 231 -204 203 -200 _c
175 -195 147 -188 121 -178 _c
}_e{121 -91 _l
147 -105 173 -115 199 -122 _c
225 -129 251 -133 278 -133 _c
336 -133 380 -117 410 -87 _c
439 -56 454 -10 454 52 _c
454 96 _l
435 64 411 40 382 24 _c
353 8 319 0 279 0 _c
211 0 157 25 116 76 _c
75 127 55 195 55 280 _c
55 364 75 432 116 483 _c
157 534 211 560 279 560 _c
319 560 353 552 382 536 _c
411 520 435 496 454 464 _c
454 547 _l
544 547 _l
}_e{544 68 _l
_cl}_e}_d
/i{278 0 94 0 184 760 _sc
94 547 _m
184 547 _l
184 0 _l
94 0 _l
94 547 _l
94 760 _m
184 760 _l
184 646 _l
94 646 _l
94 760 _l
_cl}_d
/l{278 0 94 0 184 760 _sc
94 760 _m
184 760 _l
184 0 _l
94 0 _l
94 760 _l
_cl}_d
/m{{974 0 91 0 889 560 _sc
520 442 _m
542 482 569 511 600 531 _c
631 550 668 560 711 560 _c
767 560 811 540 842 500 _c
873 460 889 403 889 330 _c
889 0 _l
799 0 _l
799 327 _l
799 379 789 418 771 444 _c
752 469 724 482 686 482 _c
639 482 602 466 575 435 _c
548 404 535 362 535 309 _c
535 0 _l
445 0 _l
445 327 _l
445 379 435 418 417 444 _c
398 469 369 482 331 482 _c
}_e{285 482 248 466 221 435 _c
194 404 181 362 181 309 _c
181 0 _l
91 0 _l
91 547 _l
181 547 _l
181 462 _l
201 495 226 520 255 536 _c
283 552 317 560 357 560 _c
397 560 430 550 458 530 _c
486 510 506 480 520 442 _c
_cl}_e}_d
/n{634 0 91 0 549 560 _sc
549 330 _m
549 0 _l
459 0 _l
459 327 _l
459 379 448 417 428 443 _c
408 469 378 482 338 482 _c
289 482 251 466 223 435 _c
195 404 181 362 181 309 _c
181 0 _l
91 0 _l
91 547 _l
181 547 _l
181 462 _l
202 494 227 519 257 535 _c
286 551 320 560 358 560 _c
420 560 468 540 500 501 _c
532 462 549 405 549 330 _c
_cl}_d
/o{612 0 55 -13 557 560 _sc
306 484 _m
258 484 220 465 192 427 _c
164 389 150 338 150 273 _c
150 207 163 156 191 118 _c
219 80 257 62 306 62 _c
354 62 392 80 420 118 _c
448 156 462 207 462 273 _c
462 337 448 389 420 427 _c
392 465 354 484 306 484 _c
306 560 _m
384 560 445 534 490 484 _c
534 433 557 363 557 273 _c
557 183 534 113 490 63 _c
445 12 384 -13 306 -13 _c
227 -13 165 12 121 63 _c
77 113 55 183 55 273 _c
55 363 77 433 121 484 _c
165 534 227 560 306 560 _c
_cl}_d
/p{{635 0 91 -207 580 560 _sc
181 82 _m
181 -207 _l
91 -207 _l
91 547 _l
181 547 _l
181 464 _l
199 496 223 520 252 536 _c
281 552 316 560 356 560 _c
422 560 476 533 518 481 _c
559 428 580 359 580 273 _c
580 187 559 117 518 65 _c
476 13 422 -13 356 -13 _c
316 -13 281 -5 252 10 _c
223 25 199 49 181 82 _c
487 273 _m
487 339 473 390 446 428 _c
418 466 381 485 334 485 _c
}_e{286 485 249 466 222 428 _c
194 390 181 339 181 273 _c
181 207 194 155 222 117 _c
249 79 286 61 334 61 _c
381 61 418 79 446 117 _c
473 155 487 207 487 273 _c
_cl}_e}_d
/r{411 0 91 0 411 560 _sc
411 463 _m
401 469 390 473 378 476 _c
366 478 353 480 339 480 _c
288 480 249 463 222 430 _c
194 397 181 350 181 288 _c
181 0 _l
91 0 _l
91 547 _l
181 547 _l
181 462 _l
199 495 224 520 254 536 _c
284 552 321 560 365 560 _c
371 560 378 559 386 559 _c
393 558 401 557 411 555 _c
411 463 _l
_cl}_d
/s{{521 0 54 -13 472 560 _sc
443 531 _m
443 446 _l
417 458 391 468 364 475 _c
336 481 308 485 279 485 _c
234 485 200 478 178 464 _c
156 450 145 430 145 403 _c
145 382 153 366 169 354 _c
185 342 217 330 265 320 _c
296 313 _l
360 299 405 279 432 255 _c
458 230 472 195 472 151 _c
472 100 452 60 412 31 _c
372 1 316 -13 246 -13 _c
216 -13 186 -10 154 -5 _c
}_e{122 0 89 8 54 20 _c
54 113 _l
87 95 120 82 152 74 _c
184 65 216 61 248 61 _c
290 61 323 68 346 82 _c
368 96 380 117 380 144 _c
380 168 371 187 355 200 _c
339 213 303 226 247 238 _c
216 245 _l
160 257 119 275 95 299 _c
70 323 58 356 58 399 _c
58 450 76 490 112 518 _c
148 546 200 560 268 560 _c
301 560 332 557 362 552 _c
391 547 418 540 443 531 _c
}_e{_cl}_e}_d
/t{392 0 27 0 368 702 _sc
183 702 _m
183 547 _l
368 547 _l
368 477 _l
183 477 _l
183 180 _l
183 135 189 106 201 94 _c
213 81 238 75 276 75 _c
368 75 _l
368 0 _l
276 0 _l
206 0 158 13 132 39 _c
106 65 93 112 93 180 _c
93 477 _l
27 477 _l
27 547 _l
93 547 _l
93 702 _l
183 702 _l
_cl}_d
/u{634 0 85 -13 543 560 _sc
85 216 _m
85 547 _l
175 547 _l
175 219 _l
175 167 185 129 205 103 _c
225 77 255 64 296 64 _c
344 64 383 79 411 110 _c
439 141 453 183 453 237 _c
453 547 _l
543 547 _l
543 0 _l
453 0 _l
453 84 _l
431 50 405 26 377 10 _c
348 -5 315 -13 277 -13 _c
214 -13 166 6 134 45 _c
101 83 85 140 85 216 _c
311 560 _m
311 560 _l
_cl}_d
/v{592 0 30 0 562 547 _sc
30 547 _m
125 547 _l
296 88 _l
467 547 _l
562 547 _l
357 0 _l
235 0 _l
30 547 _l
_cl}_d
/x{592 0 29 0 559 547 _sc
549 547 _m
351 281 _l
559 0 _l
453 0 _l
294 215 _l
135 0 _l
29 0 _l
241 286 _l
47 547 _l
153 547 _l
298 352 _l
443 547 _l
549 547 _l
_cl}_d
/y{592 0 30 -207 562 547 _sc
322 -50 _m
296 -114 271 -157 247 -177 _c
223 -197 191 -207 151 -207 _c
79 -207 _l
79 -132 _l
132 -132 _l
156 -132 175 -126 189 -114 _c
203 -102 218 -75 235 -31 _c
251 9 _l
30 547 _l
125 547 _l
296 119 _l
467 547 _l
562 547 _l
322 -50 _l
_cl}_d
/plusminus{838 0 106 0 732 627 _sc
460 627 _m
460 438 _l
732 438 _l
732 355 _l
460 355 _l
460 166 _l
378 166 _l
378 355 _l
106 355 _l
106 438 _l
378 438 _l
378 627 _l
460 627 _l
106 83 _m
732 83 _l
732 0 _l
106 0 _l
106 83 _l
_cl}_d
end readonly def

/BuildGlyph
 {exch begin
 CharStrings exch
 2 copy known not{pop /.notdef}if
 true 3 1 roll get exec
 end}_d

/BuildChar {
 1 index /Encoding get exch get
 1 index /BuildGlyph get exec
}_d

FontName currentdict end definefont pop
end
%%EndProlog
mpldict begin
-270 216 translate
1152 360 0 0 clipbox
gsave
0 0 m
1152 0 l
1152 360 l
0 360 l
cl
1.000 setgray
fill
grestore
gsave
28.8 28.8 m
376.9 28.8 l
376.9 312.3 l
28.8 312.3 l
cl
1.000 setgray
fill
grestore
1.000 setlinewidth
1 setlinejoin
0 setlinecap
[] 0 setdash
0.000 0.000 1.000 setrgbcolor
gsave
348.1 283.5 28.8 28.8 clipbox
/o {
gsave
newpath
translate
1.0 setlinewidth
1 setlinejoin
0 setlinecap
0 -2.236068 m
0.593012 -2.236068 1.161816 -2.000462 1.581139 -1.581139 c
2.000462 -1.161816 2.236068 -0.593012 2.236068 0 c
2.236068 0.593012 2.000462 1.161816 1.581139 1.581139 c
1.161816 2.000462 0.593012 2.236068 0 2.236068 c
-0.593012 2.236068 -1.161816 2.000462 -1.581139 1.581139 c
-2.000462 1.161816 -2.236068 0.593012 -2.236068 0 c
-2.236068 -0.593012 -2.000462 -1.161816 -1.581139 -1.581139 c
-1.161816 -2.000462 -0.593012 -2.236068 0 -2.236068 c
cl

gsave
0.122 0.467 0.706 setrgbcolor
fill
grestore
stroke
grestore
} bind def
35.838 247.23 o
53.5277 232.231 o
59.1297 251.621 o
69.9713 220.391 o
78.7013 226.183 o
162.276 152.643 o
173.144 154.911 o
176.274 151.7 o
181.124 138.212 o
189.441 132.985 o
210.455 109.256 o
212.908 100.056 o
218.474 108.564 o
219.842 111.435 o
226.536 115.912 o
238.622 111.386 o
251.557 97.492 o
253.636 97.8717 o
277.757 94.0882 o
299.676 99.1695 o
300.502 97.5419 o
304.399 125.457 o
306.987 109.434 o
318.635 117.161 o
331.651 120.921 o
339.226 141.46 o
351 134.768 o
357.639 150.771 o
364.251 152.126 o
369.457 166.163 o
grestore
0.000 setgray
/DejaVuSans findfont
14.000 scalefont
setfont
gsave
198.709375 14.159375 translate
0.000000 rotate
0.000000 0.000000 m /x glyphshow
grestore
gsave
21.893750 166.409375 translate
90.000000 rotate
0.000000 0.000000 m /y glyphshow
grestore
1.500 setlinewidth
2 setlinecap
0.122 0.467 0.706 setrgbcolor
gsave
348.1 283.5 28.8 28.8 clipbox
28.8 208.587218 m
32.316162 207.435097 l
35.832323 206.282977 l
39.348485 205.130856 l
42.864646 203.978735 l
46.380808 202.826614 l
49.89697 201.674493 l
53.413131 200.522372 l
56.929293 199.370251 l
60.445455 198.21813 l
63.961616 197.066009 l
67.477778 195.913888 l
70.993939 194.761767 l
74.510101 193.609646 l
78.026263 192.457525 l
81.542424 191.305404 l
85.058586 190.153283 l
88.574747 189.001162 l
92.090909 187.849041 l
95.607071 186.696921 l
99.123232 185.5448 l
102.639394 184.392679 l
106.155556 183.240558 l
109.671717 182.088437 l
113.187879 180.936316 l
116.70404 179.784195 l
120.220202 178.632074 l
123.736364 177.479953 l
127.252525 176.327832 l
130.768687 175.175711 l
134.284848 174.02359 l
137.80101 172.871469 l
141.317172 171.719348 l
144.833333 170.567227 l
148.349495 169.415106 l
151.865657 168.262985 l
155.381818 167.110865 l
158.89798 165.958744 l
162.414141 164.806623 l
165.930303 163.654502 l
169.446465 162.502381 l
172.962626 161.35026 l
176.478788 160.198139 l
179.994949 159.046018 l
183.511111 157.893897 l
187.027273 156.741776 l
190.543434 155.589655 l
194.059596 154.437534 l
197.575758 153.285413 l
201.091919 152.133292 l
204.608081 150.981171 l
208.124242 149.82905 l
211.640404 148.676929 l
215.156566 147.524809 l
218.672727 146.372688 l
222.188889 145.220567 l
225.705051 144.068446 l
229.221212 142.916325 l
232.737374 141.764204 l
236.253535 140.612083 l
239.769697 139.459962 l
243.285859 138.307841 l
246.80202 137.15572 l
250.318182 136.003599 l
253.834343 134.851478 l
257.350505 133.699357 l
260.866667 132.547236 l
264.382828 131.395115 l
267.89899 130.242994 l
271.415152 129.090873 l
274.931313 127.938752 l
278.447475 126.786632 l
281.963636 125.634511 l
285.479798 124.48239 l
288.99596 123.330269 l
292.512121 122.178148 l
296.028283 121.026027 l
299.544444 119.873906 l
303.060606 118.721785 l
306.576768 117.569664 l
310.092929 116.417543 l
313.609091 115.265422 l
317.125253 114.113301 l
320.641414 112.96118 l
324.157576 111.809059 l
327.673737 110.656938 l
331.189899 109.504817 l
334.706061 108.352696 l
338.222222 107.200576 l
341.738384 106.048455 l
345.254545 104.896334 l
348.770707 103.744213 l
352.286869 102.592092 l
355.80303 101.439971 l
359.319192 100.28785 l
362.835354 99.135729 l
366.351515 97.983608 l
369.867677 96.831487 l
373.383838 95.679366 l
376.9 94.527245 l
stroke
grestore
1.000 0.498 0.055 setrgbcolor
gsave
348.1 283.5 28.8 28.8 clipbox
28.8 241.425 m
32.316162 241.344723 l
35.832323 241.104073 l
39.348485 240.703595 l
42.864646 240.144196 l
46.380808 239.427145 l
49.89697 238.554065 l
53.413131 237.526933 l
56.929293 236.348077 l
60.445455 235.020168 l
63.961616 233.546212 l
67.477778 231.92955 l
70.993939 230.173844 l
74.510101 228.283071 l
78.026263 226.261513 l
81.542424 224.113751 l
85.058586 221.84465 l
88.574747 219.45935 l
92.090909 216.963255 l
95.607071 214.362018 l
99.123232 211.661533 l
102.639394 208.867918 l
106.155556 205.9875 l
109.671717 203.026805 l
113.187879 199.992539 l
116.70404 196.891577 l
120.220202 193.730942 l
123.736364 190.517795 l
127.252525 187.259415 l
130.768687 183.963182 l
134.284848 180.636564 l
137.80101 177.287097 l
141.317172 173.922368 l
144.833333 170.55 l
148.349495 167.177632 l
151.865657 163.812903 l
155.381818 160.463436 l
158.89798 157.136818 l
162.414141 153.840585 l
165.930303 150.582205 l
169.446465 147.369058 l
172.962626 144.208423 l
176.478788 141.107461 l
179.994949 138.073195 l
183.511111 135.1125 l
187.027273 132.232082 l
190.543434 129.438467 l
194.059596 126.737982 l
197.575758 124.136745 l
201.091919 121.64065 l
204.608081 119.25535 l
208.124242 116.986249 l
211.640404 114.838487 l
215.156566 112.816929 l
218.672727 110.926156 l
222.188889 109.17045 l
225.705051 107.553788 l
229.221212 106.079832 l
232.737374 104.751923 l
236.253535 103.573067 l
239.769697 102.545935 l
243.285859 101.672855 l
246.80202 100.955804 l
250.318182 100.396405 l
253.834343 99.995927 l
257.350505 99.755277 l
260.866667 99.675 l
264.382828 99.755277 l
267.89899 99.995927 l
271.415152 100.396405 l
274.931313 100.955804 l
278.447475 101.672855 l
281.963636 102.545935 l
285.479798 103.573067 l
288.99596 104.751923 l
292.512121 106.079832 l
296.028283 107.553788 l
299.544444 109.17045 l
303.060606 110.926156 l
306.576768 112.816929 l
310.092929 114.838487 l
313.609091 116.986249 l
317.125253 119.25535 l
320.641414 121.64065 l
324.157576 124.136745 l
327.673737 126.737982 l
331.189899 129.438467 l
334.706061 132.232082 l
338.222222 135.1125 l
341.738384 138.073195 l
345.254545 141.107461 l
348.770707 144.208423 l
352.286869 147.369058 l
355.80303 150.582205 l
359.319192 153.840585 l
362.835354 157.136818 l
366.351515 160.463436 l
369.867677 163.812903 l
373.383838 167.177632 l
376.9 170.55 l
stroke
grestore
0.800 setlinewidth
0 setlinejoin
[] 0 setdash
0.000 setgray
gsave
28.8 28.8 m
28.8 312.3 l
stroke
grestore
gsave
376.9 28.8 m
376.9 312.3 l
stroke
grestore
gsave
28.8 28.8 m
376.9 28.8 l
stroke
grestore
gsave
28.8 312.3 m
376.9 312.3 l
stroke
grestore
/DejaVuSans findfont
15.000 scalefont
setfont
gsave
118.396875 335.093750 translate
0.000000 rotate
0.000000 0.000000 m /D glyphshow
11.550293 0.000000 m /e glyphshow
20.778809 0.000000 m /g glyphshow
30.300293 0.000000 m /r glyphshow
36.467285 0.000000 m /e glyphshow
45.695801 0.000000 m /e glyphshow
54.924316 0.000000 m /space glyphshow
59.692383 0.000000 m /one glyphshow
69.235840 0.000000 m /colon glyphshow
74.289551 0.000000 m /space glyphshow
79.057617 0.000000 m /U glyphshow
90.036621 0.000000 m /n glyphshow
99.543457 0.000000 m /d glyphshow
109.064941 0.000000 m /e glyphshow
118.293457 0.000000 m /r glyphshow
124.460449 0.000000 m /f glyphshow
129.741211 0.000000 m /i glyphshow
133.908691 0.000000 m /t glyphshow
139.790039 0.000000 m /t glyphshow
145.671387 0.000000 m /i glyphshow
149.838867 0.000000 m /n glyphshow
159.345703 0.000000 m /g glyphshow
grestore
gsave
91.350000 318.300000 translate
0.000000 rotate
/DejaVuSans findfont
15.0 scalefont
setfont
0.000000 0.625000 moveto
/M glyphshow

12.941895 0.625000 moveto
/S glyphshow

22.463379 0.625000 moveto
/E glyphshow

31.940918 0.625000 moveto
/space glyphshow

36.708984 0.625000 moveto
/equal glyphshow

49.277344 0.625000 moveto
/space glyphshow

54.045410 0.625000 moveto
/four glyphshow

63.588867 0.625000 moveto
/period glyphshow

68.356934 0.625000 moveto
/zero glyphshow

77.900391 0.625000 moveto
/eight glyphshow

87.443848 0.625000 moveto
/e glyphshow

96.672363 0.625000 moveto
/hyphen glyphshow

102.084961 0.625000 moveto
/zero glyphshow

111.628418 0.625000 moveto
/one glyphshow

121.171875 0.625000 moveto
/space glyphshow

125.939941 0.625000 moveto
/parenleft glyphshow

131.791992 0.625000 moveto
/plusminus glyphshow

144.360352 0.625000 moveto
/space glyphshow

149.128418 0.625000 moveto
/four glyphshow

158.671875 0.625000 moveto
/period glyphshow

163.439941 0.625000 moveto
/two glyphshow

172.983398 0.625000 moveto
/five glyphshow

182.526855 0.625000 moveto
/e glyphshow

191.755371 0.625000 moveto
/hyphen glyphshow

197.167969 0.625000 moveto
/zero glyphshow

206.711426 0.625000 moveto
/one glyphshow

216.254883 0.625000 moveto
/parenright glyphshow


grestore
1.000 setlinewidth
0 setlinecap
0.800 setgray
gsave
250.021875 249.825 m
368.5 249.825 l
370.1 249.825 370.9 250.625 370.9 252.225 c
370.9 303.9 l
370.9 305.5 370.1 306.3 368.5 306.3 c
250.021875 306.3 l
248.421875 306.3 247.621875 305.5 247.621875 303.9 c
247.621875 252.225 l
247.621875 250.625 248.421875 249.825 250.021875 249.825 c
cl
gsave
1.000 setgray
fill
grestore
stroke
grestore
1.500 setlinewidth
1 setlinejoin
2 setlinecap
[] 0 setdash
0.122 0.467 0.706 setrgbcolor
gsave
252.421875 296.575 m
276.421875 296.575 l
stroke
grestore
0.000 setgray
/DejaVuSans findfont
12.000 scalefont
setfont
gsave
286.021875 292.375000 translate
0.000000 rotate
0.000000 0.000000 m /M glyphshow
10.353516 0.000000 m /o glyphshow
17.695312 0.000000 m /d glyphshow
25.312500 0.000000 m /e glyphshow
32.695312 0.000000 m /l glyphshow
grestore
1.000 0.498 0.055 setrgbcolor
gsave
252.421875 278.95 m
276.421875 278.95 l
stroke
grestore
0.000 setgray
gsave
286.021875 274.750000 translate
0.000000 rotate
0.000000 0.000000 m /T glyphshow
7.314453 0.000000 m /r glyphshow
12.248047 0.000000 m /u glyphshow
19.853516 0.000000 m /e glyphshow
27.236328 0.000000 m /space glyphshow
31.050781 0.000000 m /f glyphshow
35.275391 0.000000 m /u glyphshow
42.880859 0.000000 m /n glyphshow
50.486328 0.000000 m /c glyphshow
57.083984 0.000000 m /t glyphshow
61.789062 0.000000 m /i glyphshow
65.123047 0.000000 m /o glyphshow
72.464844 0.000000 m /n glyphshow
grestore
1.000 setlinewidth
0 setlinecap
0.000 0.000 1.000 setrgbcolor
gsave
/o {
gsave
newpath
translate
1.0 setlinewidth
1 setlinejoin
0 setlinecap
0 -2.236068 m
0.593012 -2.236068 1.161816 -2.000462 1.581139 -1.581139 c
2.000462 -1.161816 2.236068 -0.593012 2.236068 0 c
2.236068 0.593012 2.000462 1.161816 1.581139 1.581139 c
1.161816 2.000462 0.593012 2.236068 0 2.236068 c
-0.593012 2.236068 -1.161816 2.000462 -1.581139 1.581139 c
-2.000462 1.161816 -2.236068 0.593012 -2.236068 0 c
-2.236068 -0.593012 -2.000462 -1.161816 -1.581139 -1.581139 c
-1.161816 -2.000462 -0.593012 -2.236068 0 -2.236068 c
cl

gsave
0.122 0.467 0.706 setrgbcolor
fill
grestore
stroke
grestore
} bind def
264.422 260.275 o
grestore
0.000 setgray
gsave
286.021875 257.125000 translate
0.000000 rotate
0.000000 0.000000 m /S glyphshow
7.617188 0.000000 m /a glyphshow
14.970703 0.000000 m /m glyphshow
26.660156 0.000000 m /p glyphshow
34.277344 0.000000 m /l glyphshow
37.611328 0.000000 m /e glyphshow
44.994141 0.000000 m /s glyphshow
grestore
gsave
409.2 28.8 m
757.3 28.8 l
757.3 312.3 l
409.2 312.3 l
cl
1.000 setgray
fill
grestore
0.000 0.000 1.000 setrgbcolor
gsave
348.1 283.5 409.2 28.8 clipbox
/o {
gsave
newpath
translate
1.0 setlinewidth
1 setlinejoin
0 setlinecap
0 -2.236068 m
0.593012 -2.236068 1.161816 -2.000462 1.581139 -1.581139 c
2.000462 -1.161816 2.236068 -0.593012 2.236068 0 c
2.236068 0.593012 2.000462 1.161816 1.581139 1.581139 c
1.161816 2.000462 0.593012 2.236068 0 2.236068 c
-0.593012 2.236068 -1.161816 2.000462 -1.581139 1.581139 c
-2.000462 1.161816 -2.236068 0.593012 -2.236068 0 c
-2.236068 -0.593012 -2.000462 -1.161816 -1.581139 -1.581139 c
-1.161816 -2.000462 -0.593012 -2.236068 0 -2.236068 c
cl

gsave
0.122 0.467 0.706 setrgbcolor
fill
grestore
stroke
grestore
} bind def
416.238 247.23 o
433.928 232.231 o
439.53 251.621 o
450.371 220.391 o
459.101 226.183 o
542.676 152.643 o
553.544 154.911 o
556.674 151.7 o
561.524 138.212 o
569.841 132.985 o
590.855 109.256 o
593.308 100.056 o
598.874 108.564 o
600.242 111.435 o
606.936 115.912 o
619.022 111.386 o
631.957 97.492 o
634.036 97.8717 o
658.157 94.0882 o
680.076 99.1695 o
680.902 97.5419 o
684.799 125.457 o
687.387 109.434 o
699.035 117.161 o
712.051 120.921 o
719.626 141.46 o
731.4 134.768 o
738.039 150.771 o
744.651 152.126 o
749.857 166.163 o
grestore
0.000 setgray
/DejaVuSans findfont
14.000 scalefont
setfont
gsave
579.109375 14.159375 translate
0.000000 rotate
0.000000 0.000000 m /x glyphshow
grestore
gsave
402.293750 166.409375 translate
90.000000 rotate
0.000000 0.000000 m /y glyphshow
grestore
1.500 setlinewidth
2 setlinecap
0.122 0.467 0.706 setrgbcolor
gsave
348.1 283.5 409.2 28.8 clipbox
409.2 243.627452 m
412.716162 243.835243 l
416.232323 243.796013 l
419.748485 243.519908 l
423.264646 243.016946 l
426.780808 242.297017 l
430.29697 241.369883 l
433.813131 240.245175 l
437.329293 238.932398 l
440.845455 237.440928 l
444.361616 235.780009 l
447.877778 233.958762 l
451.393939 231.986175 l
454.910101 229.87111 l
458.426263 227.622297 l
461.942424 225.248342 l
465.458586 222.757719 l
468.974747 220.158774 l
472.490909 217.459726 l
476.007071 214.668664 l
479.523232 211.793548 l
483.039394 208.84221 l
486.555556 205.822353 l
490.071717 202.741553 l
493.587879 199.607256 l
497.10404 196.426779 l
500.620202 193.20731 l
504.136364 189.955911 l
507.652525 186.679514 l
511.168687 183.38492 l
514.684848 180.078805 l
518.20101 176.767715 l
521.717172 173.458067 l
525.233333 170.15615 l
528.749495 166.868123 l
532.265657 163.600018 l
535.781818 160.357738 l
539.29798 157.147058 l
542.814141 153.973622 l
546.330303 150.842949 l
549.846465 147.760425 l
553.362626 144.731312 l
556.878788 141.76074 l
560.394949 138.853712 l
563.911111 136.015102 l
567.427273 133.249655 l
570.943434 130.561988 l
574.459596 127.956589 l
577.975758 125.437818 l
581.491919 123.009905 l
585.008081 120.676953 l
588.524242 118.442936 l
592.040404 116.311699 l
595.556566 114.286958 l
599.072727 112.372301 l
602.588889 110.571187 l
606.105051 108.886947 l
609.621212 107.322783 l
613.137374 105.881769 l
616.653535 104.566849 l
620.169697 103.38084 l
623.685859 102.326428 l
627.20202 101.406174 l
630.718182 100.622508 l
634.234343 99.977731 l
637.750505 99.474016 l
641.266667 99.113408 l
644.782828 98.897823 l
648.29899 98.829049 l
651.815152 98.908744 l
655.331313 99.138438 l
658.847475 99.519532 l
662.363636 100.053301 l
665.879798 100.740887 l
669.39596 101.583307 l
672.912121 102.581447 l
676.428283 103.736067 l
679.944444 105.047795 l
683.460606 106.517134 l
686.976768 108.144456 l
690.492929 109.930005 l
694.009091 111.873896 l
697.525253 113.976116 l
701.041414 116.236523 l
704.557576 118.654847 l
708.073737 121.23069 l
711.589899 123.963522 l
715.106061 126.852689 l
718.622222 129.897404 l
722.138384 133.096756 l
725.654545 136.449701 l
729.170707 139.955069 l
732.686869 143.611561 l
736.20303 147.417748 l
739.719192 151.372075 l
743.235354 155.472856 l
746.751515 159.718277 l
750.267677 164.106397 l
753.783838 168.635143 l
757.3 173.302317 l
stroke
grestore
1.000 0.498 0.055 setrgbcolor
gsave
348.1 283.5 409.2 28.8 clipbox
409.2 241.425 m
412.716162 241.344723 l
416.232323 241.104073 l
419.748485 240.703595 l
423.264646 240.144196 l
426.780808 239.427145 l
430.29697 238.554065 l
433.813131 237.526933 l
437.329293 236.348077 l
440.845455 235.020168 l
444.361616 233.546212 l
447.877778 231.92955 l
451.393939 230.173844 l
454.910101 228.283071 l
458.426263 226.261513 l
461.942424 224.113751 l
465.458586 221.84465 l
468.974747 219.45935 l
472.490909 216.963255 l
476.007071 214.362018 l
479.523232 211.661533 l
483.039394 208.867918 l
486.555556 205.9875 l
490.071717 203.026805 l
493.587879 199.992539 l
497.10404 196.891577 l
500.620202 193.730942 l
504.136364 190.517795 l
507.652525 187.259415 l
511.168687 183.963182 l
514.684848 180.636564 l
518.20101 177.287097 l
521.717172 173.922368 l
525.233333 170.55 l
528.749495 167.177632 l
532.265657 163.812903 l
535.781818 160.463436 l
539.29798 157.136818 l
542.814141 153.840585 l
546.330303 150.582205 l
549.846465 147.369058 l
553.362626 144.208423 l
556.878788 141.107461 l
560.394949 138.073195 l
563.911111 135.1125 l
567.427273 132.232082 l
570.943434 129.438467 l
574.459596 126.737982 l
577.975758 124.136745 l
581.491919 121.64065 l
585.008081 119.25535 l
588.524242 116.986249 l
592.040404 114.838487 l
595.556566 112.816929 l
599.072727 110.926156 l
602.588889 109.17045 l
606.105051 107.553788 l
609.621212 106.079832 l
613.137374 104.751923 l
616.653535 103.573067 l
620.169697 102.545935 l
623.685859 101.672855 l
627.20202 100.955804 l
630.718182 100.396405 l
634.234343 99.995927 l
637.750505 99.755277 l
641.266667 99.675 l
644.782828 99.755277 l
648.29899 99.995927 l
651.815152 100.396405 l
655.331313 100.955804 l
658.847475 101.672855 l
662.363636 102.545935 l
665.879798 103.573067 l
669.39596 104.751923 l
672.912121 106.079832 l
676.428283 107.553788 l
679.944444 109.17045 l
683.460606 110.926156 l
686.976768 112.816929 l
690.492929 114.838487 l
694.009091 116.986249 l
697.525253 119.25535 l
701.041414 121.64065 l
704.557576 124.136745 l
708.073737 126.737982 l
711.589899 129.438467 l
715.106061 132.232082 l
718.622222 135.1125 l
722.138384 138.073195 l
725.654545 141.107461 l
729.170707 144.208423 l
732.686869 147.369058 l
736.20303 150.582205 l
739.719192 153.840585 l
743.235354 157.136818 l
746.751515 160.463436 l
750.267677 163.812903 l
753.783838 167.177632 l
757.3 170.55 l
stroke
grestore
0.800 setlinewidth
0 setlinejoin
[] 0 setdash
0.000 setgray
gsave
409.2 28.8 m
409.2 312.3 l
stroke
grestore
gsave
757.3 28.8 m
757.3 312.3 l
stroke
grestore
gsave
409.2 28.8 m
757.3 28.8 l
stroke
grestore
gsave
409.2 312.3 m
757.3 312.3 l
stroke
grestore
/DejaVuSans findfont
15.000 scalefont
setfont
gsave
465.273438 335.093750 translate
0.000000 rotate
0.000000 0.000000 m /D glyphshow
11.550293 0.000000 m /e glyphshow
20.778809 0.000000 m /g glyphshow
30.300293 0.000000 m /r glyphshow
36.467285 0.000000 m /e glyphshow
45.695801 0.000000 m /e glyphshow
54.924316 0.000000 m /space glyphshow
59.692383 0.000000 m /four glyphshow
69.235840 0.000000 m /colon glyphshow
74.289551 0.000000 m /space glyphshow
79.057617 0.000000 m /A glyphshow
89.318848 0.000000 m /p glyphshow
98.840332 0.000000 m /p glyphshow
108.361816 0.000000 m /r glyphshow
114.528809 0.000000 m /o glyphshow
123.706055 0.000000 m /p glyphshow
133.227539 0.000000 m /r glyphshow
139.394531 0.000000 m /i glyphshow
143.562012 0.000000 m /a glyphshow
152.753906 0.000000 m /t glyphshow
158.635254 0.000000 m /e glyphshow
167.863770 0.000000 m /space glyphshow
172.631836 0.000000 m /c glyphshow
180.878906 0.000000 m /a glyphshow
190.070801 0.000000 m /p glyphshow
199.592285 0.000000 m /a glyphshow
208.784180 0.000000 m /c glyphshow
217.031250 0.000000 m /i glyphshow
221.198730 0.000000 m /t glyphshow
227.080078 0.000000 m /y glyphshow
grestore
gsave
471.750000 318.300000 translate
0.000000 rotate
/DejaVuSans findfont
15.0 scalefont
setfont
0.000000 0.625000 moveto
/M glyphshow

12.941895 0.625000 moveto
/S glyphshow

22.463379 0.625000 moveto
/E glyphshow

31.940918 0.625000 moveto
/space glyphshow

36.708984 0.625000 moveto
/equal glyphshow

49.277344 0.625000 moveto
/space glyphshow

54.045410 0.625000 moveto
/four glyphshow

63.588867 0.625000 moveto
/period glyphshow

68.356934 0.625000 moveto
/three glyphshow

77.900391 0.625000 moveto
/two glyphshow

87.443848 0.625000 moveto
/e glyphshow

96.672363 0.625000 moveto
/hyphen glyphshow

102.084961 0.625000 moveto
/zero glyphshow

111.628418 0.625000 moveto
/two glyphshow

121.171875 0.625000 moveto
/space glyphshow

125.939941 0.625000 moveto
/parenleft glyphshow

131.791992 0.625000 moveto
/plusminus glyphshow

144.360352 0.625000 moveto
/space glyphshow

149.128418 0.625000 moveto
/seven glyphshow

158.671875 0.625000 moveto
/period glyphshow

163.439941 0.625000 moveto
/zero glyphshow

172.983398 0.625000 moveto
/eight glyphshow

182.526855 0.625000 moveto
/e glyphshow

191.755371 0.625000 moveto
/hyphen glyphshow

197.167969 0.625000 moveto
/zero glyphshow

206.711426 0.625000 moveto
/two glyphshow

216.254883 0.625000 moveto
/parenright glyphshow


grestore
1.000 setlinewidth
0 setlinecap
0.800 setgray
gsave
630.421875 249.825 m
748.9 249.825 l
750.5 249.825 751.3 250.625 751.3 252.225 c
751.3 303.9 l
751.3 305.5 750.5 306.3 748.9 306.3 c
630.421875 306.3 l
628.821875 306.3 628.021875 305.5 628.021875 303.9 c
628.021875 252.225 l
628.021875 250.625 628.821875 249.825 630.421875 249.825 c
cl
gsave
1.000 setgray
fill
grestore
stroke
grestore
1.500 setlinewidth
1 setlinejoin
2 setlinecap
[] 0 setdash
0.122 0.467 0.706 setrgbcolor
gsave
632.821875 296.575 m
656.821875 296.575 l
stroke
grestore
0.000 setgray
/DejaVuSans findfont
12.000 scalefont
setfont
gsave
666.421875 292.375000 translate
0.000000 rotate
0.000000 0.000000 m /M glyphshow
10.353516 0.000000 m /o glyphshow
17.695312 0.000000 m /d glyphshow
25.312500 0.000000 m /e glyphshow
32.695312 0.000000 m /l glyphshow
grestore
1.000 0.498 0.055 setrgbcolor
gsave
632.821875 278.95 m
656.821875 278.95 l
stroke
grestore
0.000 setgray
gsave
666.421875 274.750000 translate
0.000000 rotate
0.000000 0.000000 m /T glyphshow
7.314453 0.000000 m /r glyphshow
12.248047 0.000000 m /u glyphshow
19.853516 0.000000 m /e glyphshow
27.236328 0.000000 m /space glyphshow
31.050781 0.000000 m /f glyphshow
35.275391 0.000000 m /u glyphshow
42.880859 0.000000 m /n glyphshow
50.486328 0.000000 m /c glyphshow
57.083984 0.000000 m /t glyphshow
61.789062 0.000000 m /i glyphshow
65.123047 0.000000 m /o glyphshow
72.464844 0.000000 m /n glyphshow
grestore
1.000 setlinewidth
0 setlinecap
0.000 0.000 1.000 setrgbcolor
gsave
/o {
gsave
newpath
translate
1.0 setlinewidth
1 setlinejoin
0 setlinecap
0 -2.236068 m
0.593012 -2.236068 1.161816 -2.000462 1.581139 -1.581139 c
2.000462 -1.161816 2.236068 -0.593012 2.236068 0 c
2.236068 0.593012 2.000462 1.161816 1.581139 1.581139 c
1.161816 2.000462 0.593012 2.236068 0 2.236068 c
-0.593012 2.236068 -1.161816 2.000462 -1.581139 1.581139 c
-2.000462 1.161816 -2.236068 0.593012 -2.236068 0 c
-2.236068 -0.593012 -2.000462 -1.161816 -1.581139 -1.581139 c
-1.161816 -2.000462 -0.593012 -2.236068 0 -2.236068 c
cl

gsave
0.122 0.467 0.706 setrgbcolor
fill
grestore
stroke
grestore
} bind def
644.822 260.275 o
grestore
0.000 setgray
gsave
666.421875 257.125000 translate
0.000000 rotate
0.000000 0.000000 m /S glyphshow
7.617188 0.000000 m /a glyphshow
14.970703 0.000000 m /m glyphshow
26.660156 0.000000 m /p glyphshow
34.277344 0.000000 m /l glyphshow
37.611328 0.000000 m /e glyphshow
44.994141 0.000000 m /s glyphshow
grestore
gsave
789.6 28.8 m
1137.7 28.8 l
1137.7 312.3 l
789.6 312.3 l
cl
1.000 setgray
fill
grestore
0.000 0.000 1.000 setrgbcolor
gsave
348.1 283.5 789.6 28.8 clipbox
/o {
gsave
newpath
translate
1.0 setlinewidth
1 setlinejoin
0 setlinecap
0 -2.236068 m
0.593012 -2.236068 1.161816 -2.000462 1.581139 -1.581139 c
2.000462 -1.161816 2.236068 -0.593012 2.236068 0 c
2.236068 0.593012 2.000462 1.161816 1.581139 1.581139 c
1.161816 2.000462 0.593012 2.236068 0 2.236068 c
-0.593012 2.236068 -1.161816 2.000462 -1.581139 1.581139 c
-2.000462 1.161816 -2.236068 0.593012 -2.236068 0 c
-2.236068 -0.593012 -2.000462 -1.161816 -1.581139 -1.581139 c
-1.161816 -2.000462 -0.593012 -2.236068 0 -2.236068 c
cl

gsave
0.122 0.467 0.706 setrgbcolor
fill
grestore
stroke
grestore
} bind def
796.638 247.23 o
814.328 232.231 o
819.93 251.621 o
830.771 220.391 o
839.501 226.183 o
923.076 152.643 o
933.944 154.911 o
937.074 151.7 o
941.924 138.212 o
950.241 132.985 o
971.255 109.256 o
973.708 100.056 o
979.274 108.564 o
980.642 111.435 o
987.336 115.912 o
999.422 111.386 o
1012.36 97.492 o
1014.44 97.8717 o
1038.56 94.0882 o
1060.48 99.1695 o
1061.3 97.5419 o
1065.2 125.457 o
1067.79 109.434 o
1079.43 117.161 o
1092.45 120.921 o
1100.03 141.46 o
1111.8 134.768 o
1118.44 150.771 o
1125.05 152.126 o
1130.26 166.163 o
grestore
0.000 setgray
/DejaVuSans findfont
14.000 scalefont
setfont
gsave
959.509375 14.159375 translate
0.000000 rotate
0.000000 0.000000 m /x glyphshow
grestore
gsave
782.693750 166.409375 translate
90.000000 rotate
0.000000 0.000000 m /y glyphshow
grestore
1.500 setlinewidth
2 setlinecap
0.122 0.467 0.706 setrgbcolor
gsave
348.1 283.5 789.6 28.8 clipbox
796.015015 361 m
796.632323 247.823484 l
800.148485 49.063658 l
803.664646 50.586694 l
807.180808 118.0566 l
810.69697 186.456274 l
814.213131 231.38018 l
817.729293 250.060218 l
821.245455 249.394399 l
824.761616 238.883839 l
828.277778 226.896959 l
831.793939 219.089925 l
835.310101 218.136161 l
838.826263 224.16995 l
842.342424 235.542307 l
845.858586 249.6325 l
849.374747 263.565028 l
852.890909 274.75756 l
856.407071 281.276891 l
859.923232 282.013001 l
863.439394 276.700413 l
866.955556 265.824973 l
870.471717 250.455983 l
873.987879 232.040754 l
877.50404 212.192873 l
881.020202 192.498396 l
884.536364 174.356639 l
888.052525 158.865192 l
891.568687 146.752478 l
895.084848 138.35613 l
898.60101 133.641597 l
902.117172 132.252843 l
905.633333 133.585603 l
909.149495 136.873335 l
912.665657 141.27647 l
916.181818 145.966775 l
919.69798 150.200207 l
923.214141 153.373528 l
926.730303 155.061902 l
930.246465 155.036586 l
933.762626 153.263528 l
937.278788 149.88511 l
940.794949 145.188373 l
944.311111 139.563755 l
947.827273 133.458738 l
951.343434 127.330762 l
954.859596 121.603437 l
958.375758 116.629458 l
961.891919 112.662849 l
965.408081 109.842199 l
968.924242 108.185556 l
972.440404 107.596684 l
975.956566 107.881451 l
979.472727 108.772407 l
982.988889 109.95897 l
986.505051 111.120336 l
990.021212 111.958094 l
993.537374 112.225582 l
997.053535 111.751509 l
1000.569697 110.455726 l
1004.085859 108.355866 l
1007.60202 105.564399 l
1011.118182 102.276264 l
1014.634343 98.748521 l
1018.150505 95.273734 l
1021.666667 92.14973 l
1025.182828 89.648728 l
1028.69899 87.98896 l
1032.215152 87.311629 l
1035.731313 87.666119 l
1039.247475 89.005131 l
1042.763636 91.190605 l
1046.279798 94.01098 l
1049.79596 97.207303 l
1053.312121 100.506691 l
1056.828283 103.658733 l
1060.344444 106.470428 l
1063.860606 108.835131 l
1067.376768 110.74962 l
1070.892929 112.316142 l
1074.409091 113.726488 l
1077.925253 115.227881 l
1081.441414 117.072901 l
1084.957576 119.460623 l
1088.473737 122.477915 l
1091.989899 126.054765 l
1095.506061 129.948763 l
1099.022222 133.77419 l
1102.538384 137.087094 l
1106.054545 139.528437 l
1109.570707 141.011804 l
1113.086869 141.908796 l
1116.60303 143.149424 l
1120.119192 146.08368 l
1123.635354 151.872163 l
1127.151515 160.046935 l
1130.667677 165.732409 l
1134.183838 154.802701 l
1137.7 95.994706 l
stroke
grestore
1.000 0.498 0.055 setrgbcolor
gsave
348.1 283.5 789.6 28.8 clipbox
789.6 241.425 m
793.116162 241.344723 l
796.632323 241.104073 l
800.148485 240.703595 l
803.664646 240.144196 l
807.180808 239.427145 l
810.69697 238.554065 l
814.213131 237.526933 l
817.729293 236.348077 l
821.245455 235.020168 l
824.761616 233.546212 l
828.277778 231.92955 l
831.793939 230.173844 l
835.310101 228.283071 l
838.826263 226.261513 l
842.342424 224.113751 l
845.858586 221.84465 l
849.374747 219.45935 l
852.890909 216.963255 l
856.407071 214.362018 l
859.923232 211.661533 l
863.439394 208.867918 l
866.955556 205.9875 l
870.471717 203.026805 l
873.987879 199.992539 l
877.50404 196.891577 l
881.020202 193.730942 l
884.536364 190.517795 l
888.052525 187.259415 l
891.568687 183.963182 l
895.084848 180.636564 l
898.60101 177.287097 l
902.117172 173.922368 l
905.633333 170.55 l
909.149495 167.177632 l
912.665657 163.812903 l
916.181818 160.463436 l
919.69798 157.136818 l
923.214141 153.840585 l
926.730303 150.582205 l
930.246465 147.369058 l
933.762626 144.208423 l
937.278788 141.107461 l
940.794949 138.073195 l
944.311111 135.1125 l
947.827273 132.232082 l
951.343434 129.438467 l
954.859596 126.737982 l
958.375758 124.136745 l
961.891919 121.64065 l
965.408081 119.25535 l
968.924242 116.986249 l
972.440404 114.838487 l
975.956566 112.816929 l
979.472727 110.926156 l
982.988889 109.17045 l
986.505051 107.553788 l
990.021212 106.079832 l
993.537374 104.751923 l
997.053535 103.573067 l
1000.569697 102.545935 l
1004.085859 101.672855 l
1007.60202 100.955804 l
1011.118182 100.396405 l
1014.634343 99.995927 l
1018.150505 99.755277 l
1021.666667 99.675 l
1025.182828 99.755277 l
1028.69899 99.995927 l
1032.215152 100.396405 l
1035.731313 100.955804 l
1039.247475 101.672855 l
1042.763636 102.545935 l
1046.279798 103.573067 l
1049.79596 104.751923 l
1053.312121 106.079832 l
1056.828283 107.553788 l
1060.344444 109.17045 l
1063.860606 110.926156 l
1067.376768 112.816929 l
1070.892929 114.838487 l
1074.409091 116.986249 l
1077.925253 119.25535 l
1081.441414 121.64065 l
1084.957576 124.136745 l
1088.473737 126.737982 l
1091.989899 129.438467 l
1095.506061 132.232082 l
1099.022222 135.1125 l
1102.538384 138.073195 l
1106.054545 141.107461 l
1109.570707 144.208423 l
1113.086869 147.369058 l
1116.60303 150.582205 l
1120.119192 153.840585 l
1123.635354 157.136818 l
1127.151515 160.463436 l
1130.667677 163.812903 l
1134.183838 167.177632 l
1137.7 170.55 l
stroke
grestore
0.800 setlinewidth
0 setlinejoin
[] 0 setdash
0.000 setgray
gsave
789.6 28.8 m
789.6 312.3 l
stroke
grestore
gsave
1137.7 28.8 m
1137.7 312.3 l
stroke
grestore
gsave
789.6 28.8 m
1137.7 28.8 l
stroke
grestore
gsave
789.6 312.3 m
1137.7 312.3 l
stroke
grestore
/DejaVuSans findfont
15.000 scalefont
setfont
gsave
879.087500 335.093750 translate
0.000000 rotate
0.000000 0.000000 m /D glyphshow
11.550293 0.000000 m /e glyphshow
20.778809 0.000000 m /g glyphshow
30.300293 0.000000 m /r glyphshow
36.467285 0.000000 m /e glyphshow
45.695801 0.000000 m /e glyphshow
54.924316 0.000000 m /space glyphshow
59.692383 0.000000 m /one glyphshow
69.235840 0.000000 m /five glyphshow
78.779297 0.000000 m /colon glyphshow
83.833008 0.000000 m /space glyphshow
88.601074 0.000000 m /O glyphshow
100.407715 0.000000 m /v glyphshow
109.284668 0.000000 m /e glyphshow
118.513184 0.000000 m /r glyphshow
124.680176 0.000000 m /f glyphshow
129.960938 0.000000 m /i glyphshow
134.128418 0.000000 m /t glyphshow
140.009766 0.000000 m /t glyphshow
145.891113 0.000000 m /i glyphshow
150.058594 0.000000 m /n glyphshow
159.565430 0.000000 m /g glyphshow
grestore
gsave
845.150000 318.300000 translate
0.000000 rotate
/DejaVuSans findfont
15.0 scalefont
setfont
0.000000 0.625000 moveto
/M glyphshow

12.941895 0.625000 moveto
/S glyphshow

22.463379 0.625000 moveto
/E glyphshow

31.940918 0.625000 moveto
/space glyphshow

36.708984 0.625000 moveto
/equal glyphshow

49.277344 0.625000 moveto
/space glyphshow

54.045410 0.625000 moveto
/one glyphshow

63.588867 0.625000 moveto
/period glyphshow

68.356934 0.625000 moveto
/eight glyphshow

77.900391 0.625000 moveto
/three glyphshow

87.443848 0.625000 moveto
/e glyphshow

96.672363 0.625000 moveto
/plus glyphshow

109.240723 0.625000 moveto
/zero glyphshow

118.784180 0.625000 moveto
/eight glyphshow

128.327637 0.625000 moveto
/space glyphshow

133.095703 0.625000 moveto
/parenleft glyphshow

138.947754 0.625000 moveto
/plusminus glyphshow

151.516113 0.625000 moveto
/space glyphshow

156.284180 0.625000 moveto
/five glyphshow

165.827637 0.625000 moveto
/period glyphshow

170.595703 0.625000 moveto
/four glyphshow

180.139160 0.625000 moveto
/eight glyphshow

189.682617 0.625000 moveto
/e glyphshow

198.911133 0.625000 moveto
/plus glyphshow

211.479492 0.625000 moveto
/zero glyphshow

221.022949 0.625000 moveto
/eight glyphshow

230.566406 0.625000 moveto
/parenright glyphshow


grestore
1.000 setlinewidth
0 setlinecap
0.800 setgray
gsave
1010.821875 249.825 m
1129.3 249.825 l
1130.9 249.825 1131.7 250.625 1131.7 252.225 c
1131.7 303.9 l
1131.7 305.5 1130.9 306.3 1129.3 306.3 c
1010.821875 306.3 l
1009.221875 306.3 1008.421875 305.5 1008.421875 303.9 c
1008.421875 252.225 l
1008.421875 250.625 1009.221875 249.825 1010.821875 249.825 c
cl
gsave
1.000 setgray
fill
grestore
stroke
grestore
1.500 setlinewidth
1 setlinejoin
2 setlinecap
[] 0 setdash
0.122 0.467 0.706 setrgbcolor
gsave
1013.221875 296.575 m
1037.221875 296.575 l
stroke
grestore
0.000 setgray
/DejaVuSans findfont
12.000 scalefont
setfont
gsave
1046.821875 292.375000 translate
0.000000 rotate
0.000000 0.000000 m /M glyphshow
10.353516 0.000000 m /o glyphshow
17.695312 0.000000 m /d glyphshow
25.312500 0.000000 m /e glyphshow
32.695312 0.000000 m /l glyphshow
grestore
1.000 0.498 0.055 setrgbcolor
gsave
1013.221875 278.95 m
1037.221875 278.95 l
stroke
grestore
0.000 setgray
gsave
1046.821875 274.750000 translate
0.000000 rotate
0.000000 0.000000 m /T glyphshow
7.314453 0.000000 m /r glyphshow
12.248047 0.000000 m /u glyphshow
19.853516 0.000000 m /e glyphshow
27.236328 0.000000 m /space glyphshow
31.050781 0.000000 m /f glyphshow
35.275391 0.000000 m /u glyphshow
42.880859 0.000000 m /n glyphshow
50.486328 0.000000 m /c glyphshow
57.083984 0.000000 m /t glyphshow
61.789062 0.000000 m /i glyphshow
65.123047 0.000000 m /o glyphshow
72.464844 0.000000 m /n glyphshow
grestore
1.000 setlinewidth
0 setlinecap
0.000 0.000 1.000 setrgbcolor
gsave
/o {
gsave
newpath
translate
1.0 setlinewidth
1 setlinejoin
0 setlinecap
0 -2.236068 m
0.593012 -2.236068 1.161816 -2.000462 1.581139 -1.581139 c
2.000462 -1.161816 2.236068 -0.593012 2.236068 0 c
2.236068 0.593012 2.000462 1.161816 1.581139 1.581139 c
1.161816 2.000462 0.593012 2.236068 0 2.236068 c
-0.593012 2.236068 -1.161816 2.000462 -1.581139 1.581139 c
-2.000462 1.161816 -2.236068 0.593012 -2.236068 0 c
-2.236068 -0.593012 -2.000462 -1.161816 -1.581139 -1.581139 c
-1.161816 -2.000462 -0.593012 -2.236068 0 -2.236068 c
cl

gsave
0.122 0.467 0.706 setrgbcolor
fill
grestore
stroke
grestore
} bind def
1025.22 260.275 o
grestore
0.000 setgray
gsave
1046.821875 257.125000 translate
0.000000 rotate
0.000000 0.000000 m /S glyphshow
7.617188 0.000000 m /a glyphshow
14.970703 0.000000 m /m glyphshow
26.660156 0.000000 m /p glyphshow
34.277344 0.000000 m /l glyphshow
37.611328 0.000000 m /e glyphshow
44.994141 0.000000 m /s glyphshow
grestore

end
showpage
