%!PS-Adobe-3.0 EPSF-3.0
%%Title: pca_2d.eps
%%Creator: matplotlib version 3.0.2, http://matplotlib.org/
%%CreationDate: Mon Jul 15 21:34:42 2019
%%Orientation: portrait
%%BoundingBox: 90 252 522 540
%%EndComments
%%BeginProlog
/mpldict 7 dict def
mpldict begin
/m { moveto } bind def
/l { lineto } bind def
/r { rlineto } bind def
/c { curveto } bind def
/cl { closepath } bind def
/box {
m
1 index 0 r
0 exch r
neg 0 r
cl
} bind def
/clipbox {
box
clip
newpath
} bind def
end
%%EndProlog
mpldict begin
90 252 translate
432 288 0 0 clipbox
gsave
0 0 m
432 0 l
432 288 l
0 288 l
cl
1.000 setgray
fill
grestore
1.000 setlinewidth
1 setlinejoin
0 setlinecap
[] 0 setdash
0.122 0.467 0.706 setrgbcolor
gsave
334.8 217.4 54 36 clipbox
/o {
gsave
newpath
translate
1.0 setlinewidth
1 setlinejoin
0 setlinecap
0 -3 m
0.795609 -3 1.55874 -2.683901 2.12132 -2.12132 c
2.683901 -1.55874 3 -0.795609 3 0 c
3 0.795609 2.683901 1.55874 2.12132 2.12132 c
1.55874 2.683901 0.795609 3 0 3 c
-0.795609 3 -1.55874 2.683901 -2.12132 2.12132 c
-2.683901 1.55874 -3 0.795609 -3 0 c
-3 -0.795609 -2.683901 -1.55874 -2.12132 -2.12132 c
-1.55874 -2.683901 -0.795609 -3 0 -3 c
cl

gsave
0.122 0.467 0.706 setrgbcolor
fill
grestore
stroke
grestore
} bind def
231.708 151.356 o
182.419 136.351 o
179.633 114.962 o
128.351 126.474 o
229.264 126.62 o
230.242 153.171 o
255.083 152.329 o
281.89 169.51 o
287.217 153.893 o
113.725 117.817 o
154.468 116.791 o
262.044 162.585 o
318.519 170.456 o
185.456 137.907 o
242.739 152.275 o
136.545 115.062 o
140.567 107.153 o
187.084 121.037 o
180.307 135.753 o
229.094 132.808 o
235.559 138.058 o
214.426 133.351 o
274.607 154.455 o
267.342 167.935 o
221.521 142.853 o
286.953 178.795 o
189.108 130.761 o
213.655 132.737 o
222.477 149.187 o
197.914 135.801 o
256.495 163.418 o
174.462 130.636 o
263.148 166.044 o
231.048 145.702 o
305.44 188.448 o
208.915 133.834 o
255.593 138.558 o
247.733 144.832 o
124.561 102.876 o
226.819 153.053 o
225.097 150.865 o
269.809 144.183 o
157.943 114.356 o
140.745 114.312 o
252.97 152.779 o
325.736 163.403 o
294.504 170.949 o
199.906 126.06 o
186.207 123.618 o
202.58 137.295 o
109.737 106.571 o
189.036 131.58 o
254.417 157.557 o
307.829 171.676 o
255.879 147.24 o
316.651 171.786 o
247.774 149.611 o
253.256 145.657 o
196.896 139.105 o
262.211 145.58 o
224.831 137.609 o
209.556 139.658 o
206.738 130.27 o
232.27 146.871 o
251.786 142.469 o
197.261 115.535 o
267.036 137.876 o
151.535 126.764 o
99.1234 105.262 o
231.263 150.922 o
293.959 170.305 o
346.609 184.933 o
297.989 170.373 o
135.324 126.487 o
265.892 163.388 o
291.721 162.398 o
143.353 106.362 o
278.971 157.735 o
244.435 153.507 o
225.023 145.135 o
240.06 147.406 o
235.725 143.255 o
298.057 171.626 o
208.722 134.957 o
197.754 138.591 o
232.729 142.337 o
237.894 147.172 o
175.368 110.417 o
312.462 167.234 o
237.344 146.28 o
238.137 152.459 o
215.613 145.754 o
225.545 138.842 o
209.685 135.796 o
218.6 143.931 o
230.638 144.943 o
257.23 163.026 o
255.247 148.445 o
206.168 139.791 o
338.812 178.027 o
178.096 119.136 o
180.213 118.041 o
211.025 148.587 o
218.112 138.373 o
165.208 110.21 o
185.892 136.565 o
185.874 129.386 o
272.423 162.595 o
162.186 130.99 o
275.991 161.145 o
263.817 150.496 o
192.783 138.475 o
232.65 142.585 o
208.8 149.92 o
122.913 100.587 o
196.889 148.087 o
234.625 135.373 o
310.425 174.62 o
192.715 129.737 o
252.826 162.796 o
146.666 96.8659 o
306.937 156.902 o
188.676 147.166 o
243.154 137.756 o
258.308 140.032 o
220.235 137.505 o
211.368 149.819 o
238.726 139.786 o
141.727 109.967 o
200.021 138.847 o
288.428 182.484 o
238.726 143.049 o
255.23 147.449 o
188.698 134.298 o
243.445 145.343 o
202.207 145.401 o
231.744 137.497 o
261.264 157.766 o
178.73 125.557 o
214.899 139.853 o
266.326 151.313 o
230.215 137.392 o
183.615 120.138 o
250.428 152.267 o
182.767 124.493 o
219.186 134.14 o
193.229 127.271 o
235.24 140.209 o
196.865 134.457 o
142.082 133.627 o
278.11 154.486 o
353.128 173.995 o
218.641 135.758 o
242.983 151.623 o
204.361 135.792 o
224.312 143.984 o
271.9 162.534 o
197.279 143.1 o
175.129 127.493 o
166.871 129.034 o
202.716 131.083 o
215.073 141.959 o
272.195 157.674 o
160.308 117.701 o
202.993 123.505 o
188.617 125.533 o
202.354 110.674 o
232.819 166.094 o
205.371 141.54 o
327.093 176.478 o
224.715 116.538 o
272.433 165.533 o
193.967 129.55 o
199.895 134.854 o
213.652 124.379 o
175.074 125.073 o
183.071 118.339 o
224.362 146.099 o
134.92 118.497 o
220.433 137.843 o
235.141 142.038 o
283.82 154.228 o
224.588 144.01 o
221.472 147.99 o
259.115 151.479 o
228.268 141.891 o
245.611 148.754 o
179.118 124.536 o
218.567 128.227 o
313.723 176.415 o
269.886 142.002 o
220.133 129.398 o
298.688 167.084 o
175.811 139.362 o
210.23 130.549 o
171.23 116.079 o
276.675 156.26 o
202.333 122.622 o
189.897 132.479 o
271.183 153.819 o
216.926 145.508 o
267.926 140.656 o
180.705 138.334 o
228.461 162.85 o
277.776 182.401 o
177.301 132.301 o
219.629 152.45 o
354.524 176.99 o
261.255 161.654 o
160.126 129.808 o
232.235 134.443 o
182.749 131.416 o
153.024 125.723 o
218.003 130.958 o
249.774 146.927 o
186.988 131.614 o
295.666 158.008 o
231.528 144.424 o
246.175 135.052 o
273.589 158.18 o
275.491 147.962 o
237.121 146.977 o
237.365 160.944 o
308.562 152.553 o
204.771 140.234 o
258.352 159.103 o
218.891 147.773 o
343.283 194.798 o
276.254 162.012 o
277.58 162.994 o
294.919 165.482 o
271.022 143.653 o
276.424 165.871 o
193.359 142.614 o
157.914 127.207 o
182.238 132.028 o
204.065 151.708 o
176.479 114.06 o
219.582 145.954 o
184 129.067 o
253.828 155.15 o
156.236 128.738 o
282.03 175.952 o
272.785 156.049 o
183.898 119.328 o
287.552 173.908 o
258.287 138.116 o
159.299 129.076 o
170.463 123.74 o
241.671 152.436 o
218.19 169.308 o
246.36 131.785 o
189.278 124.216 o
148.086 121.645 o
338.315 169.195 o
309.357 172.328 o
218.735 135.921 o
231.025 151.891 o
225.539 142.149 o
182.475 141.097 o
284.206 159.587 o
232.652 150.149 o
240.51 148.142 o
240.348 136.934 o
265.139 156.908 o
217.435 137.118 o
232.043 143.103 o
214.214 146.153 o
192.215 120.55 o
248.556 136.819 o
228.465 136.57 o
249.377 144.031 o
153.444 122.149 o
150.47 120.802 o
256.928 171.462 o
303.345 163.06 o
254.891 158.228 o
336.224 175.111 o
221.601 149.761 o
208.229 140.556 o
246.108 150.895 o
165.21 108.324 o
177.363 122.403 o
260.862 155.88 o
224.834 142.789 o
172.545 119.166 o
223.545 154.066 o
267.945 160.211 o
247.072 154.241 o
220.308 141.654 o
199.352 127.13 o
210.716 144.136 o
239.26 149.898 o
200.223 135.733 o
259.305 153.076 o
256.046 147.875 o
213.571 148.2 o
150.282 105.558 o
320.838 161.707 o
260.51 173.281 o
185.088 134.939 o
137.68 115.567 o
243.528 153.719 o
243.378 133.816 o
181.814 124.766 o
258.055 164.151 o
179.06 117.263 o
238.924 155.132 o
197.362 119.712 o
293.429 168.567 o
279.75 151.524 o
195.518 137.555 o
304.814 144.915 o
268.534 152.701 o
274.951 157.168 o
257.309 157.125 o
228.463 152.053 o
180.934 133.588 o
248.167 154.173 o
146.864 118.552 o
273.185 160.306 o
239.979 157.935 o
298.354 167.34 o
221.508 131.592 o
213.467 145.553 o
289.553 157.684 o
230.759 147.93 o
233.425 134.516 o
247.121 147.745 o
253.856 143.435 o
240.999 160.146 o
193.369 130.869 o
273.702 148.332 o
220.235 147.478 o
204.891 155.841 o
171.58 140.873 o
166.158 144.479 o
167.396 140.907 o
214.248 142.812 o
255.178 142.36 o
197.988 136.307 o
352.521 193.179 o
184.035 126.984 o
172.829 121.044 o
184.661 127.855 o
188.189 129.397 o
234.982 142.41 o
255.245 167.992 o
320.671 172.649 o
256.097 146.486 o
110.855 97.1572 o
259.563 149.136 o
149.278 118.565 o
188.153 133.17 o
177.52 121.473 o
236.575 149.873 o
184.945 130.9 o
239.467 156.117 o
229.661 150.803 o
236.066 137.879 o
178.154 143.64 o
271.198 158.744 o
201.156 135.49 o
280.455 158.714 o
235.002 141.856 o
165.395 147.039 o
271.895 156.615 o
288.285 166.21 o
245.938 151.591 o
213.874 143.25 o
275.201 155.2 o
146.363 114.334 o
339.055 171.763 o
180.119 118.306 o
315.009 158.509 o
179.252 132.024 o
201.143 151.334 o
235.791 140.104 o
257.27 147.68 o
189.502 127.763 o
91.9392 103.235 o
229.352 149.53 o
212.595 131.378 o
190.578 130.505 o
188.98 129.123 o
303.903 177.978 o
174.787 131.698 o
223.805 148.09 o
137.695 121.268 o
332.418 169.674 o
187.304 132.168 o
123.184 95.315 o
314.106 191.09 o
195.608 122.407 o
232.666 165.788 o
277.408 155.424 o
250.158 153.959 o
265.568 138.042 o
198.657 145.603 o
277.498 164.269 o
219.228 136.778 o
264.479 146.74 o
252.383 158.935 o
228.755 143.705 o
151.484 134.524 o
264.736 168.369 o
248.932 148.364 o
245.105 139.951 o
182.685 128.21 o
230.965 124.084 o
305.193 158.328 o
262.292 159.315 o
69.7526 103.047 o
152.376 131.091 o
245.126 159.592 o
354.914 185.918 o
323.111 180.973 o
211.399 159.168 o
276.327 166.96 o
240.489 132.703 o
246.973 156.163 o
151.226 119.89 o
249.983 132.084 o
238.138 147.988 o
304.234 181.285 o
263.861 155.689 o
235.212 147.138 o
205.043 139.131 o
196.268 118.366 o
276.666 153.078 o
228.938 135.912 o
230.732 146.51 o
213.342 126.174 o
226.995 144.387 o
168.601 114.492 o
270.376 151.293 o
299.829 166.001 o
306.793 158.691 o
325.049 180.316 o
195.083 148.041 o
215.878 151.304 o
278.716 151.493 o
176.993 126.337 o
325.132 181.026 o
244.313 160.019 o
237.482 137.83 o
174.669 125.92 o
284.264 152.695 o
246.624 157.659 o
256.753 144.694 o
247.787 145.56 o
196.976 138.804 o
250.236 142.159 o
257.953 166.267 o
262.734 167.448 o
176.528 115.158 o
213.436 144.7 o
156.529 120.487 o
157.092 118.116 o
223.319 152.759 o
212.859 127.035 o
102.697 85.3505 o
249.012 153.832 o
275.404 165.317 o
321.797 178.963 o
249.901 135.068 o
306.775 168.268 o
97.7863 94.941 o
197.535 123.394 o
242.362 151.557 o
238.329 150.701 o
326.161 166.02 o
253.7 159.447 o
207.601 140.727 o
240.166 169.76 o
217.636 154.568 o
308.002 173.163 o
171.191 127.695 o
248.738 147.618 o
176.842 134.448 o
238.559 156.726 o
230.367 138.247 o
248.535 137.67 o
180.775 118.288 o
266.051 147.766 o
313.333 162.324 o
292.198 160.385 o
70.6214 87.8161 o
150.827 112.998 o
324.83 178.357 o
204.645 138.815 o
227.864 139.518 o
233.809 163.201 o
210.862 145.741 o
209.001 130.799 o
158.373 138.402 o
276.97 176.399 o
163.241 117.294 o
236.159 165.65 o
211.023 136.569 o
191.487 137.305 o
295.796 175.787 o
188.966 130.608 o
263.601 157.258 o
193.405 135.651 o
163.735 116.382 o
200.94 139.203 o
287.065 163.28 o
257.161 138.861 o
251.52 152.108 o
235.346 145.602 o
196.086 143.037 o
222.331 134.678 o
209.831 144.572 o
115.58 105.543 o
217.627 134.121 o
150.032 109.677 o
262.142 147.071 o
274.141 148.605 o
175.404 127.844 o
260.637 156.649 o
283.806 149.35 o
259.67 147.5 o
225.23 135.69 o
275.817 150.734 o
253.272 161.204 o
210.483 130.297 o
222.98 127.483 o
314.41 163.649 o
103.38 100.394 o
104.332 95.0098 o
154.585 109.484 o
223.642 145.476 o
219.824 144.945 o
261.361 151.157 o
217.497 143.568 o
244.599 169.907 o
299.712 170.614 o
262.253 163.095 o
155.18 121.357 o
199.701 148.745 o
211.026 126.59 o
146.126 133.158 o
136.8 123.738 o
216.622 142.392 o
276.96 152.02 o
258.974 143.629 o
143.035 120.677 o
153.051 114.685 o
152.721 128.45 o
214.765 128.187 o
219.991 156.331 o
205.746 136.443 o
240.607 138.806 o
210.749 139.37 o
306.702 161.987 o
271.668 171.694 o
250.549 149.903 o
233.576 137.73 o
279.795 167.487 o
276.325 150.112 o
218.565 134.612 o
225.711 160.41 o
330.372 145.964 o
177.552 116.35 o
252.622 153.505 o
201.114 147.597 o
145.3 108.726 o
119.181 103.415 o
244.902 144.663 o
261.62 154.524 o
295.248 153.186 o
168.096 117.664 o
220.886 135.948 o
260.92 154.222 o
153.358 114.51 o
222.125 143.737 o
259.567 146.055 o
282.103 158.861 o
101.956 97.9533 o
201.56 144.807 o
308.038 178.587 o
225.221 131.008 o
208.753 136.499 o
307.436 159.413 o
170.964 128.436 o
276.244 163.061 o
183.663 151.929 o
140.591 113.816 o
219.656 144.012 o
173.055 115.899 o
306.484 159.387 o
151.694 111.899 o
181.353 109.545 o
190.623 121.7 o
213.055 127.728 o
267.915 165.906 o
256.682 141.881 o
208.839 147.44 o
281.511 161.584 o
169.369 129.613 o
185.293 131.77 o
150.274 126.911 o
243.898 156.349 o
301.915 171.651 o
232.427 146.865 o
162.73 130.954 o
237.245 132.829 o
183.627 122.148 o
279.5 155.39 o
196.89 123.042 o
195.549 137.605 o
124.435 121.111 o
118.661 107.948 o
144.382 96.4142 o
158.591 126.148 o
252.685 146.138 o
194.14 136.466 o
223.194 138.172 o
131.639 122.872 o
212.024 125.411 o
176.17 122.95 o
254.126 146.015 o
315.705 179.121 o
237.011 139.747 o
161.667 117.512 o
296.177 165.151 o
142.585 124.187 o
220.096 152.246 o
222.049 134.225 o
225.531 143.662 o
364.79 204.089 o
186.444 128.722 o
210.298 131.626 o
224.385 148.962 o
234.77 141.809 o
182.803 134.873 o
183.322 129.786 o
272.883 152.854 o
295.945 161.633 o
154.838 125.027 o
195.061 121.717 o
275.786 175.187 o
180.032 116.51 o
206.529 155.085 o
214.104 150.111 o
162.984 122.311 o
251.507 155.893 o
211.036 122.32 o
198.7 122.563 o
202.512 117.158 o
288.868 157.251 o
196.685 134.097 o
263.018 161.766 o
214.806 127.601 o
250.43 153.283 o
279.576 167.575 o
186.122 140.641 o
172.028 121.908 o
138.896 136.005 o
265.665 164.856 o
230.402 155.52 o
223.665 135.246 o
136.185 110.747 o
245.576 155.1 o
326.583 171.615 o
267.751 171.917 o
249.489 150.006 o
167.682 138.744 o
191.484 128.028 o
208.628 131.88 o
173.538 112.462 o
292.367 180.68 o
229.814 141.717 o
333.361 185.193 o
219.344 140.857 o
157.235 113.024 o
314.517 175.768 o
195.982 126.701 o
179.441 134.299 o
264.099 171.916 o
348.009 168.519 o
183.726 105.682 o
188.457 142.21 o
187.416 122.56 o
261.786 151.926 o
319.553 174.879 o
204.284 132.872 o
264.116 169.117 o
178.594 125.456 o
304.123 181.363 o
190.896 127.315 o
196.444 133.845 o
232.504 147.554 o
188.188 116.955 o
320.192 170.148 o
147.684 122.901 o
237.958 153.267 o
147.978 118.953 o
258.171 144.189 o
221.094 142.011 o
242.38 135.211 o
232.16 151.018 o
175.693 122.065 o
254.856 169.631 o
264.112 145.86 o
94.0921 91.8691 o
272.24 178.351 o
227.735 150.359 o
232.437 170.196 o
214.63 139.01 o
128.624 101.407 o
212.157 134.635 o
207.611 120.105 o
213.884 141.505 o
222.367 133.503 o
239.766 145.971 o
142.421 110.388 o
173.684 143.156 o
226.844 133.921 o
237.702 153.619 o
150.772 111.689 o
173.167 134.528 o
301.3 172.103 o
174.974 120.907 o
255.458 155.508 o
276.825 166.189 o
248.682 142.026 o
289.515 160.03 o
285.812 160.983 o
373.047 170.526 o
192.294 135.565 o
208.76 140.173 o
232.327 156.692 o
201.834 128.76 o
207.989 143.062 o
125.907 129.587 o
92.7985 100.2 o
239.206 148.24 o
321.266 172.902 o
168.319 135.482 o
211.412 143.716 o
200.093 134.03 o
173.074 128.836 o
242.079 144.658 o
269.212 161.546 o
326.198 182.154 o
240.49 157.097 o
219.938 124.878 o
161.713 116.472 o
311.33 165.772 o
225.71 147.908 o
211.472 131.198 o
160.756 123.154 o
164.676 127.631 o
258.49 164.434 o
220.921 141.797 o
157.422 116.949 o
298.785 157.944 o
207.776 147.784 o
183.4 136.944 o
291.41 153.169 o
202.607 127.282 o
217.639 159.567 o
174.181 116.514 o
190.115 125.914 o
110.544 117.361 o
195.937 134.688 o
190.05 128.544 o
225.634 135.667 o
246.965 142.293 o
249.212 152.195 o
255.018 144.85 o
230.204 146.741 o
270.614 171.121 o
188.342 137.39 o
173.872 115.911 o
215.192 159.341 o
318.742 175.306 o
203.548 145.57 o
250.152 157.335 o
207.427 130.384 o
261.288 145.557 o
202.123 153.673 o
219.236 149.021 o
201.059 132.47 o
278.245 171.597 o
251.874 145.323 o
211.094 158.958 o
249.451 149.519 o
271.145 157.956 o
264.333 159.027 o
241.149 138.311 o
228.256 157.223 o
343.4 181.161 o
291.412 178.237 o
273.887 155.981 o
287.439 172.619 o
187.088 118.624 o
305.682 168.753 o
189.829 143.541 o
142.419 109.982 o
227.82 145.179 o
259.045 159.802 o
174.33 129.646 o
352.28 177.14 o
286.181 166.529 o
206.919 119.221 o
252.215 160.391 o
201.426 144.212 o
202.613 132.255 o
195.413 136.488 o
263.348 134.194 o
176.878 120.273 o
232.428 134.125 o
247.201 154.688 o
276.168 167.908 o
284.899 168.494 o
207.239 131.866 o
239.114 140.093 o
183.068 126.706 o
250.336 160.767 o
125.665 112.478 o
162.553 117.621 o
209.957 130.741 o
245.214 146.738 o
208.784 136.41 o
209.517 142.793 o
228.714 143.059 o
247.264 146.411 o
177.669 123.549 o
211.239 136.083 o
244.092 152.614 o
257.828 147.26 o
259.09 161.91 o
195.581 128.748 o
271.762 158.543 o
304.067 168.649 o
254.099 139.64 o
251.244 147 o
247.598 146.265 o
209.469 151.849 o
254.767 149.199 o
343.19 168.711 o
224.433 151.451 o
234.804 157.781 o
231.925 148.177 o
203.669 123.425 o
254.688 150.018 o
201.278 138.051 o
194.846 130.75 o
210.393 126.083 o
236.726 140.936 o
257.332 131.265 o
335.651 178.983 o
300.408 170.993 o
226.844 137.392 o
244.806 154.984 o
248.405 163.054 o
219.874 139.086 o
314.617 175.527 o
227.934 158.817 o
205.662 140.363 o
136.546 109.757 o
188.134 124.787 o
230.235 147.945 o
215.265 134.302 o
224.571 141.827 o
215.571 128.013 o
191.074 146.641 o
244.547 133.949 o
191.579 114.215 o
209.598 136.041 o
214.623 131.892 o
171.452 114.229 o
265.822 167.855 o
223.85 140.831 o
228.334 136.313 o
262.961 155.732 o
245.62 140.719 o
258.345 156.036 o
161.426 115.505 o
159.396 123.505 o
237.378 152.029 o
275.677 169.096 o
266.726 142.754 o
238.301 146.105 o
162.794 127.347 o
231.649 141.664 o
187.793 129.417 o
140.194 139.291 o
265.983 155.227 o
98.5466 106.153 o
246.559 146.046 o
164.555 127.689 o
158.979 130.533 o
284.209 162.725 o
198.554 147.517 o
252.019 159.031 o
152.338 110.402 o
220.626 134.809 o
222.059 134.026 o
196.8 131.573 o
221.232 150.132 o
309.352 158.367 o
160.408 122.242 o
226.523 124.856 o
157.988 119.625 o
301.2 162.9 o
227.52 132.928 o
192.665 140.366 o
217.587 136.214 o
200.413 124.831 o
256.489 148.935 o
234.528 149.105 o
270.968 159.175 o
203.523 138.134 o
181.118 136.836 o
222.342 131.651 o
273.029 169.028 o
300.618 160.376 o
236.27 141.477 o
228.701 153.896 o
193.847 131.637 o
304.154 179.241 o
175.952 131.529 o
219.182 135.358 o
195.181 135.508 o
336.681 172.885 o
250.773 144.868 o
247.716 161.747 o
217.82 140.216 o
165.277 120.33 o
217.426 156.172 o
219.271 130.912 o
190.004 118.435 o
228.165 134.705 o
238.791 153.586 o
325.396 174.018 o
158.204 117.183 o
151.814 102.559 o
308.055 158.984 o
239.396 147.612 o
163.524 132.032 o
233.113 149.742 o
270.298 155.357 o
335.497 176.683 o
189.226 139.843 o
273.26 165.274 o
209.419 134.057 o
211.946 133.015 o
263.868 149.848 o
151.539 122.092 o
156.562 118.724 o
289.466 159.574 o
148.451 106.81 o
239.042 144.247 o
237.058 136.353 o
209.586 135.476 o
178.921 118.183 o
127.743 105.492 o
161.182 130.276 o
140.756 121.183 o
206.596 134.531 o
221.841 143.787 o
174.879 128.823 o
184.859 122.866 o
213.341 147.424 o
193.065 128.466 o
181.318 124.9 o
189.281 136.801 o
178.131 147.332 o
349.831 180.231 o
300.211 171.295 o
102.496 119.404 o
155.531 118.322 o
235.596 143.37 o
241.276 152.242 o
231.797 139.83 o
292.135 181.361 o
277.942 163.424 o
292.144 171.77 o
200.519 134.665 o
178.998 126.029 o
182.014 122.905 o
241.331 140.156 o
155.783 119.509 o
185.669 130.771 o
208.511 134.435 o
260.598 159.225 o
212.299 133.678 o
180.442 116.837 o
235.911 134.142 o
228.227 145.6 o
190.483 152.298 o
181.699 125.583 o
259.632 153.875 o
277.947 167.204 o
240.24 151.026 o
172.785 146.49 o
grestore
4.000 setlinewidth
1 setlinecap
0.000 setgray
gsave
225.214144 142.753453 m
174.391273 126.058501 124.984659 109.82878 76.994301 94.064289 c
stroke
grestore
gsave
81.418689 93.412525 m
76.994301 94.064289 l
80.170345 97.212741 l
stroke
grestore
gsave
225.214144 142.753453 m
227.854904 134.714436 230.030434 128.091675 231.740733 122.885171 c
stroke
grestore
gsave
232.392497 127.309559 m
231.740733 122.885171 l
228.592282 126.061215 l
stroke
grestore

end
showpage
