%!PS-Adobe-3.0 EPSF-3.0
%%Title: figures/svm_hyperplane.eps
%%Creator: matplotlib version 3.0.2, http://matplotlib.org/
%%CreationDate: Thu May  9 04:09:47 2019
%%Orientation: portrait
%%BoundingBox: -54 216 666 576
%%EndComments
%%BeginProlog
/mpldict 8 dict def
mpldict begin
/m { moveto } bind def
/l { lineto } bind def
/r { rlineto } bind def
/c { curveto } bind def
/cl { closepath } bind def
/box {
m
1 index 0 r
0 exch r
neg 0 r
cl
} bind def
/clipbox {
box
clip
newpath
} bind def
%!PS-Adobe-3.0 Resource-Font
%%Title: DejaVu Sans
%%Copyright: Copyright (c) 2003 by Bitstream, Inc. All Rights Reserved. Copyright (c) 2006 by Tavmjong Bah. All Rights Reserved. DejaVu changes are in public domain 
%%Creator: Converted from TrueType to type 3 by PPR
25 dict begin
/_d{bind def}bind def
/_m{moveto}_d
/_l{lineto}_d
/_cl{closepath eofill}_d
/_c{curveto}_d
/_sc{7 -1 roll{setcachedevice}{pop pop pop pop pop pop}ifelse}_d
/_e{exec}_d
/FontName /DejaVuSans def
/PaintType 0 def
/FontMatrix[.001 0 0 .001 0 0]def
/FontBBox[-1021 -463 1793 1232]def
/FontType 3 def
/Encoding [ /zero /one /two /four /five /six /seven /eight /nine /minus ] def
/FontInfo 10 dict dup begin
/FamilyName (DejaVu Sans) def
/FullName (DejaVu Sans) def
/Notice (Copyright (c) 2003 by Bitstream, Inc. All Rights Reserved. Copyright (c) 2006 by Tavmjong Bah. All Rights Reserved. DejaVu changes are in public domain ) def
/Weight (Book) def
/Version (Version 2.35) def
/ItalicAngle 0.0 def
/isFixedPitch false def
/UnderlinePosition -130 def
/UnderlineThickness 90 def
end readonly def
/CharStrings 11 dict dup begin
/.notdef 0 def
/zero{636 0 66 -13 570 742 _sc
318 664 _m
267 664 229 639 203 589 _c
177 539 165 464 165 364 _c
165 264 177 189 203 139 _c
229 89 267 64 318 64 _c
369 64 407 89 433 139 _c
458 189 471 264 471 364 _c
471 464 458 539 433 589 _c
407 639 369 664 318 664 _c
318 742 _m
399 742 461 709 505 645 _c
548 580 570 486 570 364 _c
570 241 548 147 505 83 _c
461 19 399 -13 318 -13 _c
236 -13 173 19 130 83 _c
87 147 66 241 66 364 _c
66 486 87 580 130 645 _c
173 709 236 742 318 742 _c
_cl}_d
/one{636 0 110 0 544 729 _sc
124 83 _m
285 83 _l
285 639 _l
110 604 _l
110 694 _l
284 729 _l
383 729 _l
383 83 _l
544 83 _l
544 0 _l
124 0 _l
124 83 _l
_cl}_d
/two{{636 0 73 0 536 742 _sc
192 83 _m
536 83 _l
536 0 _l
73 0 _l
73 83 _l
110 121 161 173 226 239 _c
290 304 331 346 348 365 _c
380 400 402 430 414 455 _c
426 479 433 504 433 528 _c
433 566 419 598 392 622 _c
365 646 330 659 286 659 _c
255 659 222 653 188 643 _c
154 632 117 616 78 594 _c
78 694 _l
118 710 155 722 189 730 _c
223 738 255 742 284 742 _c
}_e{359 742 419 723 464 685 _c
509 647 532 597 532 534 _c
532 504 526 475 515 449 _c
504 422 484 390 454 354 _c
446 344 420 317 376 272 _c
332 227 271 164 192 83 _c
_cl}_e}_d
/four{636 0 49 0 580 729 _sc
378 643 _m
129 254 _l
378 254 _l
378 643 _l
352 729 _m
476 729 _l
476 254 _l
580 254 _l
580 172 _l
476 172 _l
476 0 _l
378 0 _l
378 172 _l
49 172 _l
49 267 _l
352 729 _l
_cl}_d
/five{{636 0 77 -13 549 729 _sc
108 729 _m
495 729 _l
495 646 _l
198 646 _l
198 467 _l
212 472 227 476 241 478 _c
255 480 270 482 284 482 _c
365 482 429 459 477 415 _c
525 370 549 310 549 234 _c
549 155 524 94 475 51 _c
426 8 357 -13 269 -13 _c
238 -13 207 -10 175 -6 _c
143 -1 111 6 77 17 _c
77 116 _l
106 100 136 88 168 80 _c
199 72 232 69 267 69 _c
}_e{323 69 368 83 401 113 _c
433 143 450 183 450 234 _c
450 284 433 324 401 354 _c
368 384 323 399 267 399 _c
241 399 214 396 188 390 _c
162 384 135 375 108 363 _c
108 729 _l
_cl}_e}_d
/six{{636 0 70 -13 573 742 _sc
330 404 _m
286 404 251 388 225 358 _c
199 328 186 286 186 234 _c
186 181 199 139 225 109 _c
251 79 286 64 330 64 _c
374 64 409 79 435 109 _c
461 139 474 181 474 234 _c
474 286 461 328 435 358 _c
409 388 374 404 330 404 _c
526 713 _m
526 623 _l
501 635 476 644 451 650 _c
425 656 400 659 376 659 _c
310 659 260 637 226 593 _c
}_e{192 549 172 482 168 394 _c
187 422 211 444 240 459 _c
269 474 301 482 336 482 _c
409 482 467 459 509 415 _c
551 371 573 310 573 234 _c
573 159 550 99 506 54 _c
462 9 403 -13 330 -13 _c
246 -13 181 19 137 83 _c
92 147 70 241 70 364 _c
70 479 97 571 152 639 _c
206 707 280 742 372 742 _c
396 742 421 739 447 735 _c
472 730 498 723 526 713 _c
_cl}_e}_d
/seven{636 0 82 0 551 729 _sc
82 729 _m
551 729 _l
551 687 _l
286 0 _l
183 0 _l
432 646 _l
82 646 _l
82 729 _l
_cl}_d
/eight{{636 0 68 -13 568 742 _sc
318 346 _m
271 346 234 333 207 308 _c
180 283 167 249 167 205 _c
167 161 180 126 207 101 _c
234 76 271 64 318 64 _c
364 64 401 76 428 102 _c
455 127 469 161 469 205 _c
469 249 455 283 429 308 _c
402 333 365 346 318 346 _c
219 388 _m
177 398 144 418 120 447 _c
96 476 85 511 85 553 _c
85 611 105 657 147 691 _c
188 725 245 742 318 742 _c
}_e{390 742 447 725 489 691 _c
530 657 551 611 551 553 _c
551 511 539 476 515 447 _c
491 418 459 398 417 388 _c
464 377 501 355 528 323 _c
554 291 568 251 568 205 _c
568 134 546 80 503 43 _c
459 5 398 -13 318 -13 _c
237 -13 175 5 132 43 _c
89 80 68 134 68 205 _c
68 251 81 291 108 323 _c
134 355 171 377 219 388 _c
183 544 _m
183 506 194 476 218 455 _c
}_e{242 434 275 424 318 424 _c
360 424 393 434 417 455 _c
441 476 453 506 453 544 _c
453 582 441 611 417 632 _c
393 653 360 664 318 664 _c
275 664 242 653 218 632 _c
194 611 183 582 183 544 _c
_cl}_e}_d
/nine{{636 0 63 -13 566 742 _sc
110 15 _m
110 105 _l
134 93 159 84 185 78 _c
210 72 235 69 260 69 _c
324 69 374 90 408 134 _c
442 178 462 244 468 334 _c
448 306 424 284 396 269 _c
367 254 335 247 300 247 _c
226 247 168 269 126 313 _c
84 357 63 417 63 494 _c
63 568 85 628 129 674 _c
173 719 232 742 306 742 _c
390 742 455 709 499 645 _c
543 580 566 486 566 364 _c
}_e{566 248 538 157 484 89 _c
429 21 356 -13 264 -13 _c
239 -13 214 -10 189 -6 _c
163 -2 137 5 110 15 _c
306 324 _m
350 324 385 339 411 369 _c
437 399 450 441 450 494 _c
450 546 437 588 411 618 _c
385 648 350 664 306 664 _c
262 664 227 648 201 618 _c
175 588 162 546 162 494 _c
162 441 175 399 201 369 _c
227 339 262 324 306 324 _c
_cl}_e}_d
/minus{838 0 106 272 732 355 _sc
106 355 _m
732 355 _l
732 272 _l
106 272 _l
106 355 _l
_cl}_d
end readonly def

/BuildGlyph
 {exch begin
 CharStrings exch
 2 copy known not{pop /.notdef}if
 true 3 1 roll get exec
 end}_d

/BuildChar {
 1 index /Encoding get exch get
 1 index /BuildGlyph get exec
}_d

FontName currentdict end definefont pop
end
%%EndProlog
mpldict begin
-54 216 translate
720 360 0 0 clipbox
gsave
0 0 m
720 0 l
720 360 l
0 360 l
cl
1.000 setgray
fill
grestore
gsave
38.86 27.88 m
706.68 27.88 l
706.68 346.68 l
38.86 346.68 l
cl
1.000 setgray
fill
grestore
/p0_0 {
newpath
translate
0 -2.738613 m
0.726289 -2.738613 1.422928 -2.450055 1.936492 -1.936492 c
2.450055 -1.422928 2.738613 -0.726289 2.738613 0 c
2.738613 0.726289 2.450055 1.422928 1.936492 1.936492 c
1.422928 2.450055 0.726289 2.738613 0 2.738613 c
-0.726289 2.738613 -1.422928 2.450055 -1.936492 1.936492 c
-2.450055 1.422928 -2.738613 0.726289 -2.738613 0 c
-2.738613 -0.726289 -2.450055 -1.422928 -1.936492 -1.936492 c
-1.422928 -2.450055 -0.726289 -2.738613 0 -2.738613 c
cl

} bind def
1.000 setlinewidth
1 setlinejoin
0 setlinecap
[] 0 setdash
0.694 0.349 0.157 setrgbcolor
gsave
667.8 318.8 38.86 27.88 clipbox
273.69 42.6074 p0_0
gsave
fill
grestore
stroke
grestore
0.651 0.808 0.890 setrgbcolor
gsave
667.8 318.8 38.86 27.88 clipbox
285.757 259.316 p0_0
gsave
fill
grestore
stroke
grestore
0.694 0.349 0.157 setrgbcolor
gsave
667.8 318.8 38.86 27.88 clipbox
69.7555 94.3956 p0_0
gsave
fill
grestore
stroke
grestore
0.651 0.808 0.890 setrgbcolor
gsave
667.8 318.8 38.86 27.88 clipbox
372.899 281.569 p0_0
gsave
fill
grestore
stroke
grestore
0.694 0.349 0.157 setrgbcolor
gsave
667.8 318.8 38.86 27.88 clipbox
397.485 61.4839 p0_0
gsave
fill
grestore
stroke
grestore
0.651 0.808 0.890 setrgbcolor
gsave
667.8 318.8 38.86 27.88 clipbox
499.085 236.57 p0_0
gsave
fill
grestore
stroke
grestore
gsave
667.8 318.8 38.86 27.88 clipbox
175.207 303.254 p0_0
gsave
fill
grestore
stroke
grestore
gsave
667.8 318.8 38.86 27.88 clipbox
553.894 257.53 p0_0
gsave
fill
grestore
stroke
grestore
gsave
667.8 318.8 38.86 27.88 clipbox
210.381 247.485 p0_0
gsave
fill
grestore
stroke
grestore
gsave
667.8 318.8 38.86 27.88 clipbox
429.298 278.233 p0_0
gsave
fill
grestore
stroke
grestore
0.694 0.349 0.157 setrgbcolor
gsave
667.8 318.8 38.86 27.88 clipbox
371.343 102.949 p0_0
gsave
fill
grestore
stroke
grestore
gsave
667.8 318.8 38.86 27.88 clipbox
329.985 118.838 p0_0
gsave
fill
grestore
stroke
grestore
0.651 0.808 0.890 setrgbcolor
gsave
667.8 318.8 38.86 27.88 clipbox
453.131 331.953 p0_0
gsave
fill
grestore
stroke
grestore
0.694 0.349 0.157 setrgbcolor
gsave
667.8 318.8 38.86 27.88 clipbox
320.003 64.654 p0_0
gsave
fill
grestore
stroke
grestore
gsave
667.8 318.8 38.86 27.88 clipbox
202.006 119.342 p0_0
gsave
fill
grestore
stroke
grestore
0.651 0.808 0.890 setrgbcolor
gsave
667.8 318.8 38.86 27.88 clipbox
675.785 293.316 p0_0
gsave
fill
grestore
stroke
grestore
gsave
667.8 318.8 38.86 27.88 clipbox
361.055 226.824 p0_0
gsave
fill
grestore
stroke
grestore
0.694 0.349 0.157 setrgbcolor
gsave
667.8 318.8 38.86 27.88 clipbox
265.914 45.1739 p0_0
gsave
fill
grestore
stroke
grestore
0.651 0.808 0.890 setrgbcolor
gsave
667.8 318.8 38.86 27.88 clipbox
571.446 296.854 p0_0
gsave
fill
grestore
stroke
grestore
gsave
667.8 318.8 38.86 27.88 clipbox
528.663 225.795 p0_0
gsave
fill
grestore
stroke
grestore
0.694 0.349 0.157 setrgbcolor
gsave
667.8 318.8 38.86 27.88 clipbox
295.552 123.778 p0_0
gsave
fill
grestore
stroke
grestore
gsave
667.8 318.8 38.86 27.88 clipbox
232.2 163.411 p0_0
gsave
fill
grestore
stroke
grestore
gsave
667.8 318.8 38.86 27.88 clipbox
322.022 56.4692 p0_0
gsave
fill
grestore
stroke
grestore
gsave
667.8 318.8 38.86 27.88 clipbox
262.429 112.041 p0_0
gsave
fill
grestore
stroke
grestore
0.651 0.808 0.890 setrgbcolor
gsave
667.8 318.8 38.86 27.88 clipbox
429.622 273.411 p0_0
gsave
fill
grestore
stroke
grestore
gsave
667.8 318.8 38.86 27.88 clipbox
400.725 291.158 p0_0
gsave
fill
grestore
stroke
grestore
0.694 0.349 0.157 setrgbcolor
gsave
667.8 318.8 38.86 27.88 clipbox
425.292 69.8458 p0_0
gsave
fill
grestore
stroke
grestore
gsave
667.8 318.8 38.86 27.88 clipbox
223.395 55.867 p0_0
gsave
fill
grestore
stroke
grestore
0.651 0.808 0.890 setrgbcolor
gsave
667.8 318.8 38.86 27.88 clipbox
439.733 245.42 p0_0
gsave
fill
grestore
stroke
grestore
0.694 0.349 0.157 setrgbcolor
gsave
667.8 318.8 38.86 27.88 clipbox
313.4 123.11 p0_0
gsave
fill
grestore
stroke
grestore
gsave
667.8 318.8 38.86 27.88 clipbox
421.989 144.676 p0_0
gsave
fill
grestore
stroke
grestore
gsave
667.8 318.8 38.86 27.88 clipbox
241.583 101.496 p0_0
gsave
fill
grestore
stroke
grestore
gsave
667.8 318.8 38.86 27.88 clipbox
312.887 68.318 p0_0
gsave
fill
grestore
stroke
grestore
0.651 0.808 0.890 setrgbcolor
gsave
667.8 318.8 38.86 27.88 clipbox
502.273 304.206 p0_0
gsave
fill
grestore
stroke
grestore
gsave
667.8 318.8 38.86 27.88 clipbox
480.46 299.98 p0_0
gsave
fill
grestore
stroke
grestore
gsave
667.8 318.8 38.86 27.88 clipbox
578.762 260.393 p0_0
gsave
fill
grestore
stroke
grestore
gsave
667.8 318.8 38.86 27.88 clipbox
385.578 313.609 p0_0
gsave
fill
grestore
stroke
grestore
0.694 0.349 0.157 setrgbcolor
gsave
667.8 318.8 38.86 27.88 clipbox
274.77 85.9485 p0_0
gsave
fill
grestore
stroke
grestore
0.651 0.808 0.890 setrgbcolor
gsave
667.8 318.8 38.86 27.88 clipbox
425.875 269.161 p0_0
gsave
fill
grestore
stroke
grestore
0.694 0.349 0.157 setrgbcolor
gsave
667.8 318.8 38.86 27.88 clipbox
321.744 61.5055 p0_0
gsave
fill
grestore
stroke
grestore
/p1_0 {
newpath
translate
0 -5 m
1.326016 -5 2.597899 -4.473168 3.535534 -3.535534 c
4.473168 -2.597899 5 -1.326016 5 0 c
5 1.326016 4.473168 2.597899 3.535534 3.535534 c
2.597899 4.473168 1.326016 5 0 5 c
-1.326016 5 -2.597899 4.473168 -3.535534 3.535534 c
-4.473168 2.597899 -5 1.326016 -5 0 c
-5 -1.326016 -4.473168 -2.597899 -3.535534 -3.535534 c
-2.597899 -4.473168 -1.326016 -5 0 -5 c
cl

} bind def
0.000 setgray
gsave
667.8 318.8 38.86 27.88 clipbox
361.055 226.824 p1_0
stroke
grestore
gsave
667.8 318.8 38.86 27.88 clipbox
232.2 163.411 p1_0
stroke
grestore
gsave
667.8 318.8 38.86 27.88 clipbox
421.989 144.676 p1_0
stroke
grestore
0.800 setlinewidth
gsave
/o {
gsave
newpath
translate
0.8 setlinewidth
1 setlinejoin
0 setlinecap
0 0 m
0 -3.5 l

gsave
0.000 setgray
fill
grestore
stroke
grestore
} bind def
41.1707 27.88 o
grestore
/DejaVuSans findfont
10.000 scalefont
setfont
gsave
37.991052 13.286250 translate
0.000000 rotate
0.000000 0.000000 m /four glyphshow
grestore
gsave
/o {
gsave
newpath
translate
0.8 setlinewidth
1 setlinejoin
0 setlinecap
0 0 m
0 -3.5 l

gsave
0.000 setgray
fill
grestore
stroke
grestore
} bind def
138.977 27.88 o
grestore
gsave
135.797230 13.286250 translate
0.000000 rotate
0.000000 0.000000 m /five glyphshow
grestore
gsave
/o {
gsave
newpath
translate
0.8 setlinewidth
1 setlinejoin
0 setlinecap
0 0 m
0 -3.5 l

gsave
0.000 setgray
fill
grestore
stroke
grestore
} bind def
236.783 27.88 o
grestore
gsave
233.603407 13.286250 translate
0.000000 rotate
0.000000 0.000000 m /six glyphshow
grestore
gsave
/o {
gsave
newpath
translate
0.8 setlinewidth
1 setlinejoin
0 setlinecap
0 0 m
0 -3.5 l

gsave
0.000 setgray
fill
grestore
stroke
grestore
} bind def
334.589 27.88 o
grestore
gsave
331.409585 13.286250 translate
0.000000 rotate
0.000000 0.000000 m /seven glyphshow
grestore
gsave
/o {
gsave
newpath
translate
0.8 setlinewidth
1 setlinejoin
0 setlinecap
0 0 m
0 -3.5 l

gsave
0.000 setgray
fill
grestore
stroke
grestore
} bind def
432.395 27.88 o
grestore
gsave
429.215763 13.286250 translate
0.000000 rotate
0.000000 0.000000 m /eight glyphshow
grestore
gsave
/o {
gsave
newpath
translate
0.8 setlinewidth
1 setlinejoin
0 setlinecap
0 0 m
0 -3.5 l

gsave
0.000 setgray
fill
grestore
stroke
grestore
} bind def
530.202 27.88 o
grestore
gsave
527.021941 13.286250 translate
0.000000 rotate
0.000000 0.000000 m /nine glyphshow
grestore
gsave
/o {
gsave
newpath
translate
0.8 setlinewidth
1 setlinejoin
0 setlinecap
0 0 m
0 -3.5 l

gsave
0.000 setgray
fill
grestore
stroke
grestore
} bind def
628.008 27.88 o
grestore
gsave
621.648431 13.286250 translate
0.000000 rotate
0.000000 0.000000 m /one glyphshow
6.362305 0.000000 m /zero glyphshow
grestore
gsave
/o {
gsave
newpath
translate
0.8 setlinewidth
1 setlinejoin
0 setlinecap
0 0 m
-3.5 0 l

gsave
0.000 setgray
fill
grestore
stroke
grestore
} bind def
38.86 62.236 o
grestore
gsave
10.766250 58.439095 translate
0.000000 rotate
0.000000 0.000000 m /minus glyphshow
8.378906 0.000000 m /one glyphshow
14.741211 0.000000 m /zero glyphshow
grestore
gsave
/o {
gsave
newpath
translate
0.8 setlinewidth
1 setlinejoin
0 setlinecap
0 0 m
-3.5 0 l

gsave
0.000 setgray
fill
grestore
stroke
grestore
} bind def
38.86 126.058 o
grestore
gsave
17.125625 122.260847 translate
0.000000 rotate
0.000000 0.000000 m /minus glyphshow
8.378906 0.000000 m /eight glyphshow
grestore
gsave
/o {
gsave
newpath
translate
0.8 setlinewidth
1 setlinejoin
0 setlinecap
0 0 m
-3.5 0 l

gsave
0.000 setgray
fill
grestore
stroke
grestore
} bind def
38.86 189.879 o
grestore
gsave
17.125625 186.082599 translate
0.000000 rotate
0.000000 0.000000 m /minus glyphshow
8.378906 0.000000 m /six glyphshow
grestore
gsave
/o {
gsave
newpath
translate
0.8 setlinewidth
1 setlinejoin
0 setlinecap
0 0 m
-3.5 0 l

gsave
0.000 setgray
fill
grestore
stroke
grestore
} bind def
38.86 253.701 o
grestore
gsave
17.125625 249.904350 translate
0.000000 rotate
0.000000 0.000000 m /minus glyphshow
8.378906 0.000000 m /four glyphshow
grestore
gsave
/o {
gsave
newpath
translate
0.8 setlinewidth
1 setlinejoin
0 setlinecap
0 0 m
-3.5 0 l

gsave
0.000 setgray
fill
grestore
stroke
grestore
} bind def
38.86 317.523 o
grestore
gsave
17.125625 313.726102 translate
0.000000 rotate
0.000000 0.000000 m /minus glyphshow
8.378906 0.000000 m /two glyphshow
grestore
1.500 setlinewidth
[5.55 2.4] 0 setdash
gsave
667.8 318.8 38.86 27.88 clipbox
38.86 258.690848 m
61.888276 256.413958 l
84.916552 254.137068 l
107.944828 251.860178 l
130.973103 249.583288 l
149.595035 247.742069 l
154.001379 247.306397 l
177.029655 245.029507 l
200.057931 242.752617 l
223.086207 240.475727 l
246.114483 238.198837 l
260.778361 236.748966 l
269.142759 235.921947 l
292.171034 233.645057 l
315.19931 231.368167 l
338.227586 229.091276 l
361.255862 226.814386 l
371.961688 225.755862 l
384.284138 224.537496 l
407.312414 222.260606 l
430.34069 219.983716 l
453.368966 217.706826 l
476.397241 215.429936 l
483.145014 214.762759 l
499.425517 213.153046 l
522.453793 210.876155 l
545.482069 208.599265 l
568.510345 206.322375 l
591.538621 204.045485 l
594.328341 203.769655 l
614.566897 201.768595 l
637.595172 199.491705 l
660.623448 197.214815 l
683.651724 194.937925 l
705.511667 192.776552 l
706.68 192.661034 l
stroke
grestore
[] 0 setdash
gsave
667.8 318.8 38.86 27.88 clipbox
38.86 220.613946 m
61.888276 218.337056 l
84.916552 216.060166 l
98.03842 214.762759 l
107.944828 213.783276 l
130.973103 211.506386 l
154.001379 209.229495 l
177.029655 206.952605 l
200.057931 204.675715 l
209.221746 203.769655 l
223.086207 202.398825 l
246.114483 200.121935 l
269.142759 197.845045 l
292.171034 195.568155 l
315.19931 193.291265 l
320.405073 192.776552 l
338.227586 191.014374 l
361.255862 188.737484 l
384.284138 186.460594 l
407.312414 184.183704 l
430.34069 181.906814 l
431.588399 181.783448 l
453.368966 179.629924 l
476.397241 177.353034 l
499.425517 175.076144 l
522.453793 172.799253 l
542.771726 170.790345 l
545.482069 170.522363 l
568.510345 168.245473 l
591.538621 165.968583 l
614.566897 163.691693 l
637.595172 161.414803 l
653.955052 159.797241 l
660.623448 159.137913 l
683.651724 156.861022 l
706.68 154.584132 l
stroke
grestore
[5.55 2.4] 0 setdash
gsave
667.8 318.8 38.86 27.88 clipbox
38.86 182.537044 m
46.481805 181.783448 l
61.888276 180.260154 l
84.916552 177.983264 l
107.944828 175.706374 l
130.973103 173.429484 l
154.001379 171.152593 l
157.665132 170.790345 l
177.029655 168.875703 l
200.057931 166.598813 l
223.086207 164.321923 l
246.114483 162.045033 l
268.848458 159.797241 l
269.142759 159.768143 l
292.171034 157.491253 l
315.19931 155.214363 l
338.227586 152.937472 l
361.255862 150.660582 l
380.031785 148.804138 l
384.284138 148.383692 l
407.312414 146.106802 l
430.34069 143.829912 l
453.368966 141.553022 l
476.397241 139.276132 l
491.215111 137.811034 l
499.425517 136.999242 l
522.453793 134.722351 l
545.482069 132.445461 l
568.510345 130.168571 l
591.538621 127.891681 l
602.398438 126.817931 l
614.566897 125.614791 l
637.595172 123.337901 l
660.623448 121.061011 l
683.651724 118.78412 l
706.68 116.50723 l
stroke
grestore
0.800 setlinewidth
0 setlinejoin
2 setlinecap
[] 0 setdash
gsave
38.86 27.88 m
38.86 346.68 l
stroke
grestore
gsave
706.68 27.88 m
706.68 346.68 l
stroke
grestore
gsave
38.86 27.88 m
706.68 27.88 l
stroke
grestore
gsave
38.86 346.68 m
706.68 346.68 l
stroke
grestore

end
showpage
